Sensor, CurrentTimeMs, SensorTimestampNano, X, Y, Z
android.sensor.accelerometer,1524343258031,99182864043724,3.5581207,3.900299,9.449265
android.sensor.accelerometer,1524343258054,99182883300315,3.625122,3.768692,10.19104
android.sensor.accelerometer,1524343258067,99182902556907,3.5844421,3.4624176,9.836899
android.sensor.accelerometer,1524343258088,99182921813499,3.653839,3.3954163,8.597412
android.sensor.accelerometer,1524343258112,99182941070091,3.493515,3.275772,7.7814636
android.sensor.accelerometer,1524343258128,99182960326683,3.036499,3.139389,7.075577
android.sensor.accelerometer,1524343258144,99182979583274,2.4526367,2.9718933,7.932205
android.sensor.accelerometer,1524343258165,99182998809349,2.3617096,2.847458,9.334396
android.sensor.accelerometer,1524343258182,99183018065940,2.4382935,2.876175,8.843872
android.sensor.accelerometer,1524343258202,99183037322532,2.5938263,3.0245209,7.5397797
android.sensor.accelerometer,1524343258222,99183056579124,2.6153564,3.122635,7.1736755
android.sensor.accelerometer,1524343258240,99183075805198,2.7086792,3.1537476,8.394028
android.sensor.accelerometer,1524343258260,99183095061790,2.675171,3.0341034,9.355942
android.sensor.accelerometer,1524343258280,99183114318382,2.876175,3.0795593,8.3198395
android.sensor.accelerometer,1524343258299,99183133574974,2.7828522,3.0269165,7.5972137
android.sensor.accelerometer,1524343258318,99183152801048,2.5938263,3.0915222,7.8843536
android.sensor.accelerometer,1524343258338,99183172057640,2.3784637,3.0269165,7.8436737
android.sensor.accelerometer,1524343258358,99183191314231,1.9046936,3.122635,7.726425
android.sensor.accelerometer,1524343258375,99183210601341,1.9692993,3.213562,7.338791
android.sensor.accelerometer,1524343258396,99183229827415,2.2037964,3.259018,6.9224396
android.sensor.accelerometer,1524343258413,99183249084007,2.3904266,3.2087708,6.427124
android.sensor.accelerometer,1524343258434,99183268340599,2.658432,3.419342,6.36969
android.sensor.accelerometer,1524343258453,99183287597190,3.550949,4.2472534,6.484543
android.sensor.accelerometer,1524343258472,99183306853782,5.414963,6.1280212,6.32901
android.sensor.accelerometer,1524343258491,99183326079856,7.0995026,8.874985,8.712265
android.sensor.accelerometer,1524343258513,99183345336448,8.659622,9.683746,18.719055
android.sensor.accelerometer,1524343258531,99183364593040,8.288742,8.111664,32.49214
android.sensor.accelerometer,1524343258548,99183383849632,8.678772,4.051056,40.22574
android.sensor.accelerometer,1524343258568,99183403075706,5.2091827,-0.1531372,33.39662
android.sensor.accelerometer,1524343258587,99183422332298,-0.01675415,-3.316452,25.610382
android.sensor.accelerometer,1524343258607,99183441588890,-4.2807617,-4.668396,22.74617
android.sensor.accelerometer,1524343258627,99183460845481,-6.757324,-6.8937225,24.753754
android.sensor.accelerometer,1524343258647,99183480071556,-9.121445,-10.557129,24.043076
android.sensor.accelerometer,1524343258664,99183499358665,-9.8033905,-14.737396,17.125427
android.sensor.accelerometer,1524343258684,99183518615257,-9.265015,-16.871796,5.4340973
android.sensor.accelerometer,1524343258703,99183537871849,-9.389435,-17.733215,1.1126556
android.sensor.accelerometer,1524343258723,99183557097923,-6.3314056,-19.470398,-2.5627136
android.sensor.accelerometer,1524343258743,99183576354515,-1.7802582,-20.226532,-4.5583344
android.sensor.accelerometer,1524343258763,99183595611106,-1.9549408,-19.84607,-9.087936
android.sensor.accelerometer,1524343258781,99183614867698,-6.518051,-20.128418,-12.418747
android.sensor.accelerometer,1524343258800,99183634093772,-6.008377,-20.44667,-9.98764
android.sensor.accelerometer,1524343258822,99183653350364,2.8570251,-18.728622,-14.311478
android.sensor.accelerometer,1524343258837,99183672606956,10.035492,-15.077179,-18.872192
android.sensor.accelerometer,1524343258856,99183691863548,12.425934,-12.732208,-19.369904
android.sensor.accelerometer,1524343258875,99183711120140,16.802399,-11.779861,-15.914658
android.sensor.accelerometer,1524343258897,99183730346214,27.84288,-9.006592,-15.857239
android.sensor.accelerometer,1524343258915,99183749602806,34.054657,-5.9724884,-14.981461
android.sensor.accelerometer,1524343258934,99183768859397,35.904312,-2.617752,-12.49292
android.sensor.accelerometer,1524343258954,99183788146507,40.919662,-2.0721893,-9.992432
android.sensor.accelerometer,1524343258973,99183807372581,47.430527,-1.0695953,-3.6825562
android.sensor.accelerometer,1524343258991,99183826629173,48.069412,0.9643097,5.819351
android.sensor.accelerometer,1524343259010,99183845885765,47.444885,1.902298,19.759933
android.sensor.accelerometer,1524343259030,99183865142356,43.702515,2.0985107,20.812775
android.sensor.accelerometer,1524343259050,99183884368431,36.684372,0.22970581,12.411575
android.sensor.accelerometer,1524343259069,99183903625022,28.996231,-2.2827454,10.552353
android.sensor.accelerometer,1524343259089,99183922881614,23.150558,-5.079956,11.267807
android.sensor.accelerometer,1524343259106,99183942138206,17.534607,-7.590027,11.277374
android.sensor.accelerometer,1524343259127,99183961394798,11.339584,-9.367905,11.473587
android.sensor.accelerometer,1524343259147,99183980620872,4.4482574,-9.722046,12.454636
android.sensor.accelerometer,1524343259164,99183999877464,-3.3332062,-9.674179,9.489929
android.sensor.accelerometer,1524343259184,99184019134056,-7.613968,-9.683746,9.006592
android.sensor.accelerometer,1524343259203,99184038390647,-9.559326,-10.042679,10.140778
android.sensor.accelerometer,1524343259222,99184057647239,-12.684357,-10.813171,10.083359
android.sensor.accelerometer,1524343259241,99184076903831,-16.144379,-11.52623,12.08136
android.sensor.accelerometer,1524343259262,99184096160423,-15.536591,-12.24646,9.958923
android.sensor.accelerometer,1524343259281,99184115417015,-14.201401,-12.356537,6.8889313
android.sensor.accelerometer,1524343259301,99184134643089,-12.832703,-11.5286255,7.405792
android.sensor.accelerometer,1524343259322,99184153899681,-9.896713,-10.403992,7.207184
android.sensor.accelerometer,1524343259340,99184173156272,-7.2335052,-9.22673,5.6231384
android.sensor.accelerometer,1524343259358,99184192412864,-5.168503,-8.688339,1.9453583
android.sensor.accelerometer,1524343259378,99184211638938,-0.38523865,-8.554337,-1.483551
android.sensor.accelerometer,1524343259396,99184230895530,8.889343,-8.353348,-6.747757
android.sensor.accelerometer,1524343259417,99184250152122,13.868805,-8.901306,-10.882553
android.sensor.accelerometer,1524343259437,99184269408714,9.791428,-11.392227,-6.829117
android.sensor.accelerometer,1524343259453,99184288665306,14.790039,-12.658035,-1.3208313
android.sensor.accelerometer,1524343259473,99184307891380,29.527435,-9.714859,-4.311859
android.sensor.accelerometer,1524343259493,99184327147972,43.903503,-3.2398834,-10.700699
android.sensor.accelerometer,1524343259513,99184346435081,45.26024,-2.5531464,-6.7381897
android.sensor.accelerometer,1524343259535,99184365691673,43.6427,-4.811966,7.688141
android.sensor.accelerometer,1524343259552,99184384917747,48.935623,-6.742981,20.176285
android.sensor.accelerometer,1524343259569,99184404174339,52.862244,-6.666397,23.167313
android.sensor.accelerometer,1524343259589,99184423430931,47.930634,-8.604584,16.189835
android.sensor.accelerometer,1524343259608,99184442687522,41.58966,-12.887741,21.724442
android.sensor.accelerometer,1524343259627,99184461913597,37.88556,-18.30748,28.421951
android.sensor.accelerometer,1524343259647,99184481170188,32.81996,-22.753357,33.08316
android.sensor.accelerometer,1524343259667,99184500426780,29.642288,-25.198822,33.6718
android.sensor.accelerometer,1524343259686,99184519683372,22.162323,-24.832718,31.054047
android.sensor.accelerometer,1524343259705,99184538909446,16.488937,-22.380066,26.143982
android.sensor.accelerometer,1524343259724,99184558166038,14.531616,-21.217163,20.903702
android.sensor.accelerometer,1524343259743,99184577422630,14.787643,-21.320053,18.872192
android.sensor.accelerometer,1524343259763,99184596679222,13.562515,-21.439697,14.490936
android.sensor.accelerometer,1524343259784,99184615905296,11.58844,-21.664612,12.10289
android.sensor.accelerometer,1524343259802,99184635192405,10.573883,-22.588242,8.298309
android.sensor.accelerometer,1524343259822,99184654448997,10.037888,-23.8349,6.5156555
android.sensor.accelerometer,1524343259839,99184673705589,8.398804,-25.674988,3.053238
android.sensor.accelerometer,1524343259859,99184692962181,3.4695892,-28.04628,2.876175
android.sensor.accelerometer,1524343259878,99184712188255,-2.589035,-29.448471,2.5842438
android.sensor.accelerometer,1524343259898,99184731444847,-4.297516,-30.917664,3.661026
android.sensor.accelerometer,1524343259916,99184750701438,-4.857437,-31.848465,1.5936127
android.sensor.accelerometer,1524343259935,99184769958030,-3.2159576,-29.819351,-7.733597
android.sensor.accelerometer,1524343259954,99184789184104,-1.1294098,-26.888153,-6.817154
android.sensor.accelerometer,1524343259980,99184808440696,-0.18424988,-25.47638,-3.2303162
android.sensor.accelerometer,1524343259993,99184827697288,-1.1198425,-24.794434,-7.726425
android.sensor.accelerometer,1524343260012,99184846953880,2.2085724,-23.389847,-9.147766
android.sensor.accelerometer,1524343260033,99184866179954,4.82872,-22.432709,-9.231506
android.sensor.accelerometer,1524343260053,99184885436546,6.5611267,-21.621552,-11.294128
android.sensor.accelerometer,1524343260069,99184904693138,10.231705,-19.853256,-16.199417
android.sensor.accelerometer,1524343260090,99184923980247,11.7391815,-18.558731,-16.290344
android.sensor.accelerometer,1524343260107,99184943206321,12.61496,-18.465408,-13.555344
android.sensor.accelerometer,1524343260127,99184962462913,12.134003,-19.367508,-9.757935
android.sensor.accelerometer,1524343260146,99184981719505,15.656235,-20.305496,-8.501694
android.sensor.accelerometer,1524343260165,99185000976097,25.72284,-18.309875,-11.36351
android.sensor.accelerometer,1524343260190,99185020232688,26.54358,-16.268799,-18.946365
android.sensor.accelerometer,1524343260204,99185039458763,26.416763,-17.790634,-17.79303
android.sensor.accelerometer,1524343260223,99185058715354,33.839294,-19.532608,-6.168701
android.sensor.accelerometer,1524343260243,99185077971946,51.462433,-15.94577,5.3359985
android.sensor.accelerometer,1524343260263,99185097228538,53.44609,-12.658035,7.1210327
android.sensor.accelerometer,1524343260283,99185116454612,37.990845,-13.040878,0.13877869
android.sensor.accelerometer,1524343260303,99185135711204,23.676987,-14.196625,8.745773
android.sensor.accelerometer,1524343260320,99185154967796,18.104095,-10.99263,19.7695
android.sensor.accelerometer,1524343260338,99185174224388,16.512863,-10.478165,23.557343
android.sensor.accelerometer,1524343260358,99185193450462,11.038086,-10.1814575,21.762726
android.sensor.accelerometer,1524343260378,99185212737571,4.237686,-9.504288,16.936401
android.sensor.accelerometer,1524343260397,99185231994163,-1.0480499,-8.611771,13.141388
android.sensor.accelerometer,1524343260418,99185251250755,-4.266403,-7.5134583,10.138397
android.sensor.accelerometer,1524343260437,99185270476829,-4.409973,-5.522629,9.169296
android.sensor.accelerometer,1524343260456,99185289733421,-4.015152,-4.6372833,5.50589
android.sensor.accelerometer,1524343260474,99185308990013,-3.7447662,-3.8285217,4.0175476
android.sensor.accelerometer,1524343260494,99185328246604,-2.3497467,-2.6081696,3.6634064
android.sensor.accelerometer,1524343260515,99185347503196,-1.3399811,-1.4045868,3.426529
android.sensor.accelerometer,1524343260532,99185366729270,-0.87338257,-0.38523865,1.3710938
android.sensor.accelerometer,1524343260552,99185385985862,0.1651001,0.69869995,-0.43788147
android.sensor.accelerometer,1524343260570,99185405242454,-0.43788147,1.4787598,0.76091003
android.sensor.accelerometer,1524343260589,99185424499046,-0.48335266,1.7060852,6.7381897
android.sensor.accelerometer,1524343260608,99185443725120,1.0169525,0.99780273,7.240677
android.sensor.accelerometer,1524343260627,99185462981712,2.009964,0.95951843,9.219543
android.sensor.accelerometer,1524343260647,99185482238304,1.3567352,3.282959,10.741379
android.sensor.accelerometer,1524343260666,99185501525413,1.1940155,4.7808533,9.355942
android.sensor.accelerometer,1524343260686,99185520751487,2.6201477,3.6107635,7.8963165
android.sensor.accelerometer,1524343260705,99185540008079,3.4432678,3.3523407,7.585251
android.sensor.accelerometer,1524343260724,99185559264671,2.8737793,3.1680908,7.932205
android.sensor.accelerometer,1524343260744,99185578521263,2.2755737,3.3666992,9.559326
android.sensor.accelerometer,1524343260763,99185597747337,2.0003967,3.3834534,12.2895355
android.sensor.accelerometer,1524343260783,99185617003929,2.8402863,3.3044891,13.385452
android.sensor.accelerometer,1524343260800,99185636260520,2.1248322,4.187439,6.30748
android.sensor.accelerometer,1524343260820,99185655517112,3.378662,4.0797577,2.8570251
android.sensor.accelerometer,1524343260839,99185674773704,3.6299133,4.027115,5.01297
android.sensor.accelerometer,1524343260858,99185693999778,3.1657104,4.096512,9.525833
android.sensor.accelerometer,1524343260879,99185713256370,2.0482635,3.940979,11.004593
