Sensor, CurrentTimeMs, SensorTimestampNano, X, Y, Z
android.sensor.gyroscope,1524343279080,99203905945825,-0.038528442,-0.06602478,-0.029327393
android.sensor.gyroscope,1524343279090,99203925202417,-0.087387085,-0.07824707,-0.11605835
android.sensor.gyroscope,1524343279108,99203944459009,-0.11427307,-0.091674805,-0.16371155
android.sensor.gyroscope,1524343279128,99203963715601,-0.13748169,-0.06846619,-0.12950134
android.sensor.gyroscope,1524343279147,99203982941675,-0.1558075,-0.033050537,-0.0647583
android.sensor.gyroscope,1524343279167,99204002198267,-0.16802979,-0.044036865,-0.051315308
android.sensor.gyroscope,1524343279186,99204021454858,-0.12159729,-0.05014038,-0.05987549
android.sensor.gyroscope,1524343279205,99204040711450,-0.034851074,-0.088012695,-0.03300476
android.sensor.gyroscope,1524343279225,99204059937524,-0.012878418,-0.10267639,0.01953125
android.sensor.gyroscope,1524343279245,99204079194116,-0.07518005,-0.031814575,0.040298462
android.sensor.gyroscope,1524343279265,99204098481226,-0.10571289,0.04147339,0.012207031
android.sensor.gyroscope,1524343279283,99204117737817,-0.06661987,0.031707764,-0.023239136
android.sensor.gyroscope,1524343279301,99204136963892,-0.042175293,-0.017166138,-0.035446167
android.sensor.gyroscope,1524343279321,99204156220483,-0.07028198,-0.044036865,-0.0073547363
android.sensor.gyroscope,1524343279339,99204175477075,-0.11671448,-0.026931763,0.04762268
android.sensor.gyroscope,1524343279359,99204194733667,-0.16191101,0.01826477,0.06716919
android.sensor.gyroscope,1524343279378,99204213990259,-0.13626099,-0.014724731,0.041519165
android.sensor.gyroscope,1524343279397,99204233216333,-0.034851074,-0.14176941,-0.031784058
android.sensor.gyroscope,1524343279417,99204252472925,-0.026290894,-0.22850037,-0.07696533
android.sensor.gyroscope,1524343279436,99204271729517,-0.1435852,-0.24682617,-0.074523926
android.sensor.gyroscope,1524343279455,99204290986108,-0.25842285,-0.21385193,-0.030563354
android.sensor.gyroscope,1524343279474,99204310212183,-0.24865723,-0.21508789,0.04396057
android.sensor.gyroscope,1524343279494,99204329468774,-0.21444702,-0.33113098,0.09527588
android.sensor.gyroscope,1524343279513,99204348725366,-0.32196045,-0.3665619,0.14291382
android.sensor.gyroscope,1524343279535,99204367981958,-0.63838196,-0.09779358,0.17468262
android.sensor.gyroscope,1524343279551,99204387238550,-0.9707031,0.16609192,0.13191223
android.sensor.gyroscope,1524343279573,99204406495142,-1.0965271,0.080566406,0.08427429
android.sensor.gyroscope,1524343279591,99204425751733,-1.1111908,-0.30548096,0.092819214
android.sensor.gyroscope,1524343279609,99204445008325,-1.2626953,-0.7563019,-0.06719971
android.sensor.gyroscope,1524343279629,99204464234399,-1.3531036,-0.87358093,-0.5656738
android.sensor.gyroscope,1524343279650,99204483490991,-0.66526794,-0.6658783,-1.1166534
android.sensor.gyroscope,1524343279669,99204502747583,1.4678497,-0.65245056,-1.5613708
android.sensor.gyroscope,1524343279687,99204522004175,4.0004883,-0.7843933,-2.1587982
android.sensor.gyroscope,1524343279707,99204541260767,4.8898926,-0.49972534,-2.4177856
android.sensor.gyroscope,1524343279726,99204560486841,4.7677307,0.07444763,-1.9449921
android.sensor.gyroscope,1524343279746,99204579743433,4.9827576,0.56314087,-0.9358368
android.sensor.gyroscope,1524343279764,99204599000024,5.687683,1.0591736,0.151474
android.sensor.gyroscope,1524343279783,99204618256616,6.5905457,1.2179871,0.95658875
android.sensor.gyroscope,1524343279803,99204637482690,7.1146545,1.0371704,1.8276672
android.sensor.gyroscope,1524343279822,99204656739282,6.331543,1.000534,3.039627
android.sensor.gyroscope,1524343279841,99204676026392,4.468399,1.2570801,4.1611786
android.sensor.gyroscope,1524343279859,99204695282983,2.643158,1.5490723,4.7976837
android.sensor.gyroscope,1524343279883,99204714509058,1.8148193,1.1618042,5.0615845
android.sensor.gyroscope,1524343279901,99204733765649,1.7781677,0.56314087,5.556381
android.sensor.gyroscope,1524343279917,99204753022241,1.1086578,0.74031067,6.423813
android.sensor.gyroscope,1524343279937,99204772278833,-0.47346497,1.821518,6.917389
android.sensor.gyroscope,1524343279956,99204791504907,-1.832016,2.5203552,6.6730347
android.sensor.gyroscope,1524343279975,99204810761499,-2.8045044,2.3016663,5.594269
android.sensor.gyroscope,1524343279994,99204830018091,-3.9736938,1.9180298,4.0878754
android.sensor.gyroscope,1524343280014,99204849274683,-5.04393,1.4464417,3.0213013
android.sensor.gyroscope,1524343280033,99204868531274,-5.8148346,1.0689392,2.45076
android.sensor.gyroscope,1524343280053,99204887757349,-6.551529,0.44584656,1.4232941
android.sensor.gyroscope,1524343280071,99204907013940,-6.8471985,-0.57914734,-0.71958923
android.sensor.gyroscope,1524343280090,99204926270532,-5.37381,-1.4135742,-3.067749
android.sensor.gyroscope,1524343280109,99204945557642,-2.7128754,-1.6090546,-5.0628357
android.sensor.gyroscope,1524343280129,99204964783716,-1.3237762,-1.769104,-6.6816254
android.sensor.gyroscope,1524343280149,99204984040308,-1.2529297,-1.5064392,-7.7249756
android.sensor.gyroscope,1524343280168,99205003296899,-1.1478577,-0.72576904,-8.245422
android.sensor.gyroscope,1524343280187,99205022553491,-0.5577545,0.06590271,-8.153809
android.sensor.gyroscope,1524343280206,99205041779565,0.22903442,0.57780457,-7.5490417
android.sensor.gyroscope,1524343280225,99205061036157,0.8753052,0.87713623,-6.7243805
android.sensor.gyroscope,1524343280244,99205080292749,1.3652191,1.3291626,-5.1031494
android.sensor.gyroscope,1524343280264,99205099549341,1.6767731,1.8056335,-2.5436249
android.sensor.gyroscope,1524343280283,99205118775415,1.9186707,1.8667297,-0.12950134
android.sensor.gyroscope,1524343280303,99205138032007,2.1715698,1.5441895,1.3548737
android.sensor.gyroscope,1524343280321,99205157288599,1.7109833,1.2937317,2.3457031
android.sensor.gyroscope,1524343280341,99205176545190,0.7238312,1.3597107,3.3291779
android.sensor.gyroscope,1524343280362,99205195801782,-0.16191101,1.477005,4.3542175
android.sensor.gyroscope,1524343280379,99205215027856,-1.2236023,1.6920166,5.1324463
android.sensor.gyroscope,1524343280399,99205234314966,-2.503952,1.9327087,5.649246
android.sensor.gyroscope,1524343280419,99205253571558,-3.9113922,1.746994,5.7176514
android.sensor.gyroscope,1524343280440,99205272828149,-5.0194855,0.8832245,5.2582703
android.sensor.gyroscope,1524343280456,99205292054224,-5.6364746,0.18074036,5.3266907
android.sensor.gyroscope,1524343280476,99205311310815,-6.0420837,0.70365906,6.5838623
android.sensor.gyroscope,1524343280495,99205330567407,-6.141037,1.5429688,7.096985
android.sensor.gyroscope,1524343280515,99205349823999,-5.9956512,1.4159088,4.8050385
android.sensor.gyroscope,1524343280533,99205369050073,-5.200302,-0.5693817,1.4037323
android.sensor.gyroscope,1524343280553,99205388306665,-4.5246887,-1.1582336,-0.49725342
android.sensor.gyroscope,1524343280574,99205407563257,-4.6786346,1.0848236,-0.88697815
android.sensor.gyroscope,1524343280591,99205426819849,-4.6798553,2.5093536,-1.7116241
android.sensor.gyroscope,1524343280610,99205446076440,-3.4055939,1.1911011,-3.8374329
android.sensor.gyroscope,1524343280629,99205465302515,-2.0446014,-0.1210022,-5.778763
android.sensor.gyroscope,1524343280649,99205484559106,-1.4007416,0.048797607,-6.354187
android.sensor.gyroscope,1524343280669,99205503815698,-0.96458435,0.9039917,-6.118408
android.sensor.gyroscope,1524343280693,99205523102808,-0.10205078,1.2693024,-5.6846924
android.sensor.gyroscope,1524343280708,99205542328882,1.1367645,0.83558655,-5.7897644
android.sensor.gyroscope,1524343280726,99205561585474,1.9968567,0.25283813,-6.1611786
android.sensor.gyroscope,1524343280746,99205580842065,2.1862183,0.5814667,-5.9656982
android.sensor.gyroscope,1524343280766,99205600098657,2.0420532,1.9485931,-5.1544647
android.sensor.gyroscope,1524343280786,99205619324731,2.2607574,3.0737915,-4.427536
android.sensor.gyroscope,1524343280805,99205638581323,2.9180298,2.5557709,-4.4519806
android.sensor.gyroscope,1524343280822,99205657837915,3.608307,1.3267212,-4.8881226
android.sensor.gyroscope,1524343280843,99205677094507,4.197174,1.2460938,-4.868576
android.sensor.gyroscope,1524343280861,99205696320581,4.4329834,2.7927856,-4.305359
android.sensor.gyroscope,1524343280881,99205715577173,4.7200775,4.60585,-3.6114197
android.sensor.gyroscope,1524343280900,99205734833765,5.636383,4.159912,-3.0872955
android.sensor.gyroscope,1524343280919,99205754090356,6.3034515,2.3602905,-3.006668
android.sensor.gyroscope,1524343280938,99205773346948,6.6430817,1.6333618,-3.0836334
android.sensor.gyroscope,1524343280959,99205792573022,6.8874207,1.9754639,-2.6474762
android.sensor.gyroscope,1524343280978,99205811860132,6.9582825,3.8263855,-1.7079773
android.sensor.gyroscope,1524343280997,99205831116724,6.8226624,5.365753,-0.6401825
android.sensor.gyroscope,1524343281016,99205850373315,6.467148,4.7096863,0.32618713
android.sensor.gyroscope,1524343281035,99205869599390,6.6271973,2.9809418,0.7831116
android.sensor.gyroscope,1524343281056,99205888855981,6.6907196,3.066452,1.4049683
android.sensor.gyroscope,1524343281073,99205908112573,6.087204,5.680954,2.3921204
android.sensor.gyroscope,1524343281092,99205927369165,5.1794434,7.8763885,3.582077
android.sensor.gyroscope,1524343281111,99205946595239,4.250946,7.4830017,4.407959
android.sensor.gyroscope,1524343281132,99205965851831,3.3884125,6.1158905,4.660858
android.sensor.gyroscope,1524343281151,99205985108423,2.1019135,6.4787292,5.2949524
android.sensor.gyroscope,1524343281170,99206004365015,0.52467346,7.690689,6.1464844
android.sensor.gyroscope,1524343281189,99206023591089,-0.887619,8.156174,6.4433594
android.sensor.gyroscope,1524343281208,99206042847681,-2.605362,7.902054,5.9351196
android.sensor.gyroscope,1524343281228,99206062104272,-4.8154755,7.303406,5.2937164
android.sensor.gyroscope,1524343281247,99206081360864,-6.6590424,6.59848,4.748825
android.sensor.gyroscope,1524343281267,99206100647974,-7.802582,6.481186,3.9595947
android.sensor.gyroscope,1524343281285,99206119874048,-8.627258,5.9546204,2.078125
android.sensor.gyroscope,1524343281305,99206139130640,-9.122055,4.1403503,-0.85765076
android.sensor.gyroscope,1524343281326,99206158387231,-8.125122,2.1220703,-3.1532745
android.sensor.gyroscope,1524343281343,99206177643823,-6.186249,0.83924866,-4.1147766
android.sensor.gyroscope,1524343281363,99206196869897,-6.3389587,2.0499878,-4.754959
android.sensor.gyroscope,1524343281381,99206216126489,-6.4147034,3.1238708,-5.659027
android.sensor.gyroscope,1524343281400,99206235383081,-5.2210846,2.333435,-6.7683563
android.sensor.gyroscope,1524343281420,99206254639673,-3.51799,1.6223907,-7.0750275
android.sensor.gyroscope,1524343281441,99206273865747,-1.9480896,2.6901703,-5.7763214
android.sensor.gyroscope,1524343281459,99206293122339,-0.9425812,4.497101,-3.9412994
android.sensor.gyroscope,1524343281481,99206312378931,0.028656006,4.814743,-3.028656
android.sensor.gyroscope,1524343281497,99206331581068,0.6138611,4.034073,-3.220459
android.sensor.gyroscope,1524343281517,99206350807143,0.81910706,3.571045,-3.488037
android.sensor.gyroscope,1524343281535,99206370063734,0.7836914,3.6834412,-3.133728
android.sensor.gyroscope,1524343281557,99206389350844,0.50024414,3.8789215,-2.4385529
android.sensor.gyroscope,1524343281574,99206408607436,0.13005066,3.713974,-1.6200104
android.sensor.gyroscope,1524343281593,99206427864027,-0.31829834,3.45253,-0.85276794
android.sensor.gyroscope,1524343281613,99206447090102,-0.8851776,3.3132477,-0.29077148
android.sensor.gyroscope,1524343281631,99206466346693,-1.3763123,3.2216187,0.1832428
android.sensor.gyroscope,1524343281650,99206485603285,-1.7538147,3.2411652,0.60839844
android.sensor.gyroscope,1524343281669,99206504859877,-1.9835052,2.9223022,0.58273315
android.sensor.gyroscope,1524343281688,99206524085951,-1.7965851,2.4042969,0.008529663
android.sensor.gyroscope,1524343281708,99206543342543,-1.4630585,1.9045868,-0.062316895
android.sensor.gyroscope,1524343281728,99206562599135,-0.97314453,1.6492462,0.28341675
android.sensor.gyroscope,1524343281747,99206581855727,-0.39526367,1.2351074,0.56196594
android.sensor.gyroscope,1524343281766,99206601081801,0.12394714,0.3603363,0.4190216
android.sensor.gyroscope,1524343281790,99206620338393,0.57598877,-0.072143555,0.097717285
android.sensor.gyroscope,1524343281806,99206639594984,0.49169922,-0.06724548,-0.05619812
android.sensor.gyroscope,1524343281825,99206658851576,-0.111816406,0.17462158,-0.06842041
android.sensor.gyroscope,1524343281845,99206678108168,-0.007980347,0.52526855,-0.08796692
android.sensor.gyroscope,1524343281863,99206697364760,0.57354736,0.4556427,0.10015869
android.sensor.gyroscope,1524343281881,99206716621352,0.85821533,0.31758118,0.28463745
android.sensor.gyroscope,1524343281900,99206735877943,0.71647644,0.29437256,0.3664856
android.sensor.gyroscope,1524343281921,99206755134535,0.674942,0.29681396,0.25532532
android.sensor.gyroscope,1524343281940,99206774360609,0.7873535,0.23571777,-0.011016846
android.sensor.gyroscope,1524343281958,99206793617201,0.7751312,0.15875244,-0.16249084
android.sensor.gyroscope,1524343281977,99206812873793,0.6505127,0.12210083,-0.07575989
android.sensor.gyroscope,1524343281996,99206832130385,0.40127563,0.19906616,0.1697998
android.sensor.gyroscope,1524343282016,99206851356459,0.15081787,0.31636047,0.16368103
android.sensor.gyroscope,1524343282035,99206870613051,-0.109375,0.2748108,-0.0036773682
android.sensor.gyroscope,1524343282055,99206889869643,-0.1264801,-0.12588501,-0.15272522
