Sensor, CurrentTimeMs, SensorTimestampNano, X, Y, Z
android.sensor.accelerometer,1524343279080,99203905945825,3.3092804,4.3166504,7.8843536
android.sensor.accelerometer,1524343279090,99203925202417,3.0317078,4.2951202,8.123627
android.sensor.accelerometer,1524343279108,99203944459009,2.5770721,4.319046,8.193024
android.sensor.accelerometer,1524343279128,99203963715601,2.5986023,4.2592316,8.260025
android.sensor.accelerometer,1524343279147,99203982941675,3.041275,4.1611176,8.3198395
android.sensor.accelerometer,1524343279167,99204002198267,3.0341034,4.0797577,8.695511
android.sensor.accelerometer,1524343279186,99204021454858,2.7014923,4.1683044,8.879761
android.sensor.accelerometer,1524343279205,99204040711450,2.6990967,4.2879333,8.365311
android.sensor.accelerometer,1524343279225,99204059937524,3.0556335,4.4075775,8.061417
android.sensor.accelerometer,1524343279245,99204079194116,3.2925262,4.352539,8.398804
android.sensor.accelerometer,1524343279265,99204098481226,3.0675964,4.261612,8.776871
android.sensor.accelerometer,1524343279283,99204117737817,2.864212,4.067795,8.465805
android.sensor.accelerometer,1524343279301,99204136963892,2.634491,4.067795,8.159531
android.sensor.accelerometer,1524343279321,99204156220483,2.5052795,4.125229,8.193024
android.sensor.accelerometer,1524343279339,99204175477075,2.7972107,4.1730804,7.972885
android.sensor.accelerometer,1524343279359,99204194733667,3.0723877,4.197006,8.506485
android.sensor.accelerometer,1524343279378,99204213990259,3.139389,4.125229,8.673981
android.sensor.accelerometer,1524343279397,99204233216333,2.950348,3.9457703,7.8460693
android.sensor.accelerometer,1524343279417,99204252472925,2.6871338,3.8620148,7.0612183
android.sensor.accelerometer,1524343279436,99204271729517,2.4406738,3.878769,7.274185
android.sensor.accelerometer,1524343279455,99204290986108,2.1559296,3.907486,8.042282
android.sensor.accelerometer,1524343279474,99204310212183,2.3593292,3.7902374,7.7479553
android.sensor.accelerometer,1524343279494,99204329468774,2.2564392,3.9505463,6.754944
android.sensor.accelerometer,1524343279513,99204348725366,2.897705,4.23291,5.659027
android.sensor.accelerometer,1524343279535,99204367981958,3.1872406,4.474579,6.4701996
android.sensor.accelerometer,1524343279551,99204387238550,2.7804565,4.692322,8.17627
android.sensor.accelerometer,1524343279573,99204406495142,2.313858,5.3599243,9.791428
android.sensor.accelerometer,1524343279591,99204425751733,4.2233276,6.685547,11.48555
android.sensor.accelerometer,1524343279609,99204445008325,6.417557,7.5086823,15.881165
android.sensor.accelerometer,1524343279629,99204464234399,6.649658,6.4342957,24.464218
android.sensor.accelerometer,1524343279650,99204483490991,5.510666,4.4650116,35.485565
android.sensor.accelerometer,1524343279669,99204502747583,6.130417,0.91166687,34.961533
android.sensor.accelerometer,1524343279687,99204522004175,4.584656,-2.4693909,23.44249
android.sensor.accelerometer,1524343279706,99204541260767,1.0337067,-3.8931274,18.530014
android.sensor.accelerometer,1524343279726,99204560486841,-2.0578308,-4.62294,18.405594
android.sensor.accelerometer,1524343279746,99204579743433,-2.268402,-6.731003,17.163712
android.sensor.accelerometer,1524343279764,99204599000024,-1.8735809,-10.868195,12.028717
android.sensor.accelerometer,1524343279782,99204618256616,-5.7068787,-15.031708,2.868988
android.sensor.accelerometer,1524343279803,99204637482690,-9.202789,-16.907684,-9.865616
android.sensor.accelerometer,1524343279821,99204656739282,-8.214554,-17.089539,-17.453247
android.sensor.accelerometer,1524343279841,99204676026392,-5.5920258,-15.254242,-17.039291
android.sensor.accelerometer,1524343279859,99204695282983,-4.6301117,-13.804199,-11.349152
android.sensor.accelerometer,1524343279883,99204714509058,-4.97229,-13.21077,-8.487335
android.sensor.accelerometer,1524343279901,99204733765649,-2.2492523,-12.705887,-14.155945
android.sensor.accelerometer,1524343279917,99204753022241,6.7860413,-10.504486,-18.556335
android.sensor.accelerometer,1524343279937,99204772278833,17.187653,-8.449051,-16.864609
android.sensor.accelerometer,1524343279956,99204791504907,27.275787,-5.716461,-15.759125
android.sensor.accelerometer,1524343279975,99204810761499,33.65744,-4.364502,-16.197021
android.sensor.accelerometer,1524343279994,99204830018091,32.66681,-4.3836517,-12.229721
android.sensor.accelerometer,1524343280014,99204849274683,32.221756,-4.101303,-6.6687927
android.sensor.accelerometer,1524343280033,99204868531274,38.770905,-0.7896271,-0.21296692
android.sensor.accelerometer,1524343280053,99204887757349,50.88817,-0.38285828,12.844666
android.sensor.accelerometer,1524343280071,99204907013940,55.527847,-2.177475,32.786453
android.sensor.accelerometer,1524343280090,99204926270532,52.287964,-1.3471527,40.352554
android.sensor.accelerometer,1524343280109,99204945557642,43.11148,-3.1058807,27.613174
android.sensor.accelerometer,1524343280129,99204964783716,32.228928,-6.4989014,19.25505
android.sensor.accelerometer,1524343280148,99204984040308,22.136002,-10.9328,17.623138
android.sensor.accelerometer,1524343280167,99205003296899,12.320648,-15.192032,17.919846
android.sensor.accelerometer,1524343280187,99205022553491,3.3212433,-17.206787,15.687347
android.sensor.accelerometer,1524343280206,99205041779565,-5.25943,-19.9346,13.31366
android.sensor.accelerometer,1524343280225,99205061036157,-17.070404,-21.592834,9.492325
android.sensor.accelerometer,1524343280244,99205080292749,-26.074585,-20.44667,4.381256
android.sensor.accelerometer,1524343280264,99205099549341,-24.016754,-18.817154,0.9308014
android.sensor.accelerometer,1524343280283,99205118775415,-18.431915,-17.041687,-2.8881378
android.sensor.accelerometer,1524343280303,99205138032007,-14.414368,-15.230316,-10.803589
android.sensor.accelerometer,1524343280321,99205157288599,-12.63649,-13.055237,-13.966904
android.sensor.accelerometer,1524343280341,99205176545190,-10.406387,-9.932602,-13.95015
android.sensor.accelerometer,1524343280362,99205195801782,-6.192627,-7.2311096,-15.869202
android.sensor.accelerometer,1524343280379,99205215027856,-2.7541351,-6.273987,-16.718658
android.sensor.accelerometer,1524343280399,99205234314966,2.1990051,-7.5996094,-15.82373
android.sensor.accelerometer,1524343280419,99205253571558,8.197815,-10.329819,-12.268005
android.sensor.accelerometer,1524343280438,99205272828149,8.080566,-13.299301,-5.728424
android.sensor.accelerometer,1524343280456,99205292054224,7.8388824,-16.168304,0.08135986
android.sensor.accelerometer,1524343280476,99205311310815,21.415756,-16.010376,7.4321136
android.sensor.accelerometer,1524343280495,99205330567407,42.00122,-12.0095825,10.820343
android.sensor.accelerometer,1524343280515,99205349823999,49.52664,-7.360321,16.783264
android.sensor.accelerometer,1524343280533,99205369050073,43.539795,-3.1944122,17.900711
android.sensor.accelerometer,1524343280552,99205388306665,36.497726,0.39720154,15.804596
android.sensor.accelerometer,1524343280574,99205407563257,35.97609,-1.758728,21.375092
android.sensor.accelerometer,1524343280591,99205426819849,41.36711,-4.9914246,29.922256
android.sensor.accelerometer,1524343280610,99205446076440,38.476593,-9.119049,27.933807
android.sensor.accelerometer,1524343280629,99205465302515,30.546768,-12.859024,24.126831
android.sensor.accelerometer,1524343280649,99205484559106,23.069199,-14.871399,23.205597
android.sensor.accelerometer,1524343280669,99205503815698,18.707092,-14.936005,27.010178
android.sensor.accelerometer,1524343280693,99205523102808,21.602402,-14.883362,26.519653
android.sensor.accelerometer,1524343280708,99205542328882,21.755539,-15.795029,22.143188
android.sensor.accelerometer,1524343280726,99205561585474,17.474792,-16.00798,16.835907
android.sensor.accelerometer,1524343280746,99205580842065,14.187042,-13.765915,13.526627
android.sensor.accelerometer,1524343280766,99205600098657,14.545975,-11.846863,13.076782
android.sensor.accelerometer,1524343280785,99205619324731,16.852646,-12.354141,12.1866455
android.sensor.accelerometer,1524343280805,99205638581323,16.350159,-13.359131,10.092926
android.sensor.accelerometer,1524343280822,99205657837915,11.717651,-14.222931,8.571091
android.sensor.accelerometer,1524343280843,99205677094507,8.841476,-14.749359,4.2065887
android.sensor.accelerometer,1524343280861,99205696320581,8.427521,-14.931213,3.7710876
android.sensor.accelerometer,1524343280881,99205715577173,7.35553,-17.324036,5.647064
android.sensor.accelerometer,1524343280900,99205734833765,8.114059,-19.39383,2.7350006
android.sensor.accelerometer,1524343280919,99205754090356,6.36969,-21.463623,2.0865479
android.sensor.accelerometer,1524343280938,99205773346948,1.6725769,-23.344376,1.6678009
android.sensor.accelerometer,1524343280959,99205792573022,-0.07896423,-23.696121,-0.46420288
android.sensor.accelerometer,1524343280978,99205811860132,0.13877869,-23.507095,-1.7108612
android.sensor.accelerometer,1524343280997,99205831116724,-1.2658081,-24.272797,-3.6801605
android.sensor.accelerometer,1524343281016,99205850373315,0.5288086,-24.964325,0.727417
android.sensor.accelerometer,1524343281035,99205869599390,-0.122039795,-26.189438,-1.2466583
android.sensor.accelerometer,1524343281055,99205888855981,0.9714813,-26.287552,-5.5872345
android.sensor.accelerometer,1524343281073,99205908112573,1.5361938,-25.730026,-7.848465
android.sensor.accelerometer,1524343281092,99205927369165,3.8620148,-24.689148,-10.372879
android.sensor.accelerometer,1524343281111,99205946595239,6.352951,-22.571503,-11.861221
android.sensor.accelerometer,1524343281132,99205965851831,5.2211456,-22.226929,-15.378677
android.sensor.accelerometer,1524343281151,99205985108423,7.1856537,-22.801208,-16.084549
android.sensor.accelerometer,1524343281170,99206004365015,15.275787,-23.191238,-15.292526
android.sensor.accelerometer,1524343281189,99206023591089,23.662628,-21.810577,-20.044678
android.sensor.accelerometer,1524343281208,99206042847681,27.82135,-20.848663,-22.057037
android.sensor.accelerometer,1524343281228,99206062104272,30.86023,-20.114075,-17.395828
android.sensor.accelerometer,1524343281247,99206081360864,37.502716,-20.621353,-10.413559
android.sensor.accelerometer,1524343281267,99206100647974,48.65805,-20.623734,-4.922043
android.sensor.accelerometer,1524343281285,99206119874048,56.039917,-19.35794,-1.0600128
android.sensor.accelerometer,1524343281305,99206139130640,46.090546,-18.611374,11.643478
android.sensor.accelerometer,1524343281325,99206158387231,36.014374,-12.684357,14.213364
android.sensor.accelerometer,1524343281343,99206177643823,30.795624,-13.014557,2.646469
android.sensor.accelerometer,1524343281363,99206196869897,24.973892,-15.857239,10.392029
android.sensor.accelerometer,1524343281380,99206216126489,18.946365,-17.558533,19.958542
android.sensor.accelerometer,1524343281400,99206235383081,7.9824524,-17.36232,24.064621
android.sensor.accelerometer,1524343281420,99206254639673,-1.1916199,-15.495926,21.887146
android.sensor.accelerometer,1524343281440,99206273865747,-3.3068848,-11.514267,17.111069
android.sensor.accelerometer,1524343281459,99206293122339,0.15792847,-9.757935,14.761322
android.sensor.accelerometer,1524343281478,99206312378931,4.3621216,-7.9609222,8.738586
android.sensor.accelerometer,1524343281497,99206331581068,1.6127625,-6.960724,5.34317
android.sensor.accelerometer,1524343281516,99206350807143,-1.5553284,-6.094513,2.5770721
android.sensor.accelerometer,1524343281535,99206370063734,-2.9647064,-4.8478546,0.6125641
android.sensor.accelerometer,1524343281557,99206389350844,-2.7972107,-3.247055,0.22492981
android.sensor.accelerometer,1524343281574,99206408607436,-1.763504,-1.2203369,-0.88534546
android.sensor.accelerometer,1524343281593,99206427864027,-1.2873383,0.5431671,-1.3997955
android.sensor.accelerometer,1524343281613,99206447090102,-2.0889282,1.7730865,0.49291992
android.sensor.accelerometer,1524343281631,99206466346693,-2.3784637,3.0029907,1.3328094
android.sensor.accelerometer,1524343281650,99206485603285,0.9667053,4.0797577,4.8598175
android.sensor.accelerometer,1524343281669,99206504859877,4.9627075,3.3356018,8.011169
android.sensor.accelerometer,1524343281688,99206524085951,4.546356,3.534195,9.001801
android.sensor.accelerometer,1524343281708,99206543342543,2.6105652,4.7760773,10.516449
android.sensor.accelerometer,1524343281728,99206562599135,2.050644,5.1637115,11.873184
android.sensor.accelerometer,1524343281747,99206581855727,2.7924194,4.0343018,11.241486
android.sensor.accelerometer,1524343281766,99206601081801,3.7998047,4.010376,8.8367
android.sensor.accelerometer,1524343281790,99206620338393,3.8500519,4.8598175,6.896118
android.sensor.accelerometer,1524343281805,99206639594984,3.0723877,5.333603,6.3218384
android.sensor.accelerometer,1524343281825,99206658851576,1.9716797,4.0701904,10.310669
android.sensor.accelerometer,1524343281845,99206678108168,0.6316986,4.204193,11.461624
android.sensor.accelerometer,1524343281863,99206697364760,1.2275238,4.051056,8.987442
android.sensor.accelerometer,1524343281881,99206716621352,1.8687897,4.4027863,7.130615
android.sensor.accelerometer,1524343281900,99206735877943,2.9312134,4.54158,8.178665
android.sensor.accelerometer,1524343281921,99206755134535,3.2015991,4.7234344,8.394028
android.sensor.accelerometer,1524343281940,99206774360609,2.120041,4.618149,7.0253296
android.sensor.accelerometer,1524343281958,99206793617201,0.99302673,4.204193,6.970291
android.sensor.accelerometer,1524343281977,99206812873793,0.9260254,4.532013,6.520447
android.sensor.accelerometer,1524343281996,99206832130385,2.514862,4.816757,6.551544
android.sensor.accelerometer,1524343282016,99206851356459,2.7278137,5.065613,6.695114
android.sensor.accelerometer,1524343282035,99206870613051,1.9836426,4.881363,8.989838
android.sensor.accelerometer,1524343282055,99206889869643,1.4476624,4.1563263,10.265213
