Sensor, CurrentTimeMs, SensorTimestampNano, X, Y, Z
android.sensor.gyroscope,1524343028424,98953253944730,0.3756256,0.50205994,0.52531433
android.sensor.gyroscope,1524343028439,98953273201321,0.26689148,0.068344116,0.5485382
android.sensor.gyroscope,1524343028459,98953292427396,0.021316528,-0.21873474,0.60961914
android.sensor.gyroscope,1524343028476,98953311683987,-0.14480591,-0.29083252,0.64627075
android.sensor.gyroscope,1524343028498,98953330940579,-0.0947113,-0.12832642,0.5460968
android.sensor.gyroscope,1524343028515,98953350197171,-0.034851074,0.10133362,0.4691162
android.sensor.gyroscope,1524343028534,98953369423245,-0.034851074,0.31025696,0.5448761
android.sensor.gyroscope,1524343028553,98953388679837,-0.07762146,0.54237366,0.71224976
android.sensor.gyroscope,1524343028572,98953407936429,-0.10205078,0.4055481,0.7806549
android.sensor.gyroscope,1524343028592,98953427193021,-0.13381958,0.024368286,0.71224976
android.sensor.gyroscope,1524343028610,98953446449612,-0.2596588,-0.24806213,0.6817169
android.sensor.gyroscope,1524343028631,98953465706204,-0.49299622,-0.33847046,0.706131
android.sensor.gyroscope,1524343028650,98953484962796,-0.7972107,-0.27859497,0.7110138
android.sensor.gyroscope,1524343028669,98953504219388,-1.0195618,-0.11734009,0.61938477
android.sensor.gyroscope,1524343028688,98953523445462,-1.0782013,0.08911133,0.7110138
android.sensor.gyroscope,1524343028710,98953542702054,-1.2089233,0.29437256,0.94558716
android.sensor.gyroscope,1524343028728,98953561958646,-1.5351257,0.51794434,1.1410675
android.sensor.gyroscope,1524343028745,98953581215237,-1.937088,0.632782,1.2669067
android.sensor.gyroscope,1524343028764,98953600441312,-2.334137,0.57536316,1.4770508
android.sensor.gyroscope,1524343028784,98953619697903,-2.7092133,0.3737793,1.8704376
android.sensor.gyroscope,1524343028813,98953638954495,-2.9523315,0.27360535,2.3004913
android.sensor.gyroscope,1524343028829,98953658211087,-2.6896667,0.5826874,2.6401367
android.sensor.gyroscope,1524343028843,98953677437161,-1.8332367,0.6706543,2.7830658
android.sensor.gyroscope,1524343028863,98953696693753,-1.2443695,0.6450043,3.097046
android.sensor.gyroscope,1524343028880,98953715950345,-1.0330048,0.86857605,3.7299042
android.sensor.gyroscope,1524343028899,98953735206937,-0.38427734,1.3157349,4.600998
android.sensor.gyroscope,1524343028919,98953754463528,0.87409973,1.9754639,5.4549866
android.sensor.gyroscope,1524343028938,98953773720120,1.7525177,2.4714813,5.5625
android.sensor.gyroscope,1524343028958,98953792976712,1.9284363,1.9473572,5.0689087
android.sensor.gyroscope,1524343028976,98953812233304,2.0591583,0.7500763,4.6816254
android.sensor.gyroscope,1524343028996,98953831459378,2.5270844,-0.06236267,4.34198
android.sensor.gyroscope,1524343029015,98953850715970,3.172165,-0.031814575,4.106201
android.sensor.gyroscope,1524343029034,98953869972562,3.4458313,0.29193115,3.9595947
android.sensor.gyroscope,1524343029056,98953889198636,2.9070282,0.19050598,3.7519073
android.sensor.gyroscope,1524343029073,98953908455228,2.017624,-0.62557983,3.5967255
android.sensor.gyroscope,1524343029092,98953927711820,1.3982239,-1.4881134,3.529541
android.sensor.gyroscope,1524343029111,98953946968411,1.5252686,-1.5797424,3.4831238
android.sensor.gyroscope,1524343029130,98953966194486,2.109253,-0.9212189,3.5576324
android.sensor.gyroscope,1524343029151,98953985451077,2.4427948,-0.3665619,3.7030334
android.sensor.gyroscope,1524343029169,98954004707669,2.2509766,-0.7000885,3.9766998
android.sensor.gyroscope,1524343029190,98954023994778,1.8441315,-0.9285736,4.206375
android.sensor.gyroscope,1524343029210,98954043220853,1.6645355,0.5814667,4.2882385
android.sensor.gyroscope,1524343029226,98954062477445,1.5350494,3.1568756,4.455612
android.sensor.gyroscope,1524343029246,98954081734036,0.79589844,3.971756,4.343216
android.sensor.gyroscope,1524343029265,98954100990628,-0.29751587,2.8807678,3.7934418
android.sensor.gyroscope,1524343029285,98954120216702,-1.4716187,1.4550018,3.1727905
android.sensor.gyroscope,1524343029303,98954139473294,-2.413559,0.3407898,2.5790405
android.sensor.gyroscope,1524343029324,98954158729886,-3.0060883,-0.116119385,1.8716736
android.sensor.gyroscope,1524343029342,98954177986478,-3.2993011,0.4079895,1.4049683
android.sensor.gyroscope,1524343029362,98954197212552,-3.2492065,1.4000244,1.1031952
android.sensor.gyroscope,1524343029380,98954216469144,-3.5741882,1.6480408,0.4642334
android.sensor.gyroscope,1524343029400,98954235725736,-4.7262726,0.37010193,-0.46424866
android.sensor.gyroscope,1524343029420,98954254982327,-5.811157,-1.3842773,-1.5858002
android.sensor.gyroscope,1524343029439,98954274208402,-5.5582733,-2.2663422,-3.1630402
android.sensor.gyroscope,1524343029457,98954293495511,-4.222931,-2.8992004,-5.3719177
android.sensor.gyroscope,1524343029477,98954312752103,-2.9779816,-3.8594666,-7.4855194
android.sensor.gyroscope,1524343029496,98954332008695,-2.3048248,-5.8069153,-8.800079
android.sensor.gyroscope,1524343029515,98954351234769,-0.7788849,-8.046326,-9.694397
android.sensor.gyroscope,1524343029535,98954370491361,3.2173615,-8.597336,-11.054169
android.sensor.gyroscope,1524343029554,98954389747952,7.464081,-8.721954,-12.913635
android.sensor.gyroscope,1524343029573,98954409004544,9.093857,-11.4964905,-14.863525
android.sensor.gyroscope,1524343029592,98954428230618,9.084076,-16.169586,-15.263016
android.sensor.gyroscope,1524343029611,98954447487210,8.807968,-18.191544,-14.369934
android.sensor.gyroscope,1524343029631,98954466743802,6.252121,-16.734024,-15.569672
android.sensor.gyroscope,1524343029650,98954486000394,7.252716,-11.235031,-16.753525
android.sensor.gyroscope,1524343029670,98954505226468,11.371155,-3.9388885,-16.82071
android.sensor.gyroscope,1524343029689,98954524483060,11.989349,-0.05381775,-15.31189
android.sensor.gyroscope,1524343029708,98954543739652,11.619171,-0.4801941,-10.545929
android.sensor.gyroscope,1524343029727,98954562996243,9.087753,-3.684784,-6.349304
android.sensor.gyroscope,1524343029747,98954582252835,6.7701263,-4.963928,-3.4843597
android.sensor.gyroscope,1524343029766,98954601509427,5.8880463,-4.4691315,-0.8637543
android.sensor.gyroscope,1524343029786,98954620766019,4.6736603,-5.855774,1.9547424
android.sensor.gyroscope,1524343029804,98954640022611,3.0450897,-9.165436,3.556427
android.sensor.gyroscope,1524343029823,98954659248685,2.0945892,-11.20694,3.0017548
android.sensor.gyroscope,1524343029843,98954678505277,1.7341919,-10.820877,1.292572
android.sensor.gyroscope,1524343029863,98954697761868,1.0976715,-8.460495,0.15515137
android.sensor.gyroscope,1524343029881,98954717018460,0.28033447,-5.5002594,-0.19670105
android.sensor.gyroscope,1524343029900,98954736244534,-0.39160156,-3.2669373,-0.47525024
android.sensor.gyroscope,1524343029919,98954755501126,-0.34150696,-1.5430908,-0.6621704
android.sensor.gyroscope,1524343029939,98954774757718,0.31698608,-0.48631287,-0.20281982
android.sensor.gyroscope,1524343029959,98954794014310,0.3206482,-0.71476746,0.98223877
android.sensor.gyroscope,1524343030022,98954813240384,-0.38671875,-1.6933594,2.3444672
android.sensor.gyroscope,1524343030023,98954832496976,-0.58462524,-2.001236,3.1398163
android.sensor.gyroscope,1524343030023,98954851753568,-0.027526855,-1.3366241,3.2631989
android.sensor.gyroscope,1524343030036,98954871010159,0.76412964,-0.3983307,3.2204437
android.sensor.gyroscope,1524343030054,98954890266751,1.0207062,0.035354614,3.3695068
android.sensor.gyroscope,1524343030075,98954909523343,0.754364,0.05368042,3.6712646
android.sensor.gyroscope,1524343030095,98954928779935,0.42692566,0.107437134,3.8325348
android.sensor.gyroscope,1524343030112,98954948006009,0.33164978,0.24549866,3.6004028
android.sensor.gyroscope,1524343030133,98954967262601,0.55278015,0.3249054,3.1752472
android.sensor.gyroscope,1524343030151,98954986519193,0.85331726,0.3273468,2.9724426
android.sensor.gyroscope,1524343030170,98955005775784,0.9877014,0.2613678,3.0310822
android.sensor.gyroscope,1524343030189,98955025001859,0.9950409,0.41531372,3.1349335
android.sensor.gyroscope,1524343030208,98955044258450,1.0805664,0.90766907,3.158142
android.sensor.gyroscope,1524343030227,98955063515042,1.2418365,1.2424316,2.9736633
android.sensor.gyroscope,1524343030247,98955082771634,1.2491608,0.99809265,2.6254578
android.sensor.gyroscope,1524343030266,98955101997708,1.0891113,0.28459167,2.3615875
android.sensor.gyroscope,1524343030286,98955121254300,0.8826294,-0.29327393,2.1856384
android.sensor.gyroscope,1524343030305,98955140510892,0.6541748,-0.25906372,2.1673126
android.sensor.gyroscope,1524343030328,98955159798001,0.47946167,0.87223816,2.296814
android.sensor.gyroscope,1524343030343,98955179024075,0.89730835,2.6388702,2.3994446
android.sensor.gyroscope,1524343030363,98955198280667,1.4226379,3.0750122,2.3444672
android.sensor.gyroscope,1524343030382,98955217537259,1.3835449,2.4348297,2.22229
android.sensor.gyroscope,1524343030401,98955236793851,0.87409973,1.7518768,2.0488129
android.sensor.gyroscope,1524343030420,98955256019925,0.34629822,1.099472,1.9755096
android.sensor.gyroscope,1524343030440,98955275276517,-0.24133301,0.43363953,1.8960876
android.sensor.gyroscope,1524343030461,98955296516751,-0.6982422,0.010940552,1.860672
android.sensor.gyroscope,1524343030480,98955315498685,-0.59928894,-0.24806213,2.0439148
android.sensor.gyroscope,1524343030500,98955334755277,-0.16679382,-0.4484253,1.9205322
android.sensor.gyroscope,1524343030519,98955354164456,-0.06539917,-0.75997925,1.4281769
android.sensor.gyroscope,1524343030537,98955371528958,-0.30607605,-0.51316833,1.0714417
android.sensor.gyroscope,1524343030560,98955392647122,-0.37205505,0.6706543,1.0054626
android.sensor.gyroscope,1524343030577,98955411812161,-0.4832306,1.0139618,1.0189056
android.sensor.gyroscope,1524343030598,98955431007718,-0.9401398,-0.5119629,1.1813965
android.sensor.gyroscope,1524343030647,98955450294827,-1.1649475,-1.6970367,0.91993713
android.sensor.gyroscope,1524343030647,98955469459866,-1.0171204,-1.7654419,0.640152
android.sensor.gyroscope,1524343030669,98955487037991,-0.70803833,-1.009201,1.007904
android.sensor.gyroscope,1524343030671,98955506294583,-0.5883026,-0.0134887695,1.2998962
android.sensor.gyroscope,1524343030691,98955525551175,-0.56385803,0.04269409,0.96635437
android.sensor.gyroscope,1524343030713,98955544807767,-0.33784485,-0.0574646,0.42390442
android.sensor.gyroscope,1524343030728,98955564033841,-0.034851074,0.16485596,-0.025680542
android.sensor.gyroscope,1524343030747,98955583290433,0.13494873,0.6645355,-0.49113464
android.sensor.gyroscope,1524343030767,98955602547025,0.28033447,1.9779053,-0.78556824
android.sensor.gyroscope,1524343030786,98955621803616,0.42448425,3.315689,-0.62797546
android.sensor.gyroscope,1524343030806,98955641029691,0.032318115,2.0389862,-0.40927124
android.sensor.gyroscope,1524343030824,98955660286282,-0.29263306,-0.44230652,-0.6023102
android.sensor.gyroscope,1524343030844,98955679542874,-0.54797363,-1.8399658,-0.77944946
android.sensor.gyroscope,1524343030863,98955698799466,-0.60417175,-2.092865,-0.46792603
android.sensor.gyroscope,1524343030882,98955718025540,-0.7483368,-1.3647156,0.23698425
android.sensor.gyroscope,1524343030902,98955737312650,-0.76057434,-1.0605011,0.4373474
android.sensor.gyroscope,1524343030920,98955756569241,-0.95358276,-0.7856293,0.23454285
android.sensor.gyroscope,1524343030940,98955775825833,-0.74713135,-0.49972534,0.15759277
android.sensor.gyroscope,1524343030959,98955795051907,-0.26210022,-0.62924194,-0.03300476
android.sensor.gyroscope,1524343030978,98955814308499,0.04576111,-0.6952057,-0.38728333
android.sensor.gyroscope,1524343030998,98955833565091,0.31332397,-0.8662567,-0.4789276
android.sensor.gyroscope,1524343031018,98955852791165,0.5991974,-0.85891724,-0.21134949
android.sensor.gyroscope,1524343031036,98955872047757,0.6175232,-0.4716339,0.037857056
android.sensor.gyroscope,1524343031055,98955891304349,0.45381165,-0.06602478,0.1832428
android.sensor.gyroscope,1524343031075,98955910560941,0.19482422,0.30291748,0.16123962
android.sensor.gyroscope,1524343031098,98955929787015,-0.043411255,0.25283813,-0.09529114
android.sensor.gyroscope,1524343031115,98955949043607,-0.16802979,-0.07702637,-0.37019348
android.sensor.gyroscope,1524343031132,98955968300198,-0.12281799,-0.45819092,-0.3555298
android.sensor.gyroscope,1524343031152,98955987556790,0.21191406,-0.4618683,-0.15760803
android.sensor.gyroscope,1524343031173,98956006782864,0.43060303,-0.020812988,-0.074523926
android.sensor.gyroscope,1524343031193,98956026069974,0.3756256,0.27848816,-0.070877075
android.sensor.gyroscope,1524343031210,98956045326566,0.28889465,0.36401367,-0.0036773682
android.sensor.gyroscope,1524343031231,98956064583157,0.23147583,0.46173096,0.05984497
android.sensor.gyroscope,1524343031248,98956083809232,0.112960815,0.3627777,0.06716919
android.sensor.gyroscope,1524343031267,98956103065823,0.03475952,-0.0037384033,0.11604309
android.sensor.gyroscope,1524343031288,98956122322415,0.060424805,-0.16255188,0.16247559
android.sensor.gyroscope,1524343031307,98956141579007,0.11051941,-0.05014038,0.138031
android.sensor.gyroscope,1524343031327,98956160805081,0.12272644,-0.0037384033,-0.018356323
android.sensor.gyroscope,1524343031347,98956180061673,0.15325928,-0.08068848,-0.17837524
android.sensor.gyroscope,1524343031363,98956199318265,0.17526245,-0.21017456,-0.13072205
android.sensor.gyroscope,1524343031382,98956218574857,0.13494873,-0.30548096,0.04396057
android.sensor.gyroscope,1524343031402,98956237800931,0.15571594,-0.32746887,0.20645142
android.sensor.gyroscope,1524343031422,98956257057523,0.2558899,0.12332153,0.25532532
android.sensor.gyroscope,1524343031442,98956276314114,0.13249207,0.3554535,0.30296326
android.sensor.gyroscope,1524343031463,98956295599538,-0.03729248,-0.04647827,0.17347717
