Sensor, CurrentTimeMs, SensorTimestampNano, X, Y, Z
android.sensor.accelerometer,1524343009582,98934407590531,2.5579224,5.30011,8.207382
android.sensor.accelerometer,1524343009596,98934426847122,2.7062836,5.268997,8.262421
android.sensor.accelerometer,1524343009610,98934446103714,2.1942139,5.3694916,7.7766724
android.sensor.accelerometer,1524343009630,98934465329788,2.0769653,5.3168488,7.6115723
android.sensor.accelerometer,1524343009650,98934484586380,2.170288,5.2953186,7.566101
android.sensor.accelerometer,1524343009668,98934503842972,2.1296082,5.4006042,7.6115723
android.sensor.accelerometer,1524343009687,98934523099564,2.5339966,5.3240356,7.992035
android.sensor.accelerometer,1524343009707,98934542325638,2.7541351,5.1541443,7.8173523
android.sensor.accelerometer,1524343009726,98934561612747,2.3665009,5.1637115,7.3866425
android.sensor.accelerometer,1524343009745,98934580869339,2.1870422,5.091934,7.4775696
android.sensor.accelerometer,1524343009765,98934600095413,2.4526367,4.996216,7.8723907
android.sensor.accelerometer,1524343009784,98934619352005,2.4478607,4.821533,8.123627
android.sensor.accelerometer,1524343009803,98934638608597,2.313858,4.6540375,8.027924
android.sensor.accelerometer,1524343009824,98934657865189,2.2612152,4.553543,8.037491
android.sensor.accelerometer,1524343009842,98934677091263,2.4071808,4.2544403,8.171494
android.sensor.accelerometer,1524343009860,98934696347855,2.4358978,3.7423706,7.903488
android.sensor.accelerometer,1524343009880,98934715604447,2.4382935,2.6895294,7.7001038
android.sensor.accelerometer,1524343009899,98934734861038,3.0652008,2.7350006,8.0686035
android.sensor.accelerometer,1524343009919,98934754087113,3.2853394,4.651642,8.528015
android.sensor.accelerometer,1524343009937,98934773343704,3.287735,5.6351013,8.049454
android.sensor.accelerometer,1524343009957,98934792600296,2.7876434,6.652054,6.69751
android.sensor.accelerometer,1524343009976,98934811856888,2.5770721,7.269394,5.5345917
android.sensor.accelerometer,1524343009996,98934831082962,2.8713837,7.463211,5.65184
android.sensor.accelerometer,1524343010015,98934850370072,2.555542,8.6237335,6.1902313
android.sensor.accelerometer,1524343010033,98934869626663,1.7611237,9.808182,6.970291
android.sensor.accelerometer,1524343010053,98934888852738,0.4283142,10.600204,7.269394
android.sensor.accelerometer,1524343010073,98934908109329,-1.0743713,11.203201,6.3218384
android.sensor.accelerometer,1524343010091,98934927365921,-2.897705,11.394623,4.204193
android.sensor.accelerometer,1524343010110,98934946622513,-3.9098663,11.370697,3.9385834
android.sensor.accelerometer,1524343010130,98934965848587,-3.7591248,10.449463,4.8263245
android.sensor.accelerometer,1524343010149,98934985105179,-2.7852478,9.499512,5.8576355
android.sensor.accelerometer,1524343010168,98935004361771,-2.376068,8.805588,7.972885
android.sensor.accelerometer,1524343010189,98935023618363,-2.514862,8.248062,9.891922
android.sensor.accelerometer,1524343010208,98935042844437,-2.321045,7.142578,11.289337
android.sensor.accelerometer,1524343010226,98935062101029,-1.5984039,5.9078827,10.327423
android.sensor.accelerometer,1524343010245,98935081357620,-1.6678009,5.379059,8.446671
android.sensor.accelerometer,1524343010265,98935100583695,-1.4955139,5.170883,9.918243
android.sensor.accelerometer,1524343010284,98935119840286,-0.3062744,5.091934,11.605194
android.sensor.accelerometer,1524343010303,98935139127396,0.5742798,4.737793,12.332611
android.sensor.accelerometer,1524343010323,98935158383988,0.32063293,4.3908234,11.2534485
android.sensor.accelerometer,1524343010341,98935177610062,0.1603241,4.3286133,9.410965
android.sensor.accelerometer,1524343010361,98935196866654,0.899704,4.027115,8.391632
android.sensor.accelerometer,1524343010380,98935216123245,1.3950195,3.8572235,8.396408
android.sensor.accelerometer,1524343010399,98935235379837,1.7682953,3.3834534,7.7192535
android.sensor.accelerometer,1524343010419,98935254605911,2.4215393,2.423935,5.970093
android.sensor.accelerometer,1524343010439,98935273862503,2.165512,1.7778625,4.977066
android.sensor.accelerometer,1524343010457,98935293119095,1.4691925,0.9260254,5.9892426
android.sensor.accelerometer,1524343010476,98935312345169,2.239685,-0.65802,8.044662
android.sensor.accelerometer,1524343010495,98935331601761,2.4717865,-1.5337982,8.477768
android.sensor.accelerometer,1524343010515,98935350858353,1.5840454,-2.2205353,8.537598
android.sensor.accelerometer,1524343010534,98935370114945,1.6725769,-3.488739,8.293518
android.sensor.accelerometer,1524343010553,98935389341019,4.08934,-6.1375885,9.585648
android.sensor.accelerometer,1524343010573,98935408628128,6.305084,-9.219543,10.880173
android.sensor.accelerometer,1524343010592,98935427884720,5.974884,-11.291733,15.1250305
android.sensor.accelerometer,1524343010612,98935447141312,5.367096,-13.225128,19.396225
android.sensor.accelerometer,1524343010631,98935466367386,5.3814545,-15.862015,21.413376
android.sensor.accelerometer,1524343010650,98935485623978,5.8983154,-18.300308,25.622345
android.sensor.accelerometer,1524343010669,98935504880570,6.754944,-19.779068,34.21498
android.sensor.accelerometer,1524343010688,98935524106644,6.5443726,-22.339386,42.362534
android.sensor.accelerometer,1524343010708,98935543363236,3.1130676,-24.871002,47.42096
android.sensor.accelerometer,1524343010727,98935562619827,-0.4355011,-28.175491,52.314285
android.sensor.accelerometer,1524343010746,98935581876419,-2.9479523,-34.786865,64.01041
android.sensor.accelerometer,1524343010765,98935601102493,-8.745773,-46.40161,69.84889
android.sensor.accelerometer,1524343010896,98935620359085,-29.048874,-57.79384,59.330032
android.sensor.accelerometer,1524343010896,98935639615677,-41.608795,-58.389664,47.77031
android.sensor.accelerometer,1524343010896,98935658872269,-39.79265,-66.19745,46.29872
android.sensor.accelerometer,1524343010896,98935678098343,-43.298126,-78.343414,63.31169
android.sensor.accelerometer,1524343010897,98935697385452,-38.577087,-78.36015,51.673004
android.sensor.accelerometer,1524343010897,98935716642044,-26.306686,-78.36015,39.967316
android.sensor.accelerometer,1524343010900,98935735868118,-37.902313,-78.36015,33.427734
android.sensor.accelerometer,1524343010919,98935755124710,-50.431137,-78.36015,8.851059
android.sensor.accelerometer,1524343010940,98935774381302,-50.289948,-60.387665,-7.039688
android.sensor.accelerometer,1524343010958,98935793637894,-39.89554,-39.43611,-5.065613
android.sensor.accelerometer,1524343010977,98935812863968,-33.504303,-34.234116,-7.0133667
android.sensor.accelerometer,1524343010996,98935832120560,-28.235306,-33.38945,-2.658432
android.sensor.accelerometer,1524343011016,98935851377152,-20.807983,-44.07579,8.197815
android.sensor.accelerometer,1524343011035,98935870633743,-10.116852,-58.222168,12.579071
android.sensor.accelerometer,1524343011054,98935889859818,-5.1996,-52.802414,4.565506
android.sensor.accelerometer,1524343011073,98935909116409,-16.553543,-36.346985,-3.1082764
android.sensor.accelerometer,1524343011092,98935928373001,-24.847076,-25.856842,-7.795822
android.sensor.accelerometer,1524343011112,98935947629593,-27.665817,-22.370499,-7.1162567
android.sensor.accelerometer,1524343011136,98935966855667,-27.684952,-16.326233,-1.976471
android.sensor.accelerometer,1524343011151,98935986142777,-25.342392,-13.6367035,1.8640137
android.sensor.accelerometer,1524343011171,98936005399368,-20.79602,-14.249252,3.4408722
android.sensor.accelerometer,1524343011189,98936024625443,-19.901108,-11.97847,2.0841522
android.sensor.accelerometer,1524343011210,98936043882034,-21.013763,-7.491928,3.3260193
android.sensor.accelerometer,1524343011228,98936063138626,-19.68097,-4.615753,6.295517
android.sensor.accelerometer,1524343011247,98936082395218,-14.076981,-5.242676,9.908676
android.sensor.accelerometer,1524343011270,98936101621292,-7.8771667,-6.283554,11.449661
android.sensor.accelerometer,1524343011285,98936120877884,-4.302292,-6.008377,9.566513
android.sensor.accelerometer,1524343011307,98936140134476,-2.5172424,-5.3359985,6.982254
android.sensor.accelerometer,1524343011324,98936159391068,-2.8570251,-3.768692,6.55394
android.sensor.accelerometer,1524343011343,98936178617142,-4.9986115,-1.9884338,7.2646027
android.sensor.accelerometer,1524343011363,98936197873734,-6.690338,-0.8542328,6.3266296
android.sensor.accelerometer,1524343011384,98936217130325,-5.8576355,-1.6223297,6.20459
android.sensor.accelerometer,1524343011403,98936236356400,-4.022339,-2.2157593,6.374481
android.sensor.accelerometer,1524343011420,98936255612991,-3.5533447,-1.5960083,7.951355
android.sensor.accelerometer,1524343011441,98936274900101,-3.1585236,-1.0504456,9.978073
android.sensor.accelerometer,1524343011459,98936294143438,-3.3810577,-0.7920227,9.592819
android.sensor.accelerometer,1524343011479,98936313369512,-2.2468567,-1.3950195,8.102097
android.sensor.accelerometer,1524343011497,98936332626104,-1.4189453,-1.0265198,6.611374
android.sensor.accelerometer,1524343011517,98936351882695,-2.1439667,-0.29670715,8.355743
android.sensor.accelerometer,1524343011537,98936371139287,-5.017746,1.421341,4.78804
android.sensor.accelerometer,1524343011554,98936390365361,-3.596405,0.41635132,6.970291
android.sensor.accelerometer,1524343011574,98936409621953,-2.4406738,-0.17945862,8.676376
