Sensor, CurrentTimeMs, SensorTimestampNano, X, Y, Z
android.sensor.gyroscope,1524342940767,98865588811524,0.076309204,-0.08679199,-0.028121948
android.sensor.gyroscope,1524342940783,98865608068116,0.053085327,-0.10145569,-0.0061187744
android.sensor.gyroscope,1524342940792,98865627324707,0.03843689,-0.112457275,-0.0024719238
android.sensor.gyroscope,1524342940811,98865646581299,0.03111267,-0.056259155,-0.018356323
android.sensor.gyroscope,1524342940831,98865665837891,0.072647095,-0.042816162,-0.02444458
android.sensor.gyroscope,1524342940851,98865685063965,0.12640381,-0.07946777,-0.031784058
android.sensor.gyroscope,1524342940870,98865704320557,0.17526245,-0.112457275,-0.0476532
android.sensor.gyroscope,1524342940890,98865723577149,0.12884521,-0.1381073,-0.062316895
android.sensor.gyroscope,1524342940909,98865742803223,0.0029907227,-0.107559204,-0.0476532
android.sensor.gyroscope,1524342940929,98865762059815,-0.08616638,-0.05381775,-0.031784058
android.sensor.gyroscope,1524342940948,98865781316407,-0.06173706,-0.07090759,-0.057434082
android.sensor.gyroscope,1524342940967,98865800572998,0.053085327,-0.12710571,-0.08552551
android.sensor.gyroscope,1524342940986,98865819799073,0.14228821,-0.17964172,-0.08430481
android.sensor.gyroscope,1524342941006,98865839055664,0.15205383,-0.22605896,-0.090408325
android.sensor.gyroscope,1524342941025,98865858312256,0.09341431,-0.26638794,-0.14904785
android.sensor.gyroscope,1524342941044,98865877599366,0.05432129,-0.46307373,-0.28588867
android.sensor.gyroscope,1524342941064,98865896825440,0.033554077,-0.87358093,-0.5241089
android.sensor.gyroscope,1524342941085,98865916082032,-0.08250427,-1.4966736,-0.9126282
android.sensor.gyroscope,1524342941105,98865935338623,-0.4539032,-2.1649475,-1.4281921
android.sensor.gyroscope,1524342941129,98865954564698,-1.1258545,-3.116684,-1.9975281
android.sensor.gyroscope,1524342941139,98865973821289,-1.9932709,-4.002426,-2.4006958
android.sensor.gyroscope,1524342941159,98865993077881,-2.8973541,-3.792282,-2.1795654
android.sensor.gyroscope,1524342941177,98866012334473,-3.266327,-1.8863983,-0.8234558
android.sensor.gyroscope,1524342941200,98866031560547,-1.7403717,0.18562317,1.8704376
android.sensor.gyroscope,1524342941217,98866050817139,0.9376068,3.0701294,5.893585
android.sensor.gyroscope,1524342941235,98866070073731,2.5942688,7.271637,10.238037
android.sensor.gyroscope,1524342941255,98866089299805,3.8636475,12.2966,13.915436
android.sensor.gyroscope,1524342941274,98866108556397,4.0310364,18.404007,17.954468
android.sensor.gyroscope,1524342941294,98866127812989,1.256485,20.505371,20.944016
android.sensor.gyroscope,1524342941315,98866147069580,4.412216,9.110336,18.341736
android.sensor.gyroscope,1524342941334,98866166326172,10.4157715,1.0469513,14.796295
android.sensor.gyroscope,1524342941353,98866185582764,13.759628,7.794525,11.619797
android.sensor.gyroscope,1524342941372,98866204839356,14.783432,11.87999,7.938751
android.sensor.gyroscope,1524342941394,98866224065430,11.660706,12.054703,5.852051
android.sensor.gyroscope,1524342941413,98866243322022,8.723663,7.318054,4.879547
android.sensor.gyroscope,1524342941433,98866262578614,7.2429504,0.57658386,4.3200073
android.sensor.gyroscope,1524342941447,98866281801137,5.5655212,-1.1154938,2.7977295
android.sensor.gyroscope,1524342941467,98866301027212,2.777542,1.4305573,1.0567627
android.sensor.gyroscope,1524342941486,98866320283804,0.9962616,2.5618896,0.032974243
android.sensor.gyroscope,1524342941505,98866339540395,-0.08250427,2.1037445,-0.51434326
android.sensor.gyroscope,1524342941524,98866358766470,-1.2883453,1.8594055,-0.83566284
android.sensor.gyroscope,1524342941544,98866378023061,-2.618805,1.8190765,-0.9297333
android.sensor.gyroscope,1524342941564,98866397279653,-3.6255188,0.9944153,-0.75868225
android.sensor.gyroscope,1524342941584,98866416536245,-4.2253723,-0.29083252,-0.57055664
android.sensor.gyroscope,1524342941602,98866435762319,-4.9156494,-1.0458527,-0.59498596
android.sensor.gyroscope,1524342941621,98866455049429,-5.9333496,-1.1191406,-0.9786072
android.sensor.gyroscope,1524342941639,98866474306020,-6.1691284,-1.9682617,-1.2253876
android.sensor.gyroscope,1524342941663,98866493532095,-5.147766,-2.3359833,-0.2504425
android.sensor.gyroscope,1524342941680,98866512788686,-3.5546417,-2.0586548,0.95658875
android.sensor.gyroscope,1524342941699,98866532045278,-1.7416077,-0.9896393,1.4049683
android.sensor.gyroscope,1524342941717,98866551301870,-1.3164368,-0.0037384033,0.5729675
android.sensor.gyroscope,1524342941736,98866570527944,-1.6670685,0.4238739,-0.6255188
android.sensor.gyroscope,1524342941756,98866589784536,-1.7464905,0.20394897,-0.8417816
android.sensor.gyroscope,1524342941776,98866609041128,-1.0183563,-0.40444946,-0.27856445
android.sensor.gyroscope,1524342941795,98866628267202,0.06896973,-0.7575226,0.2015686
android.sensor.gyroscope,1524342941816,98866647523794,0.9779358,-0.7086487,0.15759277
android.sensor.gyroscope,1524342941834,98866666780386,1.2723694,-0.27859497,-0.3433075
android.sensor.gyroscope,1524342941853,98866686036977,0.8911896,0.18562317,-0.6939392
android.sensor.gyroscope,1524342941871,98866705263052,0.3499756,0.3578949,-0.6499634
android.sensor.gyroscope,1524342941894,98866724519643,0.20703125,0.41531372,-0.32254028
android.sensor.gyroscope,1524342941911,98866743806753,0.26322937,0.29193115,-0.11973572
android.sensor.gyroscope,1524342941933,98866763032827,0.38174438,-0.014724731,-0.17471313
android.sensor.gyroscope,1524342941947,98866782289419,0.14472961,-0.5070801,-0.27856445
android.sensor.gyroscope,1524342941966,98866801546011,-0.27674866,-0.92733765,-0.2956543
android.sensor.gyroscope,1524342941985,98866820802602,-0.45513916,-1.0067596,-0.3298645
