Sensor, CurrentTimeMs, SensorTimestampNano, X, Y, Z
android.sensor.accelerometer,1524342940767,98865588811524,5.046463,7.3005066,3.500702
android.sensor.accelerometer,1524342940783,98865608068116,5.333603,7.3627167,3.4863434
android.sensor.accelerometer,1524342940792,98865627324707,5.371887,7.3459625,3.493515
android.sensor.accelerometer,1524342940811,98865646581299,5.2618103,7.3579254,3.6801605
android.sensor.accelerometer,1524342940831,98865665837891,5.3192444,7.5086823,3.5437775
android.sensor.accelerometer,1524342940851,98865685063965,5.417343,7.664215,3.4241333
android.sensor.accelerometer,1524342940870,98865704320557,5.4317017,7.630707,2.6990967
android.sensor.accelerometer,1524342940890,98865723577149,5.211563,7.606781,2.4789581
android.sensor.accelerometer,1524342940909,98865742803223,5.2833557,7.652252,2.967102
android.sensor.accelerometer,1524342940929,98865762059815,5.46521,7.628311,3.596405
android.sensor.accelerometer,1524342940947,98865781316407,5.3120728,7.5397797,3.9649048
android.sensor.accelerometer,1524342940967,98865800572998,5.001007,7.458435,3.6562347
android.sensor.accelerometer,1524342940986,98865819799073,5.11586,7.544571,3.259018
android.sensor.accelerometer,1524342941005,98865839055664,5.3694916,7.5972137,2.7302094
android.sensor.accelerometer,1524342941025,98865858312256,5.5824585,7.554138,2.926422
android.sensor.accelerometer,1524342941044,98865877599366,5.7092743,6.970291,2.8211365
android.sensor.accelerometer,1524342941063,98865896825440,6.171097,6.2644043,2.7469635
android.sensor.accelerometer,1524342941085,98865916082032,6.4654083,5.52742,1.6988983
android.sensor.accelerometer,1524342941104,98865935338623,6.690338,3.866806,0.7130585
android.sensor.accelerometer,1524342941129,98865954564698,6.5898285,1.2610168,1.2322998
android.sensor.accelerometer,1524342941139,98865973821289,4.5009003,-1.8472595,3.4145508
android.sensor.accelerometer,1524342941158,98865993077881,-0.33499146,-6.484543,11.272583
android.sensor.accelerometer,1524342941177,98866012334473,-10.6289215,-14.347366,33.032913
android.sensor.accelerometer,1524342941200,98866031560547,-16.804794,-27.65625,48.600616
android.sensor.accelerometer,1524342941217,98866050817139,-9.200409,-41.307297,50.34259
android.sensor.accelerometer,1524342941235,98866070073731,2.1032867,-50.610596,51.744797
android.sensor.accelerometer,1524342941254,98866089299805,10.576279,-62.043503,52.51288
android.sensor.accelerometer,1524342941274,98866108556397,26.325836,-78.36015,51.287766
android.sensor.accelerometer,1524342941294,98866127812989,53.515488,-78.36015,78.36015
android.sensor.accelerometer,1524342941315,98866147069580,56.86783,-76.85507,78.36015
android.sensor.accelerometer,1524342941334,98866166326172,78.39844,-69.72685,78.36015
android.sensor.accelerometer,1524342941352,98866185582764,78.39844,-61.4429,52.206604
android.sensor.accelerometer,1524342941372,98866204839356,59.464035,-45.46602,8.444275
android.sensor.accelerometer,1524342941394,98866224065430,35.533417,-32.77928,-2.4885406
android.sensor.accelerometer,1524342941413,98866243322022,28.716263,-28.802414,-8.784058
android.sensor.accelerometer,1524342941432,98866262578614,37.548172,-22.858643,-18.4702
android.sensor.accelerometer,1524342941447,98866281801137,33.700516,-18.764511,-24.949966
android.sensor.accelerometer,1524342941467,98866301027212,24.617355,-15.778275,-15.481567
android.sensor.accelerometer,1524342941486,98866320283804,15.524628,-13.191635,-14.526825
android.sensor.accelerometer,1524342941505,98866339540395,10.4566345,-9.229111,-15.352356
android.sensor.accelerometer,1524342941524,98866358766470,5.6661987,-4.7760773,-15.433701
android.sensor.accelerometer,1524342941544,98866378023061,1.5792694,-0.21057129,-9.030518
android.sensor.accelerometer,1524342941564,98866397279653,-0.0143585205,4.4243317,-2.6823578
android.sensor.accelerometer,1524342941584,98866416536245,0.5862427,7.5350037,1.3686981
android.sensor.accelerometer,1524342941602,98866435762319,3.242279,7.831711,3.357132
android.sensor.accelerometer,1524342941621,98866455049429,1.0384827,6.18544,16.749756
android.sensor.accelerometer,1524342941639,98866474306020,-3.7328033,4.359726,21.07837
android.sensor.accelerometer,1524342941663,98866493532095,-3.2805634,3.1824493,24.040695
android.sensor.accelerometer,1524342941680,98866512788686,1.2155609,5.63031,20.410782
android.sensor.accelerometer,1524342941699,98866532045278,7.034897,6.3026886,14.139191
android.sensor.accelerometer,1524342941716,98866551301870,5.831314,7.133011,10.856232
android.sensor.accelerometer,1524342941736,98866570527944,0.18424988,4.6779633,12.105286
android.sensor.accelerometer,1524342941756,98866589784536,-2.388031,3.1968079,14.155945
android.sensor.accelerometer,1524342941776,98866609041128,-0.68434143,3.5317993,13.981262
android.sensor.accelerometer,1524342941795,98866628267202,2.802002,3.7184448,12.380463
android.sensor.accelerometer,1524342941816,98866647523794,4.010376,4.3453674,9.408585
android.sensor.accelerometer,1524342941834,98866666780386,2.5866394,5.079956,6.1997986
android.sensor.accelerometer,1524342941852,98866686036977,0.40678406,5.34317,6.1327972
android.sensor.accelerometer,1524342941871,98866705263052,-0.2416687,4.754532,7.5972137
android.sensor.accelerometer,1524342941891,98866724519643,0.66760254,4.8263245,7.951355
android.sensor.accelerometer,1524342941911,98866743806753,1.5673065,5.6661987,8.312668
android.sensor.accelerometer,1524342941932,98866763032827,2.045868,5.93898,5.9533386
android.sensor.accelerometer,1524342941947,98866782289419,1.7371826,5.97966,5.761917
android.sensor.accelerometer,1524342941966,98866801546011,1.8951111,5.2259216,7.7455597
android.sensor.accelerometer,1524342941985,98866820802602,1.763504,4.965103,9.755539
