Sensor, CurrentTimeMs, SensorTimestampNano, X, Y, Z
android.sensor.gyroscope,1524343150244,99075075270969,0.68470764,0.052474976,0.475235
android.sensor.gyroscope,1524343150264,99075094527561,0.6908264,0.28825378,0.4666748
android.sensor.gyroscope,1524343150280,99075113784153,0.70059204,0.22962952,0.55952454
android.sensor.gyroscope,1524343150297,99075133010227,0.742157,0.035354614,0.5888519
android.sensor.gyroscope,1524343150317,99075152266819,0.7067108,0.03779602,0.47155762
android.sensor.gyroscope,1524343150337,99075171523411,0.58576965,0.24304199,0.27487183
android.sensor.gyroscope,1524343150355,99075190780003,0.50024414,0.37010193,0.13926697
android.sensor.gyroscope,1524343150376,99075210006077,0.49290466,0.21862793,0.09161377
android.sensor.gyroscope,1524343150394,99075229262669,0.40371704,0.04147339,0.032974243
android.sensor.gyroscope,1524343150413,99075248519260,0.25956726,-0.017166138,-0.08552551
android.sensor.gyroscope,1524343150432,99075267775852,0.25712585,-0.0574646,-0.15148926
android.sensor.gyroscope,1524343150451,99075287001926,0.34753418,-0.11856079,-0.08918762
android.sensor.gyroscope,1524343150471,99075306258518,0.36341858,-0.088012695,0.0048675537
android.sensor.gyroscope,1524343150490,99075325515110,0.30966187,-0.017166138,-0.0036773682
android.sensor.gyroscope,1524343150509,99075344802219,0.3023224,-0.039138794,-0.06719971
android.sensor.gyroscope,1524343150528,99075364028294,0.4232788,-0.17720032,-0.050109863
android.sensor.gyroscope,1524343150548,99075383284885,0.6468506,-0.26026917,0.05496216
android.sensor.gyroscope,1524343150567,99075402541477,0.7653656,-0.24438477,0.14535522
android.sensor.gyroscope,1524343150588,99075421798069,0.6150818,-0.2040863,0.14170837
android.sensor.gyroscope,1524343150606,99075441024143,0.3353119,-0.14543152,0.1038208
android.sensor.gyroscope,1524343150626,99075460280735,0.22047424,-0.10877991,0.10626221
android.sensor.gyroscope,1524343150644,99075479537327,0.24368286,-0.1356659,0.17712402
android.sensor.gyroscope,1524343150663,99075498793919,0.2693329,-0.14543152,0.29197693
android.sensor.gyroscope,1524343150684,99075518050510,0.29988098,-0.21385193,0.45202637
android.sensor.gyroscope,1524343150701,99075537276585,0.3683014,-0.5241699,0.66947937
android.sensor.gyroscope,1524343150721,99075556533176,0.29377747,-0.88946533,0.8014221
android.sensor.gyroscope,1524343150740,99075575789768,0.12884521,-1.0861664,0.7574463
android.sensor.gyroscope,1524343150760,99075595046360,0.19970703,-1.3366241,0.7892151
android.sensor.gyroscope,1524343150778,99075614302952,0.34629822,-1.599289,1.0860901
android.sensor.gyroscope,1524343150800,99075633559544,0.33287048,-2.0049133,1.4623871
android.sensor.gyroscope,1524343150817,99075652816135,-0.051971436,-2.4618225,1.3341064
android.sensor.gyroscope,1524343150837,99075672072727,-0.9609375,-2.6206512,0.7342377
android.sensor.gyroscope,1524343150856,99075691298801,-1.7917023,-2.808792,0.31152344
android.sensor.gyroscope,1524343150875,99075710555393,-2.1875458,-3.3671112,-0.044006348
android.sensor.gyroscope,1524343150895,99075729811985,-2.9217987,-3.8533783,-0.764801
android.sensor.gyroscope,1524343150913,99075749068577,-4.166733,-4.277313,-1.7641754
android.sensor.gyroscope,1524343150932,99075768294651,-5.527725,-4.4678955,-2.7623138
android.sensor.gyroscope,1524343150952,99075787551243,-6.8264313,-4.050064,-3.7971191
android.sensor.gyroscope,1524343150971,99075806807835,-7.5692444,-3.5125122,-4.9064484
android.sensor.gyroscope,1524343150991,99075826064426,-7.287018,-4.1893463,-5.777542
android.sensor.gyroscope,1524343151010,99075845290501,-6.888733,-6.0598145,-6.0988464
android.sensor.gyroscope,1524343151029,99075864547092,-7.1880646,-7.3585052,-5.80809
android.sensor.gyroscope,1524343151049,99075883803684,-7.828232,-6.861252,-5.055496
android.sensor.gyroscope,1524343151068,99075903090794,-6.513672,-6.134323,-3.915619
android.sensor.gyroscope,1524343151087,99075922316868,-3.1673737,-5.52713,-3.1019592
android.sensor.gyroscope,1524343151107,99075941573460,-2.2791595,-3.6102448,-2.294403
android.sensor.gyroscope,1524343151126,99075960830051,-2.7385254,-1.0128632,-1.0702362
android.sensor.gyroscope,1524343151145,99075980086643,-1.9945068,0.51916504,-0.42149353
android.sensor.gyroscope,1524343151166,99075999312717,-0.28652954,0.43608093,-0.53022766
android.sensor.gyroscope,1524343151185,99076018569309,1.4996185,0.15753174,-0.533905
android.sensor.gyroscope,1524343151206,99076037825901,2.7421112,0.56925964,0.19300842
android.sensor.gyroscope,1524343151222,99076057082493,3.4653625,1.3022919,1.5014801
android.sensor.gyroscope,1524343151242,99076076339085,3.8770905,1.8716125,2.8026123
android.sensor.gyroscope,1524343151260,99076095565159,4.53804,2.0231018,3.788559
android.sensor.gyroscope,1524343151280,99076114821751,5.4066925,2.2588959,4.6596375
android.sensor.gyroscope,1524343151300,99076134078342,6.112854,3.495285,5.711548
android.sensor.gyroscope,1524343151319,99076153334934,6.584442,5.4072876,6.6840363
android.sensor.gyroscope,1524343151338,99076172561008,6.5856476,6.3333435,7.252136
android.sensor.gyroscope,1524343151357,99076191848118,6.2851257,5.737152,7.568573
android.sensor.gyroscope,1524343151377,99076211104710,6.645523,5.1507263,7.6443176
android.sensor.gyroscope,1524343151395,99076230361301,7.3419037,5.039551,7.121414
android.sensor.gyroscope,1524343151415,99076249587376,7.3382416,4.6693573,5.8483734
android.sensor.gyroscope,1524343151434,99076268843967,6.6394196,4.3993683,4.3273315
android.sensor.gyroscope,1524343151454,99076288100559,5.680359,4.5423126,3.285202
android.sensor.gyroscope,1524343151473,99076307365498,5.0096283,4.468994,2.6278992
android.sensor.gyroscope,1524343151491,99076326591572,4.391449,4.1354675,2.0243835
android.sensor.gyroscope,1524343151510,99076345848164,3.7769012,3.8898926,1.5246887
android.sensor.gyroscope,1524343151530,99076365104756,2.7665405,3.324234,1.3646393
android.sensor.gyroscope,1524343151549,99076384361348,1.7696075,2.2845612,1.3878479
android.sensor.gyroscope,1524343151568,99076403587422,1.5289307,1.0787048,1.6248627
android.sensor.gyroscope,1524343151587,99076422844014,1.2784882,0.028030396,1.6761932
android.sensor.gyroscope,1524343151606,99076442100605,0.37806702,-0.45454407,1.021347
android.sensor.gyroscope,1524343151626,99076461357197,-1.1307373,-0.39466858,-0.08308411
android.sensor.gyroscope,1524343151646,99076480613789,-2.6884308,-0.35557556,-1.1777344
android.sensor.gyroscope,1524343151673,99076499870381,-3.6609344,-0.7379761,-2.1184692
android.sensor.gyroscope,1524343151684,99076519126973,-4.4575043,-1.3366241,-2.9944458
android.sensor.gyroscope,1524343151703,99076538383564,-5.346924,-2.07576,-3.8301086
android.sensor.gyroscope,1524343151723,99076557640156,-6.18013,-2.4312897,-4.2821503
android.sensor.gyroscope,1524343151741,99076576866230,-6.8337555,-2.0049133,-4.356674
android.sensor.gyroscope,1524343151761,99076596122822,-6.790985,-2.1160889,-4.904007
android.sensor.gyroscope,1524343151780,99076615379414,-7.3187866,-2.7721405,-6.280884
android.sensor.gyroscope,1524343151800,99076634636006,-8.237518,-3.5198364,-7.225281
android.sensor.gyroscope,1524343151822,99076653862080,-8.104355,-4.470337,-6.9748383
android.sensor.gyroscope,1524343151839,99076673118672,-7.945526,-4.9309387,-5.8007507
android.sensor.gyroscope,1524343151857,99076692375264,-7.517914,-3.9877625,-4.7402954
android.sensor.gyroscope,1524343151877,99076711631855,-6.070175,-1.3512726,-4.6559906
android.sensor.gyroscope,1524343151896,99076730857930,-3.8625336,0.6914215,-4.1844025
android.sensor.gyroscope,1524343151915,99076750114521,-1.6499786,1.126358,-3.0567627
android.sensor.gyroscope,1524343151934,99076769401631,-0.2755432,1.2179871,-2.0072937
android.sensor.gyroscope,1524343151954,99076788658223,0.5943146,1.3804779,-1.3243561
android.sensor.gyroscope,1524343151973,99076807884297,1.1245422,1.602829,-0.91630554
android.sensor.gyroscope,1524343151992,99076827140889,1.2845917,1.6895752,-0.6218567
android.sensor.gyroscope,1524343152011,99076846397480,1.1306458,1.9192657,-0.43737793
android.sensor.gyroscope,1524343152030,99076865654072,0.9351654,1.7726593,-0.25779724
android.sensor.gyroscope,1524343152050,99076884880146,0.91807556,1.2815247,-0.015899658
android.sensor.gyroscope,1524343152069,99076904136738,0.9437256,0.9602051,0.20645142
android.sensor.gyroscope,1524343152090,99076923393330,0.7726898,0.84536743,0.34939575
android.sensor.gyroscope,1524343152108,99076942649922,0.2925415,0.87590027,0.33717346
android.sensor.gyroscope,1524343152129,99076961875996,-0.32196045,1.0041809,0.24432373
android.sensor.gyroscope,1524343152147,99076981132588,-0.5553131,1.1446838,0.19180298
android.sensor.gyroscope,1524343152166,99077000389180,-0.22544861,1.1618042,0.061065674
android.sensor.gyroscope,1524343152185,99077019645771,0.12150574,1.2265472,-0.14294434
android.sensor.gyroscope,1524343152204,99077038871846,-0.043411255,1.4794464,-0.3408661
android.sensor.gyroscope,1524343152224,99077058158955,-0.35739136,1.6345978,-0.48989868
android.sensor.gyroscope,1524343152242,99077077415547,-0.29263306,1.5014343,-0.4581604
android.sensor.gyroscope,1524343152264,99077096672139,0.028656006,1.1911011,-0.21624756
android.sensor.gyroscope,1524343152282,99077115898213,0.22535706,0.81481934,0.117263794
android.sensor.gyroscope,1524343152301,99077135154805,0.20947266,0.49838257,0.29685974
android.sensor.gyroscope,1524343152320,99077154411396,0.17402649,0.24304199,0.14659119
android.sensor.gyroscope,1524343152340,99077173667988,-0.0030975342,0.4031067,-0.04888916
android.sensor.gyroscope,1524343152359,99077192924580,-0.19979858,0.79771423,-0.07696533
android.sensor.gyroscope,1524343152383,99077212150654,-0.28775024,0.8832245,0.034179688
android.sensor.gyroscope,1524343152396,99077231407246,-0.48443604,0.48005676,0.18444824
android.sensor.gyroscope,1524343152417,99077250663838,-0.45758057,0.17585754,0.02319336
