Sensor, CurrentTimeMs, SensorTimestampNano, X, Y, Z
android.sensor.gyroscope,1524343169689,99094519164608,0.005432129,-6.1035156E-5,0.029296875
android.sensor.gyroscope,1524343169704,99094538421200,0.033554077,0.0035858154,0.04273987
android.sensor.gyroscope,1524343169722,99094557647274,0.049423218,0.024368286,0.052520752
android.sensor.gyroscope,1524343169742,99094576903866,0.049423218,0.05491638,0.069610596
android.sensor.gyroscope,1524343169760,99094596160458,0.055526733,0.057357788,0.09893799
android.sensor.gyroscope,1524343169779,99094615417049,0.06774902,0.07324219,0.109939575
android.sensor.gyroscope,1524343169799,99094634643124,0.08119202,0.0940094,0.094055176
android.sensor.gyroscope,1524343169818,99094653899715,0.097076416,0.10987854,0.081832886
android.sensor.gyroscope,1524343169838,99094673156307,0.11540222,0.11231995,0.07572937
android.sensor.gyroscope,1524343169858,99094692412899,0.12760925,0.119659424,0.09161377
android.sensor.gyroscope,1524343169878,99094711669491,0.13494873,0.15141296,0.10870361
android.sensor.gyroscope,1524343169897,99094730895565,0.14349365,0.17097473,0.113586426
android.sensor.gyroscope,1524343169916,99094750152157,0.13494873,0.17829895,0.11238098
android.sensor.gyroscope,1524343169935,99094769408749,0.11906433,0.16729736,0.09527588
android.sensor.gyroscope,1524343169956,99094788695858,0.10317993,0.17585754,0.09893799
android.sensor.gyroscope,1524343169972,99094807921932,0.14961243,0.18441772,0.15635681
android.sensor.gyroscope,1524343169991,99094827178524,0.26322937,0.18318176,0.21377563
android.sensor.gyroscope,1524343170011,99094846435116,0.3365326,0.22227478,0.25286865
android.sensor.gyroscope,1524343170034,99094865691708,0.3414154,0.3578949,0.29930115
android.sensor.gyroscope,1524343170049,99094884917782,0.3230896,0.5985718,0.4190216
android.sensor.gyroscope,1524343170069,99094904174374,0.3499756,0.87101746,0.61206055
android.sensor.gyroscope,1524343170088,99094923430965,0.510025,1.1410065,0.7757721
android.sensor.gyroscope,1524343170108,99094942687557,0.6773834,1.477005,1.0408936
android.sensor.gyroscope,1524343170127,99094961913631,0.6932678,1.9888916,1.616333
android.sensor.gyroscope,1524343170148,99094981170223,0.8227844,2.2662354,2.48497
android.sensor.gyroscope,1524343170165,99095000426815,1.3481293,1.8056335,3.3975983
android.sensor.gyroscope,1524343170186,99095019683407,2.0005188,1.0237427,3.9730377
android.sensor.gyroscope,1524343170205,99095038909481,2.5295258,0.4189911,4.133087
android.sensor.gyroscope,1524343170223,99095058166073,2.5979462,0.16485596,4.2088165
android.sensor.gyroscope,1524343170246,99095077453182,2.099472,-0.0134887695,4.285797
android.sensor.gyroscope,1524343170266,99095096709774,1.1208801,-0.17475891,4.219818
android.sensor.gyroscope,1524343170281,99095115966366,0.06652832,-0.5363922,3.8044434
android.sensor.gyroscope,1524343170300,99095135192440,-0.8204193,-1.3134003,3.0237427
android.sensor.gyroscope,1524343170320,99095154449032,-1.5681152,-2.1038513,2.1013336
android.sensor.gyroscope,1524343170338,99095173705624,-2.1484528,-2.3763123,1.3609924
android.sensor.gyroscope,1524343170358,99095192962215,-2.4758606,-2.4092865,0.97247314
android.sensor.gyroscope,1524343170378,99095212188290,-2.627365,-3.0910187,0.640152
android.sensor.gyroscope,1524343170397,99095231444881,-2.9315643,-4.207672,-0.07696533
android.sensor.gyroscope,1524343170416,99095250701473,-3.4984436,-4.667053,-1.253479
android.sensor.gyroscope,1524343170434,99095269958065,-4.8496857,-3.6811066,-1.9987335
android.sensor.gyroscope,1524343170456,99095289184139,-6.605301,-2.372635,-2.2247772
android.sensor.gyroscope,1524343170476,99095308440731,-7.346878,-2.9639587,-2.8148499
android.sensor.gyroscope,1524343170495,99095327697323,-7.4776154,-4.714691,-3.759262
android.sensor.gyroscope,1524343170513,99095346953915,-8.431778,-5.506363,-4.90889
android.sensor.gyroscope,1524343170532,99095366210506,-10.023697,-4.784317,-6.552109
android.sensor.gyroscope,1524343170551,99095385467098,-10.759155,-5.269348,-8.197784
android.sensor.gyroscope,1524343170569,99095404723690,-9.671814,-8.640091,-8.218552
android.sensor.gyroscope,1524343170588,99095423980282,-8.2314,-10.437241,-5.897278
android.sensor.gyroscope,1524343170609,99095443206356,-7.8038177,-8.4934845,-3.7286987
android.sensor.gyroscope,1524343170626,99095462462948,-7.491043,-4.9138336,-3.1373901
android.sensor.gyroscope,1524343170647,99095481719540,-5.930908,-1.874176,-3.2021332
android.sensor.gyroscope,1524343170665,99095500976131,-3.3396149,-0.4325409,-2.875946
android.sensor.gyroscope,1524343170684,99095520202206,-0.74957275,-0.34213257,-2.072052
android.sensor.gyroscope,1524343170705,99095539458797,1.63768,-1.2486572,-1.0506744
android.sensor.gyroscope,1524343170723,99095558715389,3.5240173,-1.6945953,0.06350708
android.sensor.gyroscope,1524343170743,99095577971981,4.255829,-0.43621826,1.2131653
android.sensor.gyroscope,1524343170762,99095597198055,3.9785004,1.6908112,2.4360962
android.sensor.gyroscope,1524343170781,99095616454647,3.8990936,3.0249176,3.5356598
android.sensor.gyroscope,1524343170801,99095635711239,4.9180145,2.4788055,4.355423
android.sensor.gyroscope,1524343170821,99095654998348,6.63208,1.9901276,5.3804626
android.sensor.gyroscope,1524343170839,99095674254940,7.764633,4.3358307,7.0151215
android.sensor.gyroscope,1524343170859,99095693481014,7.230728,8.648529,8.97966
android.sensor.gyroscope,1524343170879,99095712737606,6.478134,10.905045,10.90387
android.sensor.gyroscope,1524343170902,99095731994198,6.9448395,9.220291,11.144562
android.sensor.gyroscope,1524343170918,99095751250790,8.06395,5.5380096,9.044403
android.sensor.gyroscope,1524343170938,99095770476864,8.260635,3.0701294,7.238693
android.sensor.gyroscope,1524343170955,99095789733456,6.847107,3.481842,6.8171997
android.sensor.gyroscope,1524343170974,99095808990047,6.8251038,3.3987732,5.7262115
android.sensor.gyroscope,1524343170993,99095828246639,6.654068,3.3975372,3.8056488
android.sensor.gyroscope,1524343171013,99095847472713,4.9729767,3.9485474,2.235733
android.sensor.gyroscope,1524343171032,99095866729305,3.581421,3.6553345,1.5063629
android.sensor.gyroscope,1524343171051,99095885985897,3.1391602,2.7781372,1.2669067
android.sensor.gyroscope,1524343171070,99095905242489,2.8960571,2.1782532,1.2644653
android.sensor.gyroscope,1524343171091,99095924468563,2.319397,1.8532867,0.8050995
android.sensor.gyroscope,1524343171109,99095943755672,1.2662659,1.6993408,-0.2822113
android.sensor.gyroscope,1524343171129,99095963012264,-0.026290894,1.266861,-1.3035736
android.sensor.gyroscope,1524343171147,99095982268856,-1.5314789,0.55337524,-1.8118134
android.sensor.gyroscope,1524343171167,99096001494930,-2.8081665,-0.17597961,-2.0793762
android.sensor.gyroscope,1524343171186,99096020751522,-3.3188477,-1.2999725,-2.5301971
android.sensor.gyroscope,1524343171208,99096040008114,-3.74646,-2.1136322,-3.3145447
android.sensor.gyroscope,1524343171226,99096059264706,-4.528366,-2.0391083,-4.328583
android.sensor.gyroscope,1524343171245,99096078521297,-5.279724,-0.7563019,-5.3132935
android.sensor.gyroscope,1524343171263,99096097747372,-5.8026276,0.41775513,-6.851425
android.sensor.gyroscope,1524343171284,99096117003963,-7.1648407,-1.2779846,-9.158051
android.sensor.gyroscope,1524343171302,99096136260555,-8.65535,-6.6010284,-10.32724
android.sensor.gyroscope,1524343171322,99096155517147,-7.823349,-11.458603,-8.933258
android.sensor.gyroscope,1524343171341,99096174743221,-8.580826,-8.732956,-7.569824
android.sensor.gyroscope,1524343171360,99096193999813,-10.986404,-0.69888306,-7.863022
android.sensor.gyroscope,1524343171378,99096213256405,-10.235031,3.4354248,-8.340729
android.sensor.gyroscope,1524343171398,99096232543514,-5.345688,-0.46307373,-7.076233
android.sensor.gyroscope,1524343171417,99096251769588,-1.1197357,-3.7947235,-4.3114777
android.sensor.gyroscope,1524343171437,99096271026180,0.42936707,-2.0782013,-1.7348633
android.sensor.gyroscope,1524343171457,99096290282772,0.7555847,0.7024231,0.14659119
android.sensor.gyroscope,1524343171477,99096309539454,1.0952301,1.9437103,1.4086151
android.sensor.gyroscope,1524343171496,99096328765528,1.1721802,2.3957367,1.7458191
android.sensor.gyroscope,1524343171514,99096348022120,0.73480225,2.8807678,1.4941559
android.sensor.gyroscope,1524343171533,99096367278712,-0.009216309,3.5918121,1.3560791
android.sensor.gyroscope,1524343171552,99096386535303,-0.5076752,4.212448,1.5466766
android.sensor.gyroscope,1524343171573,99096405761378,-0.5076752,3.9351044,1.6822968
android.sensor.gyroscope,1524343171591,99096425017969,-0.099609375,2.8929749,1.511261
android.sensor.gyroscope,1524343171610,99096444274561,0.3609619,1.991333,1.1777191
android.sensor.gyroscope,1524343171629,99096463531153,0.55522156,2.0731964,0.96759033
android.sensor.gyroscope,1524343171648,99096482787745,0.6126404,3.0774536,0.5974121
android.sensor.gyroscope,1524343171668,99096502044337,0.60775757,3.430542,0.17224121
android.sensor.gyroscope,1524343171687,99096521300928,0.55400085,3.3315735,0.04762268
android.sensor.gyroscope,1524343171706,99096540557520,0.3377533,3.0725708,0.06716919
android.sensor.gyroscope,1524343171725,99096559814112,-0.027526855,2.6474,-0.08918762
android.sensor.gyroscope,1524343171745,99096579040186,-0.091049194,2.4091797,-0.2797699
android.sensor.gyroscope,1524343171763,99096598296778,0.14961243,1.9620361,-0.3640747
android.sensor.gyroscope,1524343171782,99096617553370,0.5991974,1.1630096,-0.19670105
android.sensor.gyroscope,1524343171801,99096636809962,1.1098785,0.70854187,-0.029327393
android.sensor.gyroscope,1524343171825,99096656036036,1.2198334,0.4287567,-0.04156494
android.sensor.gyroscope,1524343171840,99096675292628,0.7055054,0.15509033,-0.030563354
android.sensor.gyroscope,1524343171859,99096694549219,0.0921936,0.51916504,0.151474
android.sensor.gyroscope,1524343171879,99096713805811,-0.31585693,0.79893494,0.40805054
android.sensor.gyroscope,1524343171899,99096733031885,-0.33784485,0.87590027,0.5350952
android.sensor.gyroscope,1524343171917,99096752288477,-0.095947266,0.80381775,0.3848114
android.sensor.gyroscope,1524343171936,99096771545069,0.22779846,0.6462097,-0.031784058
android.sensor.gyroscope,1524343171955,99096790832178,0.3243103,0.28215027,-0.3738556
android.sensor.gyroscope,1524343171974,99096810058253,0.15815735,0.075683594,-0.2590027
android.sensor.gyroscope,1524343171994,99096829314844,0.14593506,0.361557,0.18444824
android.sensor.gyroscope,1524343172014,99096848571436,0.48313904,0.7598419,0.4947815
android.sensor.gyroscope,1524343172033,99096867828028,0.90586853,0.87713623,0.3982544
android.sensor.gyroscope,1524343172052,99096887084620,0.9168396,0.83070374,0.12582397
android.sensor.gyroscope,1524343172072,99096906310694,0.53079224,0.87223816,-0.026885986
android.sensor.gyroscope,1524343172090,99096925567286,0.07875061,0.9834137,0.05128479
android.sensor.gyroscope,1524343172110,99096944823878,-0.17411804,1.1312408,0.10870361
android.sensor.gyroscope,1524343172131,99096964080469,0.04576111,1.3365021,0.006088257
android.sensor.gyroscope,1524343172148,99096983306544,0.6993866,0.7708435,-0.18814087
android.sensor.gyroscope,1524343172167,99097002563135,0.6150818,-0.14421082,-0.034240723
android.sensor.gyroscope,1524343172188,99097021819727,0.13494873,0.0072631836,0.13191223
