Sensor, CurrentTimeMs, SensorTimestampNano, X, Y, Z
android.sensor.accelerometer,1524343205055,99129883978886,1.3830566,2.371292,9.332016
android.sensor.accelerometer,1524343205068,99129903235478,1.3256226,2.383255,9.109482
android.sensor.accelerometer,1524343205087,99129922492070,1.146164,2.3784637,9.655045
android.sensor.accelerometer,1524343205106,99129941748661,1.0576324,2.3688965,10.210175
android.sensor.accelerometer,1524343205125,99129960974736,1.0528412,2.3473663,10.040283
android.sensor.accelerometer,1524343205145,99129980261845,0.8901367,2.2468567,9.324829
android.sensor.accelerometer,1524343205164,99129999518437,0.75852966,2.2253265,8.989838
android.sensor.accelerometer,1524343205184,99130018775029,0.7800598,2.2636108,9.298508
android.sensor.accelerometer,1524343205204,99130038001103,0.8422699,2.244461,9.786652
android.sensor.accelerometer,1524343205221,99130057257695,0.8183441,2.2588196,9.836899
android.sensor.accelerometer,1524343205241,99130076514286,0.72502136,2.2301178,9.272186
android.sensor.accelerometer,1524343205262,99130095770878,0.6053772,2.2755737,9.04248
android.sensor.accelerometer,1524343205282,99130114996952,0.63409424,2.325821,9.104691
android.sensor.accelerometer,1524343205300,99130134253544,0.6915283,2.5627136,9.564117
android.sensor.accelerometer,1524343205319,99130153510136,0.69392395,2.9575348,9.911072
android.sensor.accelerometer,1524343205339,99130172766728,0.8231354,3.5150604,9.853638
android.sensor.accelerometer,1524343205358,99130192023320,1.0839539,4.022339,10.119247
android.sensor.accelerometer,1524343205376,99130211249394,1.8544312,4.8430786,11.617157
android.sensor.accelerometer,1524343205395,99130230505986,1.9908295,5.4053802,14.744568
android.sensor.accelerometer,1524343205415,99130249762577,1.6295166,3.981659,21.233902
android.sensor.accelerometer,1524343205434,99130269049687,0.5694885,1.8759766,29.11348
android.sensor.accelerometer,1524343205455,99130288275761,0.17228699,-1.3304138,33.24109
android.sensor.accelerometer,1524343205473,99130307532353,-0.5934143,-5.21875,29.77629
android.sensor.accelerometer,1524343205494,99130326788945,-2.725418,-9.052048,27.876389
android.sensor.accelerometer,1524343205511,99130346045536,-6.1136627,-12.279968,30.608994
android.sensor.accelerometer,1524343205531,99130365271611,-7.0875397,-15.668198,31.468018
android.sensor.accelerometer,1524343205550,99130384528202,-3.7471619,-19.881958,27.522247
android.sensor.accelerometer,1524343205568,99130403784794,-1.134201,-24.500107,23.064423
android.sensor.accelerometer,1524343205588,99130423041386,1.6031952,-31.190445,20.456238
android.sensor.accelerometer,1524343205607,99130442297978,3.4097748,-40.797623,11.722443
android.sensor.accelerometer,1524343205626,99130461524052,-4.3094788,-47.772705,4.0247345
android.sensor.accelerometer,1524343205645,99130480780644,-10.344177,-49.708496,-6.008377
android.sensor.accelerometer,1524343205665,99130500037236,-8.5950165,-46.459045,-13.459625
android.sensor.accelerometer,1524343205684,99130519293827,-6.6017914,-40.850266,-13.162918
android.sensor.accelerometer,1524343205704,99130538519902,-6.419937,-37.45964,-8.664413
android.sensor.accelerometer,1524343205723,99130557807011,-7.3124695,-35.1745,-5.9318085
android.sensor.accelerometer,1524343205742,99130577063603,-6.9678955,-33.346375,-8.953949
android.sensor.accelerometer,1524343205761,99130596320195,-6.12323,-30.807587,-12.174683
android.sensor.accelerometer,1524343205780,99130615546269,-5.8121643,-28.613373,-14.711075
android.sensor.accelerometer,1524343205800,99130634802861,-6.867401,-25.868805,-19.422546
android.sensor.accelerometer,1524343205819,99130654059452,-9.499512,-22.449463,-25.854446
android.sensor.accelerometer,1524343205838,99130673316044,-10.207779,-19.22873,-26.802002
android.sensor.accelerometer,1524343205858,99130692542118,-7.8675995,-17.38147,-21.671799
android.sensor.accelerometer,1524343205878,99130711798710,-6.7046967,-15.768707,-18.585052
android.sensor.accelerometer,1524343205895,99130731055302,-6.1878357,-14.486145,-13.320847
android.sensor.accelerometer,1524343205915,99130750311894,-4.1850433,-13.95015,-10.571487
android.sensor.accelerometer,1524343205934,99130769568486,1.1318054,-13.328018,-10.741379
android.sensor.accelerometer,1524343205953,99130788794560,4.199402,-12.576675,-11.873184
android.sensor.accelerometer,1524343205973,99130808051152,3.8907318,-13.607986,-7.6737823
android.sensor.accelerometer,1524343205994,99130827307743,4.2065887,-14.938385,1.2227325
android.sensor.accelerometer,1524343206013,99130846564335,4.532013,-15.108276,6.649658
android.sensor.accelerometer,1524343206030,99130865820927,4.718643,-14.490936,7.688141
android.sensor.accelerometer,1524343206051,99130885077519,4.8358917,-13.265808,7.7886353
android.sensor.accelerometer,1524343206070,99130904334111,2.4957123,-13.375885,7.8915253
android.sensor.accelerometer,1524343206091,99130923590702,0.36849976,-15.78067,8.518448
android.sensor.accelerometer,1524343206109,99130942816777,2.3186493,-20.437103,7.893921
android.sensor.accelerometer,1524343206128,99130962073368,7.092331,-25.794632,10.246063
android.sensor.accelerometer,1524343206146,99130981329960,12.528824,-29.666214,14.8450775
android.sensor.accelerometer,1524343206166,99131000586552,12.205795,-32.98506,28.1707
android.sensor.accelerometer,1524343206185,99131019812626,9.578476,-38.483765,44.942
android.sensor.accelerometer,1524343206205,99131039069218,12.502502,-44.331833,51.22316
android.sensor.accelerometer,1524343206225,99131058325810,10.207779,-49.78746,54.400833
android.sensor.accelerometer,1524343206243,99131077582402,5.515457,-60.96434,58.497345
android.sensor.accelerometer,1524343206262,99131096838993,23.03331,-63.917084,74.22298
android.sensor.accelerometer,1524343206281,99131116065068,34.47101,-38.529236,57.0114
android.sensor.accelerometer,1524343206301,99131135352177,4.5009003,-21.899109,25.160538
android.sensor.accelerometer,1524343206319,99131154608769,9.39183,-19.17369,25.631912
android.sensor.accelerometer,1524343206342,99131173865361,19.771896,-16.091736,33.284164
android.sensor.accelerometer,1524343206358,99131193091435,12.669998,-16.340591,25.581665
android.sensor.accelerometer,1524343206384,99131212348027,9.698105,-16.630112,15.471985
android.sensor.accelerometer,1524343206396,99131231604618,18.230911,-12.619751,16.106094
android.sensor.accelerometer,1524343206416,99131250830693,18.668808,-10.736603,11.050049
android.sensor.accelerometer,1524343206435,99131270087284,11.471191,-9.9015045,6.6759796
android.sensor.accelerometer,1524343206454,99131289343876,6.209381,-9.293716,6.094513
android.sensor.accelerometer,1524343206473,99131308600468,4.7736816,-7.5373993,5.64946
android.sensor.accelerometer,1524343206493,99131327857060,6.2165527,-6.2691956,3.2925262
android.sensor.accelerometer,1524343206511,99131347083134,7.9824524,-4.137192,1.7204437
android.sensor.accelerometer,1524343206531,99131366339726,6.936798,-2.4191437,2.383255
android.sensor.accelerometer,1524343206550,99131385596318,3.4983063,-1.7036896,3.4743805
android.sensor.accelerometer,1524343206569,99131404852909,1.9477539,-2.3449707,3.1944122
android.sensor.accelerometer,1524343206589,99131424140019,0.2416687,-2.6153564,2.5507507
android.sensor.accelerometer,1524343206611,99131443366093,-1.5673065,-2.1798553,2.703888
android.sensor.accelerometer,1524343206627,99131462622685,-1.8400879,-1.2442627,4.8717804
android.sensor.accelerometer,1524343206647,99131481879277,-1.6678009,-0.059814453,7.384247
android.sensor.accelerometer,1524343206666,99131501135868,-0.9667053,0.3900299,9.315262
android.sensor.accelerometer,1524343206685,99131520361943,0.5048828,0.49531555,9.659821
android.sensor.accelerometer,1524343206703,99131539618534,1.4715881,1.1509552,8.965912
android.sensor.accelerometer,1524343206723,99131558875126,0.2871399,1.9429779,7.343567
android.sensor.accelerometer,1524343206743,99131578131718,0.0023956299,0.9690857,6.7860413
android.sensor.accelerometer,1524343206761,99131597357792,-2.1224365,1.2346954,8.8367
android.sensor.accelerometer,1524343206780,99131616614384,-1.7276154,0.66760254,9.791428
android.sensor.accelerometer,1524343206800,99131635870976,-0.6771698,0.65802,8.920441
android.sensor.accelerometer,1524343206821,99131655127568,0.3517456,1.6654053,7.922638
android.sensor.accelerometer,1524343206840,99131674384159,0.70588684,1.2227325,9.731613
android.sensor.accelerometer,1524343206859,99131693610234,-0.94277954,1.5481567,10.980667
android.sensor.accelerometer,1524343206879,99131712897343,-2.1128693,1.4859467,9.396622
android.sensor.accelerometer,1524343206896,99131732153935,-1.5936127,1.3351898,7.8508453
android.sensor.accelerometer,1524343206916,99131751410527,0.06460571,0.624527,9.47319
android.sensor.accelerometer,1524343206935,99131770636601,-0.9906311,0.80158997,10.375275
