Sensor, CurrentTimeMs, SensorTimestampNano, X, Y, Z
android.sensor.gyroscope,1524343205055,99129883978886,0.049423218,0.021911621,0.05128479
android.sensor.gyroscope,1524343205068,99129903235478,0.039642334,-0.008621216,0.009750366
android.sensor.gyroscope,1524343205087,99129922492070,-0.032409668,0.023147583,-0.017120361
android.sensor.gyroscope,1524343205106,99129941748661,-0.05317688,0.0622406,-0.015899658
android.sensor.gyroscope,1524343205125,99129960974736,0.027435303,0.040237427,-0.0073547363
android.sensor.gyroscope,1524343205145,99129980261845,0.10928345,-0.015930176,-0.022003174
android.sensor.gyroscope,1524343205164,99129999518437,0.076309204,0.0048217773,-0.022003174
android.sensor.gyroscope,1524343205184,99130018775029,-0.023849487,0.0793457,-0.00491333
android.sensor.gyroscope,1524343205204,99130038001103,-0.08616638,0.13188171,0.006088257
android.sensor.gyroscope,1524343205222,99130057257695,-0.04585266,0.0952301,-0.0024719238
android.sensor.gyroscope,1524343205241,99130076514286,0.039642334,0.0072631836,-0.029327393
android.sensor.gyroscope,1524343205262,99130095770878,0.04576111,-0.039138794,-0.04156494
android.sensor.gyroscope,1524343205282,99130114996952,-0.007980347,-0.024490356,-0.022003174
android.sensor.gyroscope,1524343205300,99130134253544,-0.07518005,0.012145996,0.008529663
android.sensor.gyroscope,1524343205319,99130153510136,-0.119155884,0.00970459,0.02319336
android.sensor.gyroscope,1524343205339,99130172766728,-0.14846802,-0.031814575,0.0146484375
android.sensor.gyroscope,1524343205358,99130192023320,-0.27798462,-0.06724548,-0.037887573
android.sensor.gyroscope,1524343205376,99130211249394,-0.61517334,-0.17352295,-0.15272522
android.sensor.gyroscope,1524343205395,99130230505986,-1.0867615,-0.32868958,-0.44104004
android.sensor.gyroscope,1524343205415,99130249762577,-1.5119171,-0.38856506,-1.0042572
android.sensor.gyroscope,1524343205435,99130269049687,-1.250473,-0.47895813,-1.6725311
android.sensor.gyroscope,1524343205455,99130288275761,0.11784363,-1.0189667,-2.282196
android.sensor.gyroscope,1524343205473,99130307532353,2.0848236,-1.4819946,-2.801422
android.sensor.gyroscope,1524343205494,99130326788945,3.5142365,-1.0116425,-3.11174
android.sensor.gyroscope,1524343205511,99130346045536,4.395096,-0.014724731,-3.0225525
android.sensor.gyroscope,1524343205531,99130365271611,5.7988586,0.41163635,-2.3896942
android.sensor.gyroscope,1524343205550,99130384528202,7.7988434,0.15997314,-1.4123077
android.sensor.gyroscope,1524343205568,99130403784794,9.863541,-0.19920349,-0.6804962
android.sensor.gyroscope,1524343205588,99130423041386,11.917252,-0.5058441,-0.3506317
android.sensor.gyroscope,1524343205607,99130442297978,14.228775,-1.3134003,-0.5693207
android.sensor.gyroscope,1524343205626,99130461524052,16.10411,-3.412323,-1.4208679
android.sensor.gyroscope,1524343205646,99130480780644,16.947113,-6.6975555,-2.2235413
android.sensor.gyroscope,1524343205665,99130500037236,16.275162,-7.7885437,-2.6633606
android.sensor.gyroscope,1524343205684,99130519293827,14.098038,-4.987137,-2.9125824
android.sensor.gyroscope,1524343205704,99130538519902,11.636261,-1.4258118,-2.7501068
android.sensor.gyroscope,1524343205723,99130557807011,10.106674,0.35057068,-2.201538
android.sensor.gyroscope,1524343205742,99130577063603,9.369965,0.33102417,-1.4562836
android.sensor.gyroscope,1524343205761,99130596320195,8.603958,0.3725586,-0.7318268
android.sensor.gyroscope,1524343205780,99130615546269,7.5141754,0.89302063,-0.16249084
android.sensor.gyroscope,1524343205800,99130634802861,6.4365997,1.450119,0.21377563
android.sensor.gyroscope,1524343205819,99130654059452,5.1660156,1.9595795,0.640152
android.sensor.gyroscope,1524343205838,99130673316044,3.2491302,2.3676453,1.4208527
android.sensor.gyroscope,1524343205858,99130692542118,0.94496155,2.3089905,2.4996338
android.sensor.gyroscope,1524343205878,99130711798710,-0.7532196,2.224701,3.363388
android.sensor.gyroscope,1524343205895,99130731055302,-2.0128326,2.2491302,3.9876862
android.sensor.gyroscope,1524343205915,99130750311894,-2.8741455,1.8679352,4.6327667
android.sensor.gyroscope,1524343205935,99130769568486,-3.3396149,1.589386,5.265625
android.sensor.gyroscope,1524343205953,99130788794560,-4.0677795,2.2002563,5.5514984
android.sensor.gyroscope,1524343205973,99130808051152,-5.379898,3.0334778,5.4977417
android.sensor.gyroscope,1524343205994,99130827307743,-6.739685,3.17276,5.7078857
android.sensor.gyroscope,1524343206013,99130846564335,-7.306549,3.0334778,6.203903
android.sensor.gyroscope,1524343206030,99130865820927,-6.888733,3.0847778,6.5594177
android.sensor.gyroscope,1524343206051,99130885077519,-6.1508026,2.5570068,6.629059
android.sensor.gyroscope,1524343206070,99130904334111,-5.3127136,1.5466309,6.561859
android.sensor.gyroscope,1524343206091,99130923590702,-4.6749725,1.5136566,6.9454956
android.sensor.gyroscope,1524343206110,99130942816777,-4.362213,2.9210663,8.122009
android.sensor.gyroscope,1524343206128,99130962073368,-4.5747833,4.771988,9.600296
android.sensor.gyroscope,1524343206146,99130981329960,-5.008499,5.3144226,10.72673
android.sensor.gyroscope,1524343206166,99131000586552,-5.2785034,5.4952545,11.259399
android.sensor.gyroscope,1524343206185,99131019812626,-4.7177277,7.161682,11.814072
android.sensor.gyroscope,1524343206205,99131039069218,-3.0085297,9.382782,12.768234
android.sensor.gyroscope,1524343206225,99131058325810,-1.4911499,12.325912,13.468277
android.sensor.gyroscope,1524343206243,99131077582402,-1.36409,17.227478,14.076691
android.sensor.gyroscope,1524343206262,99131096838993,-1.8955536,20.82669,15.209244
android.sensor.gyroscope,1524343206281,99131116065068,-0.41236877,15.17865,13.588013
android.sensor.gyroscope,1524343206301,99131135352177,2.4867706,0.79039,7.993744
android.sensor.gyroscope,1524343206319,99131154608769,2.4317932,-5.5869904,5.811722
android.sensor.gyroscope,1524343206342,99131173865361,1.8807831,0.6645355,6.4164886
android.sensor.gyroscope,1524343206358,99131193091435,2.5600739,4.02919,5.369461
android.sensor.gyroscope,1524343206384,99131212348027,3.2601166,1.9473572,4.4898224
android.sensor.gyroscope,1524343206396,99131231604618,2.809311,-0.90657043,4.9052124
android.sensor.gyroscope,1524343206416,99131250830693,2.7176666,-2.3176575,4.4983673
android.sensor.gyroscope,1524343206435,99131270087284,2.9229126,-1.8424225,3.0469513
android.sensor.gyroscope,1524343206454,99131289343876,2.6626892,-1.4270172,2.2381744
android.sensor.gyroscope,1524343206473,99131308600468,2.589386,-2.221161,2.2052002
android.sensor.gyroscope,1524343206493,99131327857060,2.8129578,-3.1386566,2.262619
android.sensor.gyroscope,1524343206511,99131347083134,2.7127838,-3.0079346,1.964508
android.sensor.gyroscope,1524343206531,99131366339726,2.35849,-2.3567505,1.0531158
android.sensor.gyroscope,1524343206550,99131385596318,1.9443207,-2.3323212,-0.0073547363
android.sensor.gyroscope,1524343206569,99131404852909,1.488617,-2.9322052,-0.6499634
android.sensor.gyroscope,1524343206590,99131424140019,1.0695648,-2.7855835,-1.048233
android.sensor.gyroscope,1524343206611,99131443366093,0.5051422,-1.3891602,-1.0506744
android.sensor.gyroscope,1524343206627,99131462622685,-0.18391418,0.26382446,-0.47036743
android.sensor.gyroscope,1524343206647,99131481879277,-0.62739563,0.86857605,0.16247559
android.sensor.gyroscope,1524343206666,99131501135868,-0.64082336,0.25283813,0.38237
android.sensor.gyroscope,1524343206686,99131520361943,-0.36227417,-0.8454895,0.31396484
android.sensor.gyroscope,1524343206703,99131539618534,0.26322937,-1.0739441,0.06594849
android.sensor.gyroscope,1524343206723,99131558875126,0.55644226,-0.5205078,-0.19181824
android.sensor.gyroscope,1524343206743,99131578131718,0.23147583,0.16729736,-0.17593384
android.sensor.gyroscope,1524343206761,99131597357792,-0.11305237,0.84536743,-0.22114563
android.sensor.gyroscope,1524343206780,99131616614384,-0.36105347,0.7121887,-0.13684082
android.sensor.gyroscope,1524343206800,99131635870976,-0.2755432,0.59368896,0.07695007
android.sensor.gyroscope,1524343206821,99131655127568,-0.19000244,0.7305145,0.19300842
android.sensor.gyroscope,1524343206840,99131674384159,-0.26576233,1.0445099,0.11238098
android.sensor.gyroscope,1524343206859,99131693610234,-0.03364563,1.1385651,-0.18814087
android.sensor.gyroscope,1524343206879,99131712897343,0.25712585,0.30413818,-0.42027283
android.sensor.gyroscope,1524343206896,99131732153935,0.23635864,-0.6426697,-0.38974
android.sensor.gyroscope,1524343206916,99131751410527,-0.23156738,-0.6451111,-0.13928223
android.sensor.gyroscope,1524343206935,99131770636601,-0.5039978,0.15385437,-0.019561768
