Sensor, CurrentTimeMs, SensorTimestampNano, X, Y, Z
android.sensor.gyroscope,1524343132589,99057421920098,0.028656006,0.043914795,0.02319336
android.sensor.gyroscope,1524343132606,99057441146172,0.049423218,0.0048217773,0.0024261475
android.sensor.gyroscope,1524343132624,99057460402764,0.035995483,0.010940552,-3.0517578E-5
android.sensor.gyroscope,1524343132644,99057479659355,0.0042266846,0.020706177,0.012207031
android.sensor.gyroscope,1524343132663,99057498915947,-0.028747559,0.035354614,0.010971069
android.sensor.gyroscope,1524343132682,99057518142021,-0.043411255,0.057357788,0.010971069
android.sensor.gyroscope,1524343132702,99057537398613,-0.0055389404,0.061019897,0.030517578
android.sensor.gyroscope,1524343132721,99057556655205,0.0592041,0.032913208,0.029296875
android.sensor.gyroscope,1524343132740,99057575911797,0.07019043,0.0060272217,-0.0036773682
android.sensor.gyroscope,1524343132760,99057595168389,0.020111084,0.021911621,-0.022003174
android.sensor.gyroscope,1524343132778,99057614424980,-0.029968262,0.04269409,-0.025680542
android.sensor.gyroscope,1524343132798,99057633681572,-0.051971436,0.02558899,-0.012237549
android.sensor.gyroscope,1524343132817,99057652938164,-0.048294067,0.012145996,0.020751953
android.sensor.gyroscope,1524343132836,99057672164238,-0.044631958,0.017028809,0.034179688
android.sensor.gyroscope,1524343132855,99057691420830,-0.083724976,-0.018371582,-0.011016846
android.sensor.gyroscope,1524343132875,99057710677422,-0.13381958,-0.08190918,-0.11117554
android.sensor.gyroscope,1524343132894,99057729934014,-0.19735718,-0.14910889,-0.2296753
android.sensor.gyroscope,1524343132918,99057749160088,-0.26086426,-0.12954712,-0.31521606
android.sensor.gyroscope,1524343132937,99057768416680,-0.33540344,-0.09411621,-0.47402954
android.sensor.gyroscope,1524343132951,99057787673271,-0.4380188,-0.19796753,-0.83322144
android.sensor.gyroscope,1524343132971,99057806929863,-0.4697876,-0.56570435,-1.4343109
android.sensor.gyroscope,1524343132991,99057826155938,-0.30363464,-1.095932,-2.0390625
android.sensor.gyroscope,1524343133012,99057845412529,-0.039733887,-1.3097382,-2.3994598
android.sensor.gyroscope,1524343133029,99057864669121,0.21559143,-1.0715027,-2.579071
android.sensor.gyroscope,1524343133048,99057883956230,0.39883423,-0.61335754,-2.604721
android.sensor.gyroscope,1524343133068,99057903182305,0.39762878,-0.3848877,-2.4459076
android.sensor.gyroscope,1524343133087,99057922438896,0.3927307,-0.68788147,-2.123352
android.sensor.gyroscope,1524343133107,99057941695488,0.7433624,-1.070282,-1.4135437
android.sensor.gyroscope,1524343133126,99057960952080,1.5680237,-0.56448364,-0.046447754
android.sensor.gyroscope,1524343133145,99057980208672,2.7030182,0.83924866,1.925415
android.sensor.gyroscope,1524343133165,99057999434746,3.4482727,1.8007507,3.7910004
android.sensor.gyroscope,1524343133185,99058018691338,3.3749695,1.8019714,5.1190033
android.sensor.gyroscope,1524343133203,99058037947930,2.8459625,1.616272,5.941223
android.sensor.gyroscope,1524343133221,99058057204521,2.3951416,2.236908,6.566742
android.sensor.gyroscope,1524343133241,99058076430596,2.2815247,3.4341888,7.3376617
android.sensor.gyroscope,1524343133260,99058095687188,2.4391174,4.3761597,8.150101
android.sensor.gyroscope,1524343133279,99058114943779,2.4660034,4.8135376,8.47998
android.sensor.gyroscope,1524343133299,99058134200371,2.3426056,4.654709,8.027939
android.sensor.gyroscope,1524343133317,99058153426445,1.6168976,4.417694,7.0798798
android.sensor.gyroscope,1524343133337,99058172713555,0.21923828,4.859955,6.1159363
android.sensor.gyroscope,1524343133359,99058191970146,-1.0696564,5.2753296,5.6174774
android.sensor.gyroscope,1524343133375,99058211226738,-1.4031982,4.732895,5.608917
android.sensor.gyroscope,1524343133394,99058230452813,-1.1576233,3.7433014,5.189865
android.sensor.gyroscope,1524343133415,99058249709404,-1.5009155,3.6993256,4.1795044
android.sensor.gyroscope,1524343133434,99058268965996,-2.2706146,4.299179,2.9797668
android.sensor.gyroscope,1524343133452,99058288222588,-2.8142853,4.2881775,2.0549164
android.sensor.gyroscope,1524343133471,99058307448662,-3.2614288,3.3499146,1.4965973
android.sensor.gyroscope,1524343133492,99058326705254,-3.9394836,2.2344666,0.9174957
android.sensor.gyroscope,1524343133510,99058345961846,-4.6835327,2.1306305,-0.20036316
android.sensor.gyroscope,1524343133529,99058365218438,-5.3090363,3.312027,-1.848465
android.sensor.gyroscope,1524343133550,99058384444512,-5.5045166,4.014511,-3.1667175
android.sensor.gyroscope,1524343133581,99058403701104,-5.244293,3.1898499,-3.842331
android.sensor.gyroscope,1524343133587,99058422957695,-5.1380005,1.541748,-4.448303
android.sensor.gyroscope,1524343133607,99058442214287,-5.6010284,0.53749084,-5.182556
android.sensor.gyroscope,1524343133626,99058461470879,-6.586975,1.3658142,-5.8019714
android.sensor.gyroscope,1524343133646,99058480727471,-7.1501923,2.5679932,-6.3713074
android.sensor.gyroscope,1524343133670,99058499984063,-6.2913055,2.101303,-6.8025665
android.sensor.gyroscope,1524343133684,99058519240654,-4.341446,0.17097473,-7.1532135
android.sensor.gyroscope,1524343133703,99058538466729,-2.9340057,-0.06724548,-7.608917
android.sensor.gyroscope,1524343133724,99058557723320,-2.2644958,2.3175507,-7.9949646
android.sensor.gyroscope,1524343133743,99058576979912,-1.6903076,3.8434753,-8.8355255
android.sensor.gyroscope,1524343133762,99058596236504,-0.9389343,3.0652466,-9.898422
android.sensor.gyroscope,1524343133781,99058615462578,0.12884521,0.9125519,-10.145203
android.sensor.gyroscope,1524343133800,99058634719170,0.92419434,-0.029373169,-9.272903
android.sensor.gyroscope,1524343133820,99058653975762,1.3249054,0.5643616,-8.054825
android.sensor.gyroscope,1524343133838,99058673232354,1.3603363,1.6871338,-7.1666565
android.sensor.gyroscope,1524343133858,99058692488945,1.4678497,2.5423431,-6.233246
android.sensor.gyroscope,1524343133876,99058711715020,2.1495667,2.1758118,-5.4623413
android.sensor.gyroscope,1524343133897,99058731002129,3.2992249,0.92967224,-5.056717
android.sensor.gyroscope,1524343133916,99058750258721,4.1703186,0.7537384,-4.422653
android.sensor.gyroscope,1524343133939,99058769484795,4.338913,2.1391602,-3.387848
android.sensor.gyroscope,1524343133953,99058788741387,3.9284058,4.312622,-2.019516
android.sensor.gyroscope,1524343133972,99058807997979,3.6180725,5.7530365,-0.5668793
android.sensor.gyroscope,1524343133992,99058827254570,3.4006195,6.1549835,0.7550049
android.sensor.gyroscope,1524343134013,99058846511162,2.6639252,6.6974335,1.9828339
android.sensor.gyroscope,1524343134032,99058865737236,1.4764099,8.120743,3.0029755
android.sensor.gyroscope,1524343134049,99058884993828,0.10562134,10.323517,3.984024
android.sensor.gyroscope,1524343134069,99058904250420,-1.092865,11.75293,4.387192
android.sensor.gyroscope,1524343134088,99058923507012,-1.6585388,10.694916,3.74823
android.sensor.gyroscope,1524343134108,99058942733086,-1.1942749,6.9674377,2.7207642
android.sensor.gyroscope,1524343134128,99058961989678,-0.15214539,2.516693,1.9755096
android.sensor.gyroscope,1524343134148,99058981246270,0.36706543,0.22106934,1.497818
android.sensor.gyroscope,1524343134166,99059000502861,-0.1435852,1.0274048,1.1264191
android.sensor.gyroscope,1524343134187,99059019759453,-0.8069916,2.0328827,0.84295654
android.sensor.gyroscope,1524343134205,99059039016045,-0.77033997,1.4293518,0.8551941
android.sensor.gyroscope,1524343134223,99059058272637,-0.188797,0.31269836,0.93826294
android.sensor.gyroscope,1524343134243,99059077529229,0.286438,-0.6927643,0.57418823
android.sensor.gyroscope,1524343134261,99059096755303,0.056762695,-0.7770691,-0.011016846
android.sensor.gyroscope,1524343134281,99059116011895,-0.64450073,0.19786072,-0.25656128
android.sensor.gyroscope,1524343134299,99059135268486,-1.1759491,0.84536743,-0.38850403
android.sensor.gyroscope,1524343134319,99059154525078,-1.2260437,0.53749084,-0.52778625
android.sensor.gyroscope,1524343134338,99059173751152,-0.68847656,-0.43130493,-0.5375519
android.sensor.gyroscope,1524343134357,99059193007744,0.20458984,-1.4477844,-0.46424866
android.sensor.gyroscope,1524343134376,99059212264336,0.7433624,-1.7520142,-0.6157532
android.sensor.gyroscope,1524343134396,99059231520928,0.5136719,-0.9126892,-0.7330322
android.sensor.gyroscope,1524343134415,99059250747002,-0.09350586,0.040237427,-0.55955505
android.sensor.gyroscope,1524343134434,99059270003594,-0.43190002,0.30169678,-0.2504425
android.sensor.gyroscope,1524343134453,99059289260186,-0.27798462,-0.063583374,-0.12950134
android.sensor.gyroscope,1524343134472,99059308547295,0.15693665,-0.57670593,-0.23335266
android.sensor.gyroscope,1524343134492,99059327773369,0.4416046,-0.851593,-0.45204163
android.sensor.gyroscope,1524343134511,99059347029961,0.47457886,-0.7245331,-0.66096497
android.sensor.gyroscope,1524343134531,99059366286553,0.610199,-0.39711,-0.59742737
android.sensor.gyroscope,1524343134550,99059385543145,0.6138611,-0.37023926,-0.49845886
android.sensor.gyroscope,1524343134569,99059404769219,-0.19000244,-0.6402283,-0.3921814
android.sensor.gyroscope,1524343134588,99059424025811,-0.7788849,-0.46063232,-0.086746216
