Sensor, CurrentTimeMs, SensorTimestampNano, X, Y, Z
android.sensor.accelerometer,1524343192275,99117101006328,4.0582275,5.481964,7.3698883
android.sensor.accelerometer,1524343192293,99117120293437,4.1276245,5.50589,7.080368
android.sensor.accelerometer,1524343192306,99117139550029,4.220932,5.4843445,6.7501526
android.sensor.accelerometer,1524343192323,99117158776103,4.4147644,5.4723816,6.6400757
android.sensor.accelerometer,1524343192343,99117178032695,4.3549347,5.3575287,6.960724
android.sensor.accelerometer,1524343192362,99117197289287,4.084549,5.168503,7.5589294
android.sensor.accelerometer,1524343192382,99117216545879,3.9314117,5.1302185,7.630707
android.sensor.accelerometer,1524343192400,99117235802471,4.3836517,5.252243,6.960724
android.sensor.accelerometer,1524343192420,99117255028545,4.6013947,5.3359985,6.623337
android.sensor.accelerometer,1524343192442,99117274285137,4.5559387,5.2666016,6.8602295
android.sensor.accelerometer,1524343192458,99117293541728,4.455429,5.1254272,7.269394
android.sensor.accelerometer,1524343192478,99117312798320,4.3046875,5.063217,7.865204
android.sensor.accelerometer,1524343192499,99117332054912,4.2257233,5.07518,7.3914337
android.sensor.accelerometer,1524343192516,99117351280986,4.409973,5.091934,6.604187
android.sensor.accelerometer,1524343192537,99117370537578,4.228119,5.1972046,6.305084
android.sensor.accelerometer,1524343192554,99117389824687,4.010376,5.4723816,6.757324
android.sensor.accelerometer,1524343192573,99117409081279,3.9840546,5.970093,7.063614
android.sensor.accelerometer,1524343192592,99117428307353,4.4650116,6.4462585,7.2311096
android.sensor.accelerometer,1524343192611,99117447563945,5.087143,6.7860413,8.379669
android.sensor.accelerometer,1524343192640,99117466820537,5.922241,6.7669067,11.430511
android.sensor.accelerometer,1524343192652,99117486077129,6.690338,6.661621,14.854645
android.sensor.accelerometer,1524343192670,99117505303203,6.723831,5.721237,17.044083
android.sensor.accelerometer,1524343192689,99117524559795,5.699707,4.821533,18.970306
android.sensor.accelerometer,1524343192708,99117543816387,4.5726776,4.2831573,19.164124
android.sensor.accelerometer,1524343192727,99117563072978,5.0081787,2.7397766,19.692932
android.sensor.accelerometer,1524343192747,99117582299053,5.50589,1.4739838,22.35614
android.sensor.accelerometer,1524343192772,99117601555645,5.950943,-0.04307556,24.232117
android.sensor.accelerometer,1524343192785,99117620812236,5.781067,-2.3641052,22.485352
android.sensor.accelerometer,1524343192805,99117640068828,4.4650116,-4.319046,18.874588
android.sensor.accelerometer,1524343192824,99117659325420,2.7373962,-5.7379913,17.800201
android.sensor.accelerometer,1524343192844,99117678582012,2.0243225,-8.255234,18.008392
android.sensor.accelerometer,1524343192864,99117697838603,2.945572,-12.588638,16.017563
android.sensor.accelerometer,1524343192881,99117717095195,5.15654,-17.639893,12.770493
android.sensor.accelerometer,1524343192901,99117736351787,7.133011,-22.399216,10.872986
android.sensor.accelerometer,1524343192920,99117755577861,6.620941,-29.005798,7.3124695
android.sensor.accelerometer,1524343192939,99117774834453,2.0075836,-34.80121,0.48335266
android.sensor.accelerometer,1524343192958,99117794091045,0.050247192,-35.31807,-9.578476
android.sensor.accelerometer,1524343192977,99117813347637,4.3381805,-30.841095,-10.057037
android.sensor.accelerometer,1524343192998,99117832573711,6.3026886,-29.979675,-4.520035
android.sensor.accelerometer,1524343193017,99117851830303,5.3647156,-30.685562,-2.7804565
android.sensor.accelerometer,1524343193036,99117871086895,-0.33259583,-32.95395,-4.2233276
android.sensor.accelerometer,1524343193056,99117890343486,0.85902405,-34.44229,-12.351746
android.sensor.accelerometer,1524343193075,99117909569561,6.8482513,-32.68596,-13.653442
android.sensor.accelerometer,1524343193097,99117928826152,7.104294,-31.042084,-15.775879
android.sensor.accelerometer,1524343193117,99117948082744,3.7734833,-29.496323,-18.075378
android.sensor.accelerometer,1524343193131,99117967369853,2.567505,-28.065414,-20.87259
android.sensor.accelerometer,1524343193150,99117986626445,4.6013947,-25.165314,-26.54837
android.sensor.accelerometer,1524343193170,99118005852520,6.5682983,-21.937393,-28.302307
android.sensor.accelerometer,1524343193192,99118025109111,6.5970154,-19.113876,-22.789246
android.sensor.accelerometer,1524343193208,99118044365703,6.982254,-16.78804,-16.572693
android.sensor.accelerometer,1524343193228,99118063622295,7.6737823,-15.464813,-13.060028
android.sensor.accelerometer,1524343193248,99118082848369,7.716858,-16.529617,-11.085953
android.sensor.accelerometer,1524343193266,99118102104961,7.1904297,-18.001205,-7.446457
android.sensor.accelerometer,1524343193285,99118121361553,7.6618195,-18.05864,-5.6566315
android.sensor.accelerometer,1524343193305,99118140618145,6.793228,-18.230911,-5.5345917
android.sensor.accelerometer,1524343193324,99118159844219,6.02034,-18.946365,-2.835495
android.sensor.accelerometer,1524343193344,99118179100811,6.467804,-20.664413,-0.1651001
android.sensor.accelerometer,1524343193365,99118198357402,4.8670044,-22.600204,2.9694977
android.sensor.accelerometer,1524343193382,99118217613994,3.0317078,-23.705688,6.386444
android.sensor.accelerometer,1524343193408,99118236840068,3.8117676,-23.014175,11.155334
android.sensor.accelerometer,1524343193420,99118256127178,7.1736755,-20.874985,13.899902
android.sensor.accelerometer,1524343193443,99118275383770,10.95195,-18.78366,13.222733
android.sensor.accelerometer,1524343193459,99118294640361,10.344177,-18.247665,13.605591
android.sensor.accelerometer,1524343193481,99118313896953,6.3385925,-19.76471,18.446274
android.sensor.accelerometer,1524343193497,99118333123027,6.61615,-23.741592,25.914276
android.sensor.accelerometer,1524343193517,99118352379619,12.14357,-25.387848,30.991837
android.sensor.accelerometer,1524343193538,99118371636211,12.595825,-28.02713,26.206192
android.sensor.accelerometer,1524343193555,99118390892803,8.901306,-33.29373,18.759735
android.sensor.accelerometer,1524343193576,99118410118877,9.533005,-40.9747,15.5724945
android.sensor.accelerometer,1524343193595,99118429375469,17.142181,-48.031128,22.652847
android.sensor.accelerometer,1524343193614,99118448632061,25.818558,-48.4068,38.002808
android.sensor.accelerometer,1524343193633,99118467888652,29.671005,-39.96492,50.871414
android.sensor.accelerometer,1524343193652,99118487114727,16.474579,-32.93242,37.1725
android.sensor.accelerometer,1524343193671,99118506371318,2.8378906,-28.943588,19.88675
android.sensor.accelerometer,1524343193690,99118525627910,0.090927124,-29.192444,18.116058
android.sensor.accelerometer,1524343193711,99118544915020,10.358536,-30.33142,22.432709
android.sensor.accelerometer,1524343193728,99118564141094,25.610382,-25.627136,19.903503
android.sensor.accelerometer,1524343193749,99118583397686,25.923843,-18.88655,11.85643
android.sensor.accelerometer,1524343193768,99118602654277,16.929214,-16.261627,3.4169464
android.sensor.accelerometer,1524343193786,99118621910869,11.973679,-13.706085,-1.4763641
android.sensor.accelerometer,1524343193806,99118641167461,9.561722,-10.621735,-0.90927124
android.sensor.accelerometer,1524343193825,99118660393535,6.644867,-8.583054,2.2037964
android.sensor.accelerometer,1524343193845,99118679650127,5.498703,-7.147354,3.4695892
android.sensor.accelerometer,1524343193863,99118698906719,5.2833557,-5.67099,-1.0049896
android.sensor.accelerometer,1524343193883,99118718163311,4.687546,-3.8955078,-0.007171631
android.sensor.accelerometer,1524343193902,99118737389385,3.5988007,-2.7421722,1.071991
android.sensor.accelerometer,1524343193923,99118756645977,1.6486511,-1.5720825,3.0101776
android.sensor.accelerometer,1524343193940,99118775902568,0.08135986,-1.0671997,4.8478546
android.sensor.accelerometer,1524343193960,99118795159160,-0.9690857,-0.83987427,4.874176
android.sensor.accelerometer,1524343193981,99118814385234,-1.5074768,1.1294098,4.7617188
android.sensor.accelerometer,1524343194000,99118833672344,0.5814514,-0.13160706,5.355133
android.sensor.accelerometer,1524343194018,99118852928936,1.1724854,0.279953,6.439087
android.sensor.accelerometer,1524343194038,99118872185527,0.3900299,1.5003052,8.324631
android.sensor.accelerometer,1524343194057,99118891411602,-0.44506836,2.8498535,9.820145
android.sensor.accelerometer,1524343194077,99118910668193,0.41635132,2.292328,8.123627
android.sensor.accelerometer,1524343194095,99118929924785,-1.002594,2.395218,6.0562286
android.sensor.accelerometer,1524343194115,99118949181377,-1.7348022,2.548355,5.54895
android.sensor.accelerometer,1524343194134,99118968437969,-1.1676941,2.2899323,7.276581
android.sensor.accelerometer,1524343194156,99118987664043,0.20578003,2.6416779,8.583054
android.sensor.accelerometer,1524343194171,99119006920635,0.99302673,2.8522491,8.255234
android.sensor.accelerometer,1524343194192,99119026177227,1.2203369,3.4169464,9.269791
android.sensor.accelerometer,1524343194211,99119045433818,1.031311,3.0795593,10.432709
android.sensor.accelerometer,1524343194231,99119064659893,0.46180725,2.5459595,10.707886
android.sensor.accelerometer,1524343194250,99119083916484,0.25842285,2.4311066,8.975479
android.sensor.accelerometer,1524343194269,99119103173076,0.0047912598,2.5363922,7.716858
android.sensor.accelerometer,1524343194287,99119122460186,1.0241241,2.3521423,8.566299
android.sensor.accelerometer,1524343194306,99119141686260,2.1463623,2.2277222,10.8012085
android.sensor.accelerometer,1524343194328,99119160942852,1.0169525,3.3882294,10.262817
android.sensor.accelerometer,1524343194345,99119180199443,1.1365967,3.1082764,7.915451
android.sensor.accelerometer,1524343194364,99119199456035,1.0911255,3.1872406,7.802994
android.sensor.accelerometer,1524343194383,99119218712627,1.4045868,2.806778,9.470795
android.sensor.accelerometer,1524343194402,99119237938701,1.1294098,2.0937195,11.093124
android.sensor.accelerometer,1524343194422,99119257195293,0.08375549,2.7086792,11.416153
