Sensor, CurrentTimeMs, SensorTimestampNano, X, Y, Z
android.sensor.gyroscope,1524343085086,99009910000702,-0.06173706,0.10987854,-0.039123535
android.sensor.gyroscope,1524343085104,99009929257294,-0.042175293,0.0060272217,-0.034240723
android.sensor.gyroscope,1524343085113,99009948513886,0.0042266846,-0.08679199,-0.030563354
android.sensor.gyroscope,1524343085132,99009967739960,0.024993896,-0.07458496,-0.028121948
android.sensor.gyroscope,1524343085153,99009986996552,-0.0018920898,0.014587402,-0.011016846
android.sensor.gyroscope,1524343085171,99010006253144,-0.034851074,0.072006226,0.00730896
android.sensor.gyroscope,1524343085193,99010025509735,-0.04096985,0.09033203,0.008529663
android.sensor.gyroscope,1524343085210,99010044735810,-0.009216309,0.096450806,-0.00491333
android.sensor.gyroscope,1524343085230,99010063992401,0.020111084,0.08300781,-0.0073547363
android.sensor.gyroscope,1524343085250,99010083248993,0.012786865,0.05368042,-0.0061187744
android.sensor.gyroscope,1524343085270,99010102536103,-0.026290894,0.059799194,0.0012054443
android.sensor.gyroscope,1524343085290,99010121762177,-0.051971436,0.078125,0.008529663
android.sensor.gyroscope,1524343085307,99010141018769,-0.023849487,0.030471802,0.010971069
android.sensor.gyroscope,1524343085326,99010160275360,0.032318115,-0.03425598,0.020751953
android.sensor.gyroscope,1524343085346,99010179531952,0.049423218,-0.03425598,0.040298462
android.sensor.gyroscope,1524343085367,99010198758026,0.027435303,-0.017166138,0.03173828
android.sensor.gyroscope,1524343085386,99010218014618,0.024993896,-0.03793335,-0.014678955
android.sensor.gyroscope,1524343085402,99010237271210,0.06774902,-0.11856079,-0.039123535
android.sensor.gyroscope,1524343085422,99010256527802,0.09951782,-0.17597961,-0.061080933
android.sensor.gyroscope,1524343085446,99010275753876,0.05064392,0.008483887,-0.16493225
android.sensor.gyroscope,1524343085463,99010295010468,-0.09838867,0.4238739,-0.40560913
android.sensor.gyroscope,1524343085480,99010314267060,-0.19612122,0.59124756,-0.7758026
android.sensor.gyroscope,1524343085500,99010333523651,-0.1912384,0.3774414,-1.1850739
android.sensor.gyroscope,1524343085523,99010352749726,-0.18511963,0.07078552,-1.5540314
android.sensor.gyroscope,1524343085541,99010372006317,-0.16314697,-0.30303955,-1.9217834
android.sensor.gyroscope,1524343085560,99010391293427,-0.1435852,-0.7685089,-2.1563568
android.sensor.gyroscope,1524343085578,99010410550019,-0.26576233,-1.109375,-2.268753
android.sensor.gyroscope,1524343085595,99010429776093,-0.5027771,-1.0727234,-2.2406616
android.sensor.gyroscope,1524343085614,99010449032685,-0.63838196,-1.109375,-2.163681
android.sensor.gyroscope,1524343085641,99010468289276,-0.56385803,-1.511322,-2.1209106
android.sensor.gyroscope,1524343085653,99010487545868,-0.3854828,-2.0122375,-2.1722412
android.sensor.gyroscope,1524343085673,99010506802460,-0.26454163,-2.3372192,-2.2748566
android.sensor.gyroscope,1524343085693,99010526028534,-0.24989319,-2.4667053,-2.346939
android.sensor.gyroscope,1524343085710,99010545285126,-0.4355774,-2.4422913,-2.307846
android.sensor.gyroscope,1524343085730,99010564541718,-0.8069916,-2.433731,-2.1966553
android.sensor.gyroscope,1524343085749,99010583767792,-1.1722717,-2.612091,-2.0659485
android.sensor.gyroscope,1524343085768,99010603024384,-1.3139954,-3.0775757,-1.8631287
android.sensor.gyroscope,1524343085788,99010622280976,-1.0562134,-3.9071198,-1.5735931
android.sensor.gyroscope,1524343085807,99010641537567,-0.55285645,-4.789215,-1.2217407
android.sensor.gyroscope,1524343085828,99010660824677,-0.2071228,-5.2644653,-0.78312683
android.sensor.gyroscope,1524343085846,99010680050751,-0.28042603,-5.296234,-0.25656128
android.sensor.gyroscope,1524343085864,99010699307343,-0.524765,-5.2412567,0.30296326
android.sensor.gyroscope,1524343085884,99010718563935,-0.73124695,-5.3170013,0.8368683
android.sensor.gyroscope,1524343085904,99010737820526,-0.835083,-5.406189,1.4330597
android.sensor.gyroscope,1524343085923,99010757046601,-0.8497467,-5.37442,2.0561523
android.sensor.gyroscope,1524343085943,99010776303192,-1.0293427,-4.894272,2.7989502
android.sensor.gyroscope,1524343085962,99010795559784,-1.6731873,-3.5723724,3.8496246
android.sensor.gyroscope,1524343085980,99010814816376,-2.452652,-2.0378876,4.946747
android.sensor.gyroscope,1524343086000,99010834042450,-2.464859,-1.4673462,5.487961
android.sensor.gyroscope,1524343086018,99010853299042,-1.3970795,-1.7715454,5.046936
android.sensor.gyroscope,1524343086037,99010872555634,-0.268219,-1.5748596,4.395752
android.sensor.gyroscope,1524343086057,99010891812226,0.18014526,-0.71476746,4.5411377
android.sensor.gyroscope,1524343086076,99010911038300,0.29866028,0.18930054,5.3059235
android.sensor.gyroscope,1524343086095,99010930294892,0.17402649,1.1239166,6.0023193
android.sensor.gyroscope,1524343086115,99010949582001,0.66638184,1.371933,6.278427
android.sensor.gyroscope,1524343086135,99010968838593,2.318161,0.31880188,6.2295685
android.sensor.gyroscope,1524343086155,99010988064667,4.18985,-0.3690033,6.020645
android.sensor.gyroscope,1524343086175,99011007321259,4.822708,0.6523285,5.9632263
android.sensor.gyroscope,1524343086192,99011026577851,4.745743,2.4275055,5.994995
android.sensor.gyroscope,1524343086211,99011045834442,5.159912,2.9870453,5.3890076
android.sensor.gyroscope,1524343086230,99011065060517,5.9528046,2.4079437,4.4678345
android.sensor.gyroscope,1524343086250,99011084317108,6.16539,2.018219,3.9779205
android.sensor.gyroscope,1524343086268,99011103573700,5.858719,2.3542023,3.9437103
android.sensor.gyroscope,1524343086288,99011122830292,5.840393,2.5838776,3.2351074
android.sensor.gyroscope,1524343086307,99011142056366,5.8306274,2.5056915,1.4208527
android.sensor.gyroscope,1524343086328,99011161312958,4.968094,2.2491302,-0.025680542
android.sensor.gyroscope,1524343086346,99011180569550,4.03714,1.6590424,-0.4312744
android.sensor.gyroscope,1524343086364,99011199826142,4.0432434,0.84536743,-0.6841736
android.sensor.gyroscope,1524343086383,99011219052216,4.525833,0.4898529,-1.1899719
android.sensor.gyroscope,1524343086404,99011238339325,4.5844574,0.62789917,-1.7214203
android.sensor.gyroscope,1524343086422,99011257595917,4.125107,0.78060913,-2.214981
android.sensor.gyroscope,1524343086441,99011276852509,3.4397125,0.53504944,-2.5118713
android.sensor.gyroscope,1524343086462,99011296078583,2.7653198,0.045135498,-2.5057678
android.sensor.gyroscope,1524343086482,99011315335175,2.4195862,-0.2334137,-2.5753937
android.sensor.gyroscope,1524343086501,99011334591767,2.4293518,-0.32136536,-2.8160858
android.sensor.gyroscope,1524343086519,99011353848358,2.5063171,-0.44474792,-2.9663544
android.sensor.gyroscope,1524343086538,99011373074433,2.6101532,-0.8418274,-3.0408783
android.sensor.gyroscope,1524343086557,99011392331024,2.729889,-1.6408234,-3.209488
android.sensor.gyroscope,1524343086576,99011411587616,2.6333618,-2.3103333,-3.3756256
android.sensor.gyroscope,1524343086596,99011430844208,2.2473145,-2.5522308,-3.4990234
android.sensor.gyroscope,1524343086615,99011450100800,1.6119995,-2.4765015,-3.480713
android.sensor.gyroscope,1524343086634,99011469326874,0.90830994,-2.4569397,-3.0531006
android.sensor.gyroscope,1524343086653,99011488583466,0.49414062,-2.7135162,-2.4019012
android.sensor.gyroscope,1524343086672,99011507840058,0.4550476,-3.233963,-1.7311859
android.sensor.gyroscope,1524343086692,99011527127167,0.46481323,-3.50885,-1.446518
android.sensor.gyroscope,1524343086713,99011546353241,-0.1264801,-2.9700623,-1.5357056
android.sensor.gyroscope,1524343086734,99011565609833,-1.3139954,-1.8436279,-1.5357056
android.sensor.gyroscope,1524343086750,99011584866425,-2.1484528,-1.1154938,-1.1520844
android.sensor.gyroscope,1524343086769,99011604092499,-1.7953644,-1.5479736,-0.5106964
android.sensor.gyroscope,1524343086788,99011623349091,-0.91937256,-2.1172943,-0.046447754
android.sensor.gyroscope,1524343086807,99011642605683,-0.48199463,-1.3512726,0.26753235
android.sensor.gyroscope,1524343086826,99011661862274,-0.23521423,-0.33480835,0.6365051
android.sensor.gyroscope,1524343086848,99011681118866,0.12150574,-0.06846619,1.0335541
android.sensor.gyroscope,1524343086865,99011700344940,0.52101135,-0.15031433,1.3157806
android.sensor.gyroscope,1524343086885,99011719601532,0.6920624,-0.06846619,1.3475494
android.sensor.gyroscope,1524343086904,99011738858124,0.62364197,0.29437256,1.1447449
android.sensor.gyroscope,1524343086922,99011758114716,0.3511963,0.6498871,0.8515167
android.sensor.gyroscope,1524343086943,99011777340790,0.18626404,0.7757263,0.38360596
android.sensor.gyroscope,1524343086961,99011796597382,0.20947266,0.93455505,-0.028121948
android.sensor.gyroscope,1524343086980,99011815884491,0.22167969,1.034729,-0.16371155
android.sensor.gyroscope,1524343086999,99011835141083,0.09585571,0.90522766,-0.12339783
android.sensor.gyroscope,1524343087019,99011854367157,-0.17047119,0.60591125,0.11238098
android.sensor.gyroscope,1524343087038,99011873623749,-0.2572174,0.2271576,0.45811462
