Sensor, CurrentTimeMs, SensorTimestampNano, X, Y, Z
android.sensor.gyroscope,1524343176564,99101391906397,0.048202515,-0.015930176,0.032974243
android.sensor.gyroscope,1524343176576,99101411162989,0.072647095,-0.03793335,0.057403564
android.sensor.gyroscope,1524343176595,99101430389063,0.03475952,-0.0012969971,0.04396057
android.sensor.gyroscope,1524343176614,99101449645655,-0.015319824,0.051239014,0.015853882
android.sensor.gyroscope,1524343176634,99101468902247,-0.023849487,0.030471802,-0.0024719238
android.sensor.gyroscope,1524343176654,99101488158839,0.01399231,0.0011444092,0.009750366
android.sensor.gyroscope,1524343176672,99101507384913,0.044540405,0.032913208,0.050064087
android.sensor.gyroscope,1524343176692,99101526641505,0.044540405,0.078125,0.04762268
android.sensor.gyroscope,1524343176711,99101545898096,0.05064392,0.051239014,0.026855469
android.sensor.gyroscope,1524343176730,99101565154688,0.0262146,0.015823364,0.0012054443
android.sensor.gyroscope,1524343176750,99101584380762,0.006668091,-0.0061798096,-0.0036773682
android.sensor.gyroscope,1524343176770,99101603637354,0.040878296,-0.023254395,0.020751953
android.sensor.gyroscope,1524343176788,99101622893946,0.03843689,0.07078552,0.069610596
android.sensor.gyroscope,1524343176808,99101642150538,-0.023849487,0.1269989,0.05496216
android.sensor.gyroscope,1524343176827,99101661437647,-0.06173706,0.0769043,-0.031784058
android.sensor.gyroscope,1524343176846,99101680663721,-0.071502686,-6.1035156E-5,-0.05619812
android.sensor.gyroscope,1524343176865,99101699920313,-0.039733887,-0.028152466,0.008529663
android.sensor.gyroscope,1524343176885,99101719176905,-6.5612793E-4,-0.03060913,0.11238098
android.sensor.gyroscope,1524343176905,99101738433497,0.020111084,-0.0415802,0.20768738
android.sensor.gyroscope,1524343176923,99101757659571,0.056762695,-0.12832642,0.28341675
android.sensor.gyroscope,1524343176941,99101776916163,0.15205383,-0.30426025,0.33229065
android.sensor.gyroscope,1524343176962,99101796172755,0.286438,-0.4667511,0.43614197
android.sensor.gyroscope,1524343176980,99101815429346,0.28155518,-0.3653412,0.6132965
android.sensor.gyroscope,1524343176999,99101834655421,0.11172485,-0.26150513,0.8503113
android.sensor.gyroscope,1524343177018,99101853912012,0.010345459,-0.7636261,1.1630707
android.sensor.gyroscope,1524343177038,99101873168604,-0.08250427,-2.002472,1.4269562
android.sensor.gyroscope,1524343177059,99101892425196,-0.47834778,-3.0861206,1.8704376
android.sensor.gyroscope,1524343177076,99101911651270,-1.2260437,-3.4929657,2.6535797
android.sensor.gyroscope,1524343177100,99101930907862,-2.076355,-3.47464,3.1911316
android.sensor.gyroscope,1524343177118,99101950194971,-3.1539307,-3.8167267,3.1862335
android.sensor.gyroscope,1524343177134,99101969451563,-4.572342,-4.9358215,2.944336
android.sensor.gyroscope,1524343177158,99101988677637,-6.3572845,-5.773926,2.5326233
android.sensor.gyroscope,1524343177174,99102007934229,-8.665131,-5.0445557,1.4122925
android.sensor.gyroscope,1524343177193,99102027190821,-10.9375305,-2.818573,-0.5668793
android.sensor.gyroscope,1524343177212,99102046447413,-12.067627,-1.6212769,-2.9602356
android.sensor.gyroscope,1524343177232,99102065704005,-10.45372,-3.8008423,-5.048172
android.sensor.gyroscope,1524343177251,99102084930079,-7.679184,-7.6969147,-6.1795044
android.sensor.gyroscope,1524343177268,99102104186671,-7.614441,-8.670639,-5.534424
android.sensor.gyroscope,1524343177289,99102123443262,-9.390823,-4.453247,-3.723816
android.sensor.gyroscope,1524343177307,99102142699854,-9.470245,-0.44718933,-2.3286133
android.sensor.gyroscope,1524343177327,99102161925928,-6.700592,0.061019897,-1.9449921
android.sensor.gyroscope,1524343177351,99102181182520,-3.5522003,-1.1252594,-2.461792
android.sensor.gyroscope,1524343177364,99102200439112,-1.8283539,-2.1747131,-2.9712372
android.sensor.gyroscope,1524343177385,99102219695704,-1.0769806,-2.2541351,-2.7342224
android.sensor.gyroscope,1524343177403,99102238952296,-0.20100403,-1.3842773,-1.8985596
android.sensor.gyroscope,1524343177423,99102258208887,1.1758575,-0.60235596,-1.0543518
android.sensor.gyroscope,1524343177442,99102277465479,2.6211548,-0.75141907,-0.533905
android.sensor.gyroscope,1524343177466,99102296722071,3.739029,-0.8112793,-0.022003174
android.sensor.gyroscope,1524343177484,99102315948145,4.6113434,0.31025696,0.9602661
android.sensor.gyroscope,1524343177499,99102335204737,5.4018097,2.1880493,2.6193695
android.sensor.gyroscope,1524343177519,99102354461329,6.2948914,4.203888,4.4580536
android.sensor.gyroscope,1524343177539,99102373717921,7.6387787,5.265564,5.672455
android.sensor.gyroscope,1524343177559,99102392943995,8.4096985,6.9112396,6.632721
android.sensor.gyroscope,1524343177578,99102412200587,8.088379,9.403549,8.075577
android.sensor.gyroscope,1524343177599,99102431457178,7.982086,9.818939,9.415802
android.sensor.gyroscope,1524343177616,99102450713770,8.167786,8.228256,8.986984
android.sensor.gyroscope,1524343177635,99102469970362,7.3993225,6.3956604,7.3767548
android.sensor.gyroscope,1524343177654,99102489196436,6.090851,4.850189,6.8306427
android.sensor.gyroscope,1524343177674,99102508453028,5.912491,3.378006,5.9497833
android.sensor.gyroscope,1524343177694,99102527740137,5.834305,2.888092,4.107422
android.sensor.gyroscope,1524343177714,99102546996729,4.810501,3.3010254,2.5313873
android.sensor.gyroscope,1524343177730,99102566222803,3.8942108,3.2020721,1.6725159
android.sensor.gyroscope,1524343177750,99102585479395,3.425064,2.318756,1.2705688
android.sensor.gyroscope,1524343177770,99102604735987,2.7726593,1.6578064,1.1056519
android.sensor.gyroscope,1524343177790,99102623992579,1.9272308,1.4965363,1.0543213
android.sensor.gyroscope,1524343177810,99102643218653,0.9095154,1.3487244,0.7562256
android.sensor.gyroscope,1524343177828,99102662475245,-0.4111328,0.9284363,0.16003418
android.sensor.gyroscope,1524343177846,99102681731837,-1.8821106,0.53627014,-0.30789185
android.sensor.gyroscope,1524343177866,99102700988428,-3.0268555,0.057357788,-0.7073822
android.sensor.gyroscope,1524343177886,99102720214503,-3.8955078,-0.3824463,-1.0079346
android.sensor.gyroscope,1524343177904,99102739471094,-4.6407623,-0.3665619,-1.3866577
android.sensor.gyroscope,1524343177924,99102758727686,-5.3823395,0.19541931,-2.089157
android.sensor.gyroscope,1524343177945,99102777984278,-6.425705,0.90766907,-2.7879791
android.sensor.gyroscope,1524343177964,99102797271387,-7.684082,0.99809265,-3.4196167
android.sensor.gyroscope,1524343177983,99102816497462,-8.25708,-0.05870056,-3.8912048
android.sensor.gyroscope,1524343178002,99102835754053,-8.189865,-2.026886,-3.8630981
android.sensor.gyroscope,1524343178023,99102855010645,-8.290054,-3.517395,-3.3230896
android.sensor.gyroscope,1524343178040,99102874267237,-9.069519,-3.359787,-2.5534058
android.sensor.gyroscope,1524343178060,99102893493311,-10.354767,-1.756897,-2.0219727
android.sensor.gyroscope,1524343178077,99102912749903,-10.833694,-0.084350586,-1.9413147
android.sensor.gyroscope,1524343178098,99102932006495,-8.480652,0.37010193,-1.9755249
android.sensor.gyroscope,1524343178116,99102951263087,-4.2559204,0.88812256,-1.853363
android.sensor.gyroscope,1524343178135,99102970489161,-1.3970795,2.9161835,-2.0292969
android.sensor.gyroscope,1524343178156,99102989745753,-0.080062866,4.859955,-2.4312286
android.sensor.gyroscope,1524343178174,99103009002344,0.68470764,5.6833954,-2.6572418
android.sensor.gyroscope,1524343178194,99103028258936,1.2161865,5.497696,-2.6035004
android.sensor.gyroscope,1524343178213,99103047485010,1.3969879,4.8318634,-2.4239044
android.sensor.gyroscope,1524343178235,99103066741602,1.3285675,4.151352,-2.3188324
android.sensor.gyroscope,1524343178252,99103086028712,1.1367645,3.3987732,-2.216217
android.sensor.gyroscope,1524343178272,99103105285303,0.7861328,2.734146,-1.9559937
android.sensor.gyroscope,1524343178290,99103124511378,0.3731842,2.1880493,-1.6187897
android.sensor.gyroscope,1524343178309,99103143767969,0.5319977,1.7359924,-1.359787
android.sensor.gyroscope,1524343178329,99103163024561,1.0964355,1.4037018,-0.86987305
android.sensor.gyroscope,1524343178348,99103182281153,1.5448151,1.437912,-0.31765747
android.sensor.gyroscope,1524343178367,99103201537745,1.566803,1.3438263,-0.15760803
android.sensor.gyroscope,1524343178389,99103220763819,1.1721802,1.6248322,-0.41539
android.sensor.gyroscope,1524343178406,99103240020411,0.47946167,2.0780945,-0.6487427
android.sensor.gyroscope,1524343178424,99103259277003,-0.2071228,2.289444,-0.72447205
android.sensor.gyroscope,1524343178444,99103278533594,-0.62861633,2.1232758,-0.725708
android.sensor.gyroscope,1524343178462,99103297759669,-0.48199463,1.8508453,-0.86743164
android.sensor.gyroscope,1524343178482,99103317016260,0.24736023,1.3731384,-1.1569672
android.sensor.gyroscope,1524343178505,99103336272852,0.9302826,0.84536743,-1.0531311
android.sensor.gyroscope,1524343178522,99103355529444,1.1306458,0.49105835,-0.5558777
android.sensor.gyroscope,1524343178539,99103374786036,0.82522583,0.40919495,-0.102630615
android.sensor.gyroscope,1524343178559,99103394042628,0.2876587,0.7500763,0.04396057
android.sensor.gyroscope,1524343178578,99103413299219,-0.1411438,1.0848236,-0.05619812
android.sensor.gyroscope,1524343178598,99103432555811,-0.20588684,1.009079,-0.3090973
android.sensor.gyroscope,1524343178618,99103451781885,0.14593506,0.6730957,-0.53634644
android.sensor.gyroscope,1524343178638,99103471038477,0.5319977,0.46417236,-0.56199646
android.sensor.gyroscope,1524343178655,99103490295069,0.59065247,0.5814667,-0.3433075
android.sensor.gyroscope,1524343178675,99103509551661,0.31454468,0.93699646,-0.13806152
android.sensor.gyroscope,1524343178695,99103528777735,0.024993896,1.3132782,-0.17225647
android.sensor.gyroscope,1524343178715,99103548034327,0.005432129,1.319397,-0.24311829
android.sensor.gyroscope,1524343178737,99103567290919,0.22779846,1.087265,-0.2345581
android.sensor.gyroscope,1524343178756,99103586547510,0.47946167,0.76960754,-0.21624756
android.sensor.gyroscope,1524343178771,99103605804102,0.63952637,0.73539734,-0.2773285
android.sensor.gyroscope,1524343178792,99103625030177,0.55033875,1.0958252,-0.40560913
android.sensor.gyroscope,1524343178814,99103644286768,0.3047638,1.8239594,-0.44104004
android.sensor.gyroscope,1524343178828,99103663573878,0.15205383,2.4617157,-0.33718872
android.sensor.gyroscope,1524343178847,99103682830469,0.104400635,2.3871765,-0.15026855
android.sensor.gyroscope,1524343178867,99103702056544,-0.1105957,1.178894,-0.0647583
android.sensor.gyroscope,1524343178886,99103721313135,-0.16679382,0.3774414,-0.11605835
