Sensor, CurrentTimeMs, SensorTimestampNano, X, Y, Z
android.sensor.gyroscope,1524343192275,99117101006328,-0.19244385,0.017028809,0.012207031
android.sensor.gyroscope,1524343192293,99117120293437,-0.13137817,-0.0256958,0.028076172
android.sensor.gyroscope,1524343192306,99117139550029,-0.095947266,-0.084350586,0.024414062
android.sensor.gyroscope,1524343192323,99117158776103,-0.1399231,-0.08679199,0.0146484375
android.sensor.gyroscope,1524343192343,99117178032695,-0.21076965,-0.012283325,-3.0517578E-5
android.sensor.gyroscope,1524343192363,99117197289287,-0.25109863,0.103775024,-0.0073547363
android.sensor.gyroscope,1524343192382,99117216545879,-0.19735718,0.084228516,0.018310547
android.sensor.gyroscope,1524343192401,99117235802471,-0.09350586,-0.063583374,0.06350708
android.sensor.gyroscope,1524343192420,99117255028545,-0.091049194,-0.14421082,0.06350708
android.sensor.gyroscope,1524343192442,99117274285137,-0.18023682,-0.091674805,0.026855469
android.sensor.gyroscope,1524343192458,99117293541728,-0.26330566,0.02558899,-0.012237549
android.sensor.gyroscope,1524343192478,99117312798320,-0.28163147,0.15020752,-0.018356323
android.sensor.gyroscope,1524343192499,99117332054912,-0.1912384,0.15020752,-3.0517578E-5
android.sensor.gyroscope,1524343192516,99117351280986,-0.12159729,0.028030396,0.01953125
android.sensor.gyroscope,1524343192537,99117370537578,-0.175354,-0.088012695,0.02319336
android.sensor.gyroscope,1524343192554,99117389824687,-0.32196045,-0.1515503,0.03173828
android.sensor.gyroscope,1524343192573,99117409081279,-0.472229,-0.084350586,0.08427429
android.sensor.gyroscope,1524343192592,99117428307353,-0.6579437,0.10255432,0.14291382
android.sensor.gyroscope,1524343192611,99117447563945,-0.94625854,0.3774414,0.12214661
android.sensor.gyroscope,1524343192640,99117466820537,-1.2712402,0.52282715,-0.05619812
android.sensor.gyroscope,1524343192652,99117486077129,-1.4117279,0.20394897,-0.4581604
android.sensor.gyroscope,1524343192670,99117505303203,-1.2700195,-0.26638794,-1.0164642
android.sensor.gyroscope,1524343192689,99117524559795,-0.98291016,-0.4875183,-1.5821381
android.sensor.gyroscope,1524343192708,99117543816387,-0.5467682,-0.8858032,-2.0537262
android.sensor.gyroscope,1524343192727,99117563072978,-0.25598145,-1.214447,-2.3359375
android.sensor.gyroscope,1524343192747,99117582299053,-0.011642456,-0.97010803,-2.499649
android.sensor.gyroscope,1524343192772,99117601555645,0.676178,-0.64878845,-2.6425934
android.sensor.gyroscope,1524343192785,99117620812236,1.8465729,-0.56814575,-2.862503
android.sensor.gyroscope,1524343192805,99117640068828,3.1135101,-0.4801941,-3.072647
android.sensor.gyroscope,1524343192829,99117659325420,4.140991,0.07078552,-3.055542
android.sensor.gyroscope,1524343192844,99117678582012,5.263748,1.0335083,-2.7085724
android.sensor.gyroscope,1524343192864,99117697838603,6.86911,1.9937897,-2.1050415
android.sensor.gyroscope,1524343192881,99117717095195,8.65892,2.172165,-1.5039368
android.sensor.gyroscope,1524343192901,99117736351787,10.332687,1.7848663,-1.2510376
android.sensor.gyroscope,1524343192920,99117755577861,11.947815,1.6626892,-1.3732147
android.sensor.gyroscope,1524343192939,99117774834453,13.377228,1.5380859,-1.4049835
android.sensor.gyroscope,1524343192958,99117794091045,13.8598175,2.4458313,-0.5192261
android.sensor.gyroscope,1524343192977,99117813347637,12.542786,4.4250183,1.3377686
android.sensor.gyroscope,1524343192998,99117832573711,10.271591,6.5214996,2.9492188
android.sensor.gyroscope,1524343193017,99117851830303,8.871506,7.0639496,3.77388
android.sensor.gyroscope,1524343193036,99117871086895,8.4487915,5.125061,4.233261
android.sensor.gyroscope,1524343193056,99117890343486,8.645493,1.3658142,4.675522
android.sensor.gyroscope,1524343193075,99117909569561,7.991852,0.045135498,4.9516296
android.sensor.gyroscope,1524343193097,99117928826152,6.7860107,1.2497559,4.478821
android.sensor.gyroscope,1524343193117,99117948082744,5.422577,2.3444214,3.8716278
android.sensor.gyroscope,1524343193131,99117967369853,4.1788483,1.8984985,3.7213593
android.sensor.gyroscope,1524343193151,99117986626445,3.035324,0.28337097,3.9033966
android.sensor.gyroscope,1524343193170,99118005852520,1.2931366,-0.19920349,3.9485931
android.sensor.gyroscope,1524343193192,99118025109111,-1.2675781,0.9492035,3.7152405
android.sensor.gyroscope,1524343193208,99118044365703,-3.671936,2.525238,3.3621826
android.sensor.gyroscope,1524343193228,99118063622295,-5.342041,3.2179565,2.8905945
android.sensor.gyroscope,1524343193248,99118082848369,-6.5161133,2.311432,2.4886322
android.sensor.gyroscope,1524343193266,99118102104961,-7.609543,0.86735535,2.467865
android.sensor.gyroscope,1524343193285,99118121361553,-8.380463,0.7158661,2.9162445
android.sensor.gyroscope,1524343193306,99118140618145,-8.997421,1.7567749,3.2766418
android.sensor.gyroscope,1524343193324,99118159844219,-9.801331,2.2833405,3.2790833
android.sensor.gyroscope,1524343193344,99118179100811,-10.518494,1.3377228,3.1471405
android.sensor.gyroscope,1524343193365,99118198357402,-10.921661,0.32002258,3.2351074
android.sensor.gyroscope,1524343193382,99118217613994,-11.029175,0.45928955,3.8569794
android.sensor.gyroscope,1524343193408,99118236840068,-10.734741,0.83680725,4.9015503
android.sensor.gyroscope,1524343193421,99118256127178,-9.762238,0.6828613,5.9253387
android.sensor.gyroscope,1524343193443,99118275383770,-8.2326355,-0.17842102,6.4983215
android.sensor.gyroscope,1524343193459,99118294640361,-6.783661,-0.74897766,6.6828156
android.sensor.gyroscope,1524343193481,99118313896953,-5.7537537,0.42507935,7.117752
android.sensor.gyroscope,1524343193497,99118333123027,-4.8325653,2.594864,8.189194
android.sensor.gyroscope,1524343193522,99118352379619,-3.346939,3.3413544,9.393829
android.sensor.gyroscope,1524343193538,99118371636211,-1.0391235,2.9638367,9.893509
android.sensor.gyroscope,1524343193555,99118390892803,0.80934143,4.0951385,10.250259
android.sensor.gyroscope,1524343193576,99118410118877,1.4250793,5.7982483,11.26796
android.sensor.gyroscope,1524343193595,99118429375469,0.96817017,7.577072,12.747467
android.sensor.gyroscope,1524343193614,99118448632061,0.21191406,9.606354,13.54892
android.sensor.gyroscope,1524343193633,99118467888652,0.54055786,9.544052,12.446915
android.sensor.gyroscope,1524343193652,99118487114727,3.1794891,5.0102234,9.205673
android.sensor.gyroscope,1524343193671,99118506371318,5.6070557,-0.41177368,6.5691986
android.sensor.gyroscope,1524343193690,99118525627910,5.688919,-0.67323303,6.422592
android.sensor.gyroscope,1524343193711,99118544915020,4.9705353,1.385376,7.7884674
android.sensor.gyroscope,1524343193728,99118564141094,5.211212,0.53382874,8.493423
android.sensor.gyroscope,1524343193749,99118583397686,6.1409454,-1.8973999,6.991913
android.sensor.gyroscope,1524343193768,99118602654277,6.6699524,-3.3683472,4.2931213
android.sensor.gyroscope,1524343193786,99118621910869,6.0578766,-2.9871674,2.5753632
android.sensor.gyroscope,1524343193806,99118641167461,4.7726135,-1.7483368,1.9302979
android.sensor.gyroscope,1524343193825,99118660393535,3.5960999,-1.1545868,1.5943298
android.sensor.gyroscope,1524343193845,99118679650127,3.074417,-1.458786,1.3463135
android.sensor.gyroscope,1524343193863,99118698906719,2.95224,-1.6933594,1.0421143
android.sensor.gyroscope,1524343193884,99118718163311,2.283966,-0.865036,0.69148254
android.sensor.gyroscope,1524343193902,99118737389385,1.2980347,-0.26516724,0.42269897
android.sensor.gyroscope,1524343193923,99118756645977,0.5637665,-0.061141968,0.04762268
android.sensor.gyroscope,1524343193940,99118775902568,0.12150574,-0.22729492,-0.24311829
android.sensor.gyroscope,1524343193960,99118795159160,-0.0055389404,-0.74409485,-0.3652954
android.sensor.gyroscope,1524343193981,99118814385234,0.05064392,-1.1203766,-0.38974
android.sensor.gyroscope,1524343194000,99118833672344,0.100738525,-1.0849457,-0.42271423
android.sensor.gyroscope,1524343194018,99118852928936,-0.0067749023,-0.9737549,-0.6572876
android.sensor.gyroscope,1524343194038,99118872185527,-0.038528442,-0.7758484,-0.9786072
android.sensor.gyroscope,1524343194057,99118891411602,0.20703125,-0.7587433,-0.9724884
android.sensor.gyroscope,1524343194077,99118910668193,0.6163025,-0.91877747,-0.7232666
android.sensor.gyroscope,1524343194095,99118929924785,0.6810608,-0.78074646,-0.76968384
android.sensor.gyroscope,1524343194115,99118949181377,0.11172485,-0.3848877,-0.634079
android.sensor.gyroscope,1524343194134,99118968437969,-0.46858215,0.34812927,-0.18569946
android.sensor.gyroscope,1524343194156,99118987664043,-0.7251282,0.6657715,0.16856384
android.sensor.gyroscope,1524343194172,99119006920635,-0.69947815,0.56803894,0.21989441
android.sensor.gyroscope,1524343194192,99119026177227,-0.63227844,0.39942932,0.06472778
android.sensor.gyroscope,1524343194211,99119045433818,-0.48934937,0.024368286,-0.12339783
android.sensor.gyroscope,1524343194231,99119064659893,-0.1387024,-0.6609955,-0.3164215
android.sensor.gyroscope,1524343194250,99119083916484,0.19482422,-1.160675,-0.42027283
android.sensor.gyroscope,1524343194270,99119103173076,0.24736023,-0.8222809,-0.29444885
android.sensor.gyroscope,1524343194287,99119122460186,0.01399231,0.07444763,0.05128479
android.sensor.gyroscope,1524343194306,99119141686260,-0.18511963,0.7415161,0.21989441
android.sensor.gyroscope,1524343194328,99119160942852,0.23635864,0.92355347,0.046401978
android.sensor.gyroscope,1524343194345,99119180199443,0.40615845,0.035354614,-0.15394592
android.sensor.gyroscope,1524343194364,99119199456035,0.021316528,-0.30059814,-0.26023865
android.sensor.gyroscope,1524343194383,99119218712627,-0.45022583,0.031707764,-0.22358704
android.sensor.gyroscope,1524343194402,99119237938701,-0.6237335,0.26382446,-0.21990967
android.sensor.gyroscope,1524343194422,99119257195293,-0.37815857,0.16609192,-0.30665588
