Sensor, CurrentTimeMs, SensorTimestampNano, X, Y, Z
android.sensor.accelerometer,1524343176564,99101391906397,4.922043,7.709671,3.1369934
android.sensor.accelerometer,1524343176576,99101411162989,5.2881317,7.767105,2.8187408
android.sensor.accelerometer,1524343176595,99101430389063,5.314453,7.795822,2.864212
android.sensor.accelerometer,1524343176614,99101449645655,5.252243,7.8269196,3.0867462
android.sensor.accelerometer,1524343176634,99101468902247,4.9746857,7.757538,3.3882294
android.sensor.accelerometer,1524343176654,99101488158839,4.9507446,7.6211395,3.3595276
android.sensor.accelerometer,1524343176672,99101507384913,5.235489,7.6546326,3.0843506
android.sensor.accelerometer,1524343176692,99101526641505,5.235489,7.7455597,3.048462
android.sensor.accelerometer,1524343176711,99101545898096,5.252243,7.8436737,2.7302094
android.sensor.accelerometer,1524343176730,99101565154688,5.067993,7.728821,2.8330994
android.sensor.accelerometer,1524343176750,99101584380762,5.017746,7.652252,3.0891266
android.sensor.accelerometer,1524343176770,99101603637354,4.97229,7.6857452,2.7996063
android.sensor.accelerometer,1524343176788,99101622893946,5.3862457,7.9130707,2.622528
android.sensor.accelerometer,1524343176808,99101642150538,5.54895,8.035095,2.8426666
android.sensor.accelerometer,1524343176827,99101661437647,5.067993,7.8101807,2.9024963
android.sensor.accelerometer,1524343176846,99101680663721,4.795212,7.4895325,3.213562
android.sensor.accelerometer,1524343176865,99101699920313,4.6301117,7.2263184,3.156128
android.sensor.accelerometer,1524343176885,99101719176905,4.9076843,7.056427,3.1202393
android.sensor.accelerometer,1524343176905,99101738433497,5.2498474,6.7908325,3.048462
android.sensor.accelerometer,1524343176922,99101757659571,5.852844,6.250046,2.9479523
android.sensor.accelerometer,1524343176941,99101776916163,6.4630127,5.3240356,2.342575
android.sensor.accelerometer,1524343176961,99101796172755,7.2646027,4.031906,0.42114258
android.sensor.accelerometer,1524343176980,99101815429346,8.066208,2.490921,-1.4428711
android.sensor.accelerometer,1524343176999,99101834655421,8.334198,0.8422699,-2.3976135
android.sensor.accelerometer,1524343177018,99101853912012,9.707687,-0.447464,-4.7760773
android.sensor.accelerometer,1524343177037,99101873168604,10.133606,-3.345169,-8.705093
android.sensor.accelerometer,1524343177058,99101892425196,10.8059845,-6.8602295,-13.019348
android.sensor.accelerometer,1524343177076,99101911651270,16.022339,-8.793625,-16.06781
android.sensor.accelerometer,1524343177099,99101930907862,20.726624,-9.832108,-20.578278
android.sensor.accelerometer,1524343177117,99101950194971,24.981064,-10.042679,-22.470993
android.sensor.accelerometer,1524343177134,99101969451563,31.13301,-11.791824,-23.25824
android.sensor.accelerometer,1524343177158,99101988677637,40.780884,-13.409378,-21.796219
android.sensor.accelerometer,1524343177174,99102007934229,47.081177,-16.914871,-13.56012
android.sensor.accelerometer,1524343177193,99102027190821,46.10013,-24.5719,0.110076904
android.sensor.accelerometer,1524343177212,99102046447413,39.617966,-28.378876,23.822937
android.sensor.accelerometer,1524343177232,99102065704005,29.98207,-26.22055,31.41298
android.sensor.accelerometer,1524343177251,99102084930079,18.668808,-25.299316,17.393433
android.sensor.accelerometer,1524343177268,99102104186671,12.835098,-28.122849,12.92363
android.sensor.accelerometer,1524343177289,99102123443262,7.4201508,-26.591446,25.301712
android.sensor.accelerometer,1524343177307,99102142699854,6.2404785,-19.987244,40.89334
android.sensor.accelerometer,1524343177327,99102161925928,7.8723907,-14.048264,36.85904
android.sensor.accelerometer,1524343177351,99102181182520,5.0392914,-12.725037,27.716064
android.sensor.accelerometer,1524343177364,99102200439112,-0.45224,-11.889938,22.616959
android.sensor.accelerometer,1524343177385,99102219695704,-4.5966187,-10.858627,24.268005
android.sensor.accelerometer,1524343177403,99102238952296,-5.682953,-10.408783,26.132019
android.sensor.accelerometer,1524343177423,99102258208887,-4.6707916,-11.861221,26.395233
android.sensor.accelerometer,1524343177442,99102277465479,-4.118042,-13.083954,24.775284
android.sensor.accelerometer,1524343177465,99102296722071,-3.4049835,-15.90509,23.502304
android.sensor.accelerometer,1524343177483,99102315948145,-2.5028992,-21.154938,24.772888
android.sensor.accelerometer,1524343177499,99102335204737,0.67237854,-26.043488,27.732819
android.sensor.accelerometer,1524343177519,99102354461329,7.3746796,-29.254654,29.986862
android.sensor.accelerometer,1524343177539,99102373717921,14.641678,-33.674194,20.071
android.sensor.accelerometer,1524343177558,99102392943995,20.908478,-36.13881,13.062424
android.sensor.accelerometer,1524343177578,99102412200587,30.092133,-38.21817,16.8694
android.sensor.accelerometer,1524343177598,99102431457178,46.951965,-37.67978,15.361923
android.sensor.accelerometer,1524343177616,99102450713770,51.869217,-33.626343,5.8217316
android.sensor.accelerometer,1524343177635,99102469970362,45.454056,-29.388641,1.964508
android.sensor.accelerometer,1524343177654,99102489196436,51.369125,-24.851852,6.0801697
android.sensor.accelerometer,1524343177674,99102508453028,51.282974,-20.477783,0.72502136
android.sensor.accelerometer,1524343177694,99102527740137,44.195435,-17.869598,-7.757538
android.sensor.accelerometer,1524343177714,99102546996729,35.282166,-16.000809,-7.709671
android.sensor.accelerometer,1524343177730,99102566222803,28.496124,-14.443085,-7.3579254
android.sensor.accelerometer,1524343177750,99102585479395,23.11467,-13.220352,-10.674377
android.sensor.accelerometer,1524343177769,99102604735987,18.924835,-11.782257,-12.985855
android.sensor.accelerometer,1524343177790,99102623992579,17.642288,-10.25325,-14.342575
android.sensor.accelerometer,1524343177810,99102643218653,15.615555,-8.638092,-16.08934
android.sensor.accelerometer,1524343177828,99102662475245,13.495514,-9.207581,-15.603592
android.sensor.accelerometer,1524343177846,99102681731837,13.296921,-10.95195,-11.574081
android.sensor.accelerometer,1524343177866,99102700988428,13.275375,-13.890335,-8.798416
android.sensor.accelerometer,1524343177886,99102720214503,14.605789,-16.421936,-6.994217
android.sensor.accelerometer,1524343177904,99102739471094,16.146774,-19.573288,-6.898514
android.sensor.accelerometer,1524343177924,99102758727686,14.397614,-23.533417,-9.607178
android.sensor.accelerometer,1524343177945,99102777984278,13.328018,-28.331024,-9.415756
android.sensor.accelerometer,1524343177963,99102797271387,10.688736,-33.104706,-1.9166565
android.sensor.accelerometer,1524343177983,99102816497462,8.645264,-36.196228,4.1276245
android.sensor.accelerometer,1524343178002,99102835754053,7.5134583,-38.39763,5.790634
android.sensor.accelerometer,1524343178023,99102855010645,7.5014954,-40.694733,6.2644043
android.sensor.accelerometer,1524343178039,99102874267237,8.764908,-42.910492,9.229111
android.sensor.accelerometer,1524343178060,99102893493311,8.427521,-43.14499,21.796219
android.sensor.accelerometer,1524343178077,99102912749903,5.13739,-36.935608,44.908493
android.sensor.accelerometer,1524343178098,99102932006495,3.8620148,-23.758331,56.18109
android.sensor.accelerometer,1524343178116,99102951263087,5.4628143,-14.617752,43.06842
android.sensor.accelerometer,1524343178135,99102970489161,4.926819,-10.21257,30.728622
android.sensor.accelerometer,1524343178156,99102989745753,2.691925,-8.087738,21.63829
android.sensor.accelerometer,1524343178174,99103009002344,1.0983124,-6.12323,15.168106
android.sensor.accelerometer,1524343178194,99103028258936,0.5886383,-4.199402,9.999603
android.sensor.accelerometer,1524343178213,99103047485010,1.0480499,-2.6679993,7.1617126
android.sensor.accelerometer,1524343178234,99103066741602,1.2418823,-1.6582336,5.8576355
android.sensor.accelerometer,1524343178252,99103086028712,1.7132568,-1.2562256,4.6133575
android.sensor.accelerometer,1524343178272,99103105285303,2.7804565,-0.9714813,3.9338074
android.sensor.accelerometer,1524343178290,99103124511378,4.2520447,-0.93559265,7.831711
android.sensor.accelerometer,1524343178309,99103143767969,4.9004974,-1.1533356,9.755539
android.sensor.accelerometer,1524343178329,99103163024561,6.6759796,-0.5479584,8.047058
android.sensor.accelerometer,1524343178347,99103182281153,8.563919,1.277771,7.6713867
android.sensor.accelerometer,1524343178367,99103201537745,9.102295,1.5003052,4.5104675
android.sensor.accelerometer,1524343178389,99103220763819,7.7742767,1.799408,3.2662048
android.sensor.accelerometer,1524343178406,99103240020411,6.467804,1.4452667,3.7615204
android.sensor.accelerometer,1524343178424,99103259277003,5.30249,1.3591309,5.831314
android.sensor.accelerometer,1524343178444,99103278533594,4.7330017,0.9786682,8.958725
android.sensor.accelerometer,1524343178462,99103297759669,4.709076,0.23210144,11.34198
android.sensor.accelerometer,1524343178482,99103317016260,3.5078735,0.31585693,10.214966
android.sensor.accelerometer,1524343178504,99103336272852,3.156128,0.7465668,8.317459
android.sensor.accelerometer,1524343178522,99103355529444,3.8979034,1.5170441,6.4941254
android.sensor.accelerometer,1524343178539,99103374786036,4.6301117,2.0650024,5.292923
android.sensor.accelerometer,1524343178559,99103394042628,4.955536,2.3593292,6.30748
android.sensor.accelerometer,1524343178578,99103413299219,4.9531403,2.148758,8.910873
android.sensor.accelerometer,1524343178598,99103432555811,4.4865417,1.6869354,10.41835
android.sensor.accelerometer,1524343178618,99103451781885,4.0989075,1.5744781,9.815353
android.sensor.accelerometer,1524343178638,99103471038477,3.8620148,1.8759766,8.159531
android.sensor.accelerometer,1524343178655,99103490295069,4.051056,2.096115,7.274185
android.sensor.accelerometer,1524343178674,99103509551661,4.101303,2.1176453,7.5350037
android.sensor.accelerometer,1524343178695,99103528777735,3.7112732,2.074585,9.274582
android.sensor.accelerometer,1524343178715,99103548034327,3.1322021,1.6678009,9.772293
android.sensor.accelerometer,1524343178737,99103567290919,3.0149536,1.6223297,9.865616
android.sensor.accelerometer,1524343178756,99103586547510,3.2996979,1.7563324,9.439682
android.sensor.accelerometer,1524343178771,99103605804102,3.2494507,1.9860382,8.803192
android.sensor.accelerometer,1524343178792,99103625030177,3.0843506,2.0362854,8.221741
android.sensor.accelerometer,1524343178814,99103644286768,2.285141,1.976471,8.659622
android.sensor.accelerometer,1524343178828,99103663573878,0.87338257,1.9429779,7.3459625
android.sensor.accelerometer,1524343178847,99103682830469,0.110076904,2.909668,8.824738
android.sensor.accelerometer,1524343178866,99103702056544,1.2801666,2.950348,9.406189
android.sensor.accelerometer,1524343178885,99103721313135,1.3088684,2.244461,11.255844
