Sensor, CurrentTimeMs, SensorTimestampNano, X, Y, Z
android.sensor.gyroscope,1524343235045,99159877799181,-0.11427307,0.047576904,0.030517578
android.sensor.gyroscope,1524343235061,99159897055773,-0.07518005,-0.0256958,0.012207031
android.sensor.gyroscope,1524343235080,99159916312365,-0.01776123,-0.096572876,-0.022003174
android.sensor.gyroscope,1524343235100,99159935538439,0.0042266846,-0.11122131,-0.028121948
android.sensor.gyroscope,1524343235130,99159954795031,-0.023849487,-0.09779358,0.008529663
android.sensor.gyroscope,1524343235139,99159974051623,-0.036087036,-0.02204895,0.037857056
android.sensor.gyroscope,1524343235157,99159993308214,-0.012878418,0.07324219,0.04273987
android.sensor.gyroscope,1524343235179,99160012534289,0.029876709,0.11721802,0.05128479
android.sensor.gyroscope,1524343235197,99160031821398,0.04576111,0.087890625,0.06472778
android.sensor.gyroscope,1524343235216,99160051077990,0.03843689,0.039031982,0.058624268
android.sensor.gyroscope,1524343235235,99160070334582,0.0262146,0.01826477,0.052520752
android.sensor.gyroscope,1524343235254,99160089591173,0.02255249,0.021911621,0.05618286
android.sensor.gyroscope,1524343235274,99160108817248,0.016433716,0.047576904,0.04762268
android.sensor.gyroscope,1524343235293,99160128073839,0.020111084,0.045135498,0.04273987
android.sensor.gyroscope,1524343235312,99160147330431,0.04576111,0.014587402,0.053741455
android.sensor.gyroscope,1524343235331,99160166587023,0.06530762,0.023147583,0.05496216
android.sensor.gyroscope,1524343235351,99160185813097,0.044540405,0.028030396,0.046401978
android.sensor.gyroscope,1524343235370,99160205069689,-6.5612793E-4,0.008483887,0.05496216
android.sensor.gyroscope,1524343235402,99160224326281,-0.02508545,-0.019607544,0.052520752
android.sensor.gyroscope,1524343235408,99160243582873,0.0017852783,-0.042816162,0.034179688
android.sensor.gyroscope,1524343235427,99160262808947,0.053085327,-0.0415802,0.0146484375
android.sensor.gyroscope,1524343235446,99160282065539,0.043319702,-0.009841919,0.006088257
android.sensor.gyroscope,1524343235465,99160301322130,-0.04096985,0.06712341,0.029296875
android.sensor.gyroscope,1524343235485,99160320609240,-0.13014221,0.13308716,0.06838989
android.sensor.gyroscope,1524343235505,99160339835314,-0.1387024,0.100112915,0.09649658
android.sensor.gyroscope,1524343235523,99160359091906,-0.044631958,0.012145996,0.101379395
android.sensor.gyroscope,1524343235543,99160378348498,0.07141113,-0.03793335,0.069610596
android.sensor.gyroscope,1524343235563,99160397605089,0.09463501,-0.026931763,0.02319336
android.sensor.gyroscope,1524343235590,99160416861681,0.020111084,0.051239014,0.018310547
android.sensor.gyroscope,1524343235601,99160436087755,-0.059295654,0.09767151,0.05618286
android.sensor.gyroscope,1524343235622,99160455344347,-0.07762146,0.059799194,0.08061218
android.sensor.gyroscope,1524343235641,99160474600939,-0.028747559,-0.0061798096,0.08061218
android.sensor.gyroscope,1524343235659,99160493857531,0.033554077,-0.029373169,0.072052
android.sensor.gyroscope,1524343235678,99160513083605,0.032318115,-0.015930176,0.05496216
android.sensor.gyroscope,1524343235698,99160532340197,-0.04585266,0.014587402,0.048843384
android.sensor.gyroscope,1524343235721,99160551596789,-0.1277008,0.04147339,0.05618286
android.sensor.gyroscope,1524343235736,99160570853380,-0.115493774,0.023147583,0.045181274
android.sensor.gyroscope,1524343235754,99160590079455,-0.036087036,-0.009841919,0.021972656
android.sensor.gyroscope,1524343235775,99160609366564,0.017669678,-0.0025024414,0.008529663
android.sensor.gyroscope,1524343235794,99160628623156,0.006668091,0.026809692,0.012207031
android.sensor.gyroscope,1524343235813,99160647879748,-0.01776123,0.057357788,0.041519165
android.sensor.gyroscope,1524343235834,99160667105822,-0.028747559,0.03779602,0.037857056
android.sensor.gyroscope,1524343235852,99160686362414,-0.0055389404,0.017028809,0.02319336
android.sensor.gyroscope,1524343235870,99160705619005,0.033554077,0.028030396,0.029296875
android.sensor.gyroscope,1524343235893,99160724875597,0.061645508,0.040237427,0.07817078
android.sensor.gyroscope,1524343235909,99160744132189,0.097076416,0.039031982,0.24066162
android.sensor.gyroscope,1524343235930,99160763358263,0.15081787,0.0072631836,0.5546417
android.sensor.gyroscope,1524343235948,99160782614855,0.13739014,0.06956482,0.98835754
android.sensor.gyroscope,1524343235966,99160801871447,-0.1423645,0.19418335,1.62854
android.sensor.gyroscope,1524343235985,99160821128039,-0.41358948,0.55947876,1.9412994
android.sensor.gyroscope,1524343236004,99160840354113,-0.485672,1.3829346,0.7916565
android.sensor.gyroscope,1524343236024,99160859610705,-0.35617065,2.0683136,-1.3316803
android.sensor.gyroscope,1524343236045,99160878867297,-0.17901611,1.7396698,-3.0579834
android.sensor.gyroscope,1524343236063,99160898154406,0.23147583,-0.22850037,-4.142868
android.sensor.gyroscope,1524343236085,99160917380480,1.3627777,-3.671341,-4.288254
android.sensor.gyroscope,1524343236102,99160936637072,3.3028717,-5.4513855,-4.21373
android.sensor.gyroscope,1524343236121,99160955893664,5.2063293,-2.0659943,-4.1599884
android.sensor.gyroscope,1524343236140,99160975150255,3.7720184,-0.17964172,-2.5363007
android.sensor.gyroscope,1524343236160,99160994406847,0.82766724,1.9754639,0.24310303
android.sensor.gyroscope,1524343236178,99161013632922,-1.3726349,2.9186249,2.2601624
android.sensor.gyroscope,1524343236197,99161032889513,-2.2620544,2.199051,3.5063324
android.sensor.gyroscope,1524343236216,99161052146105,-2.2425232,1.38414,4.10376
android.sensor.gyroscope,1524343236237,99161071402697,-2.1325684,0.91378784,4.3798676
android.sensor.gyroscope,1524343236256,99161090628771,-2.3072662,1.0127411,3.7421265
android.sensor.gyroscope,1524343236275,99161109885363,-2.5674896,2.1342773,2.0109406
android.sensor.gyroscope,1524343236295,99161129141955,-2.8594818,2.9809418,0.10870361
android.sensor.gyroscope,1524343236314,99161148398547,-2.6750183,2.713379,-1.3683319
android.sensor.gyroscope,1524343236335,99161167655138,-1.6988373,1.707901,-2.4165802
android.sensor.gyroscope,1524343236354,99161186911730,0.016433716,0.10133362,-3.1899261
android.sensor.gyroscope,1524343236372,99161206168322,2.1825714,-1.341507,-3.400055
android.sensor.gyroscope,1524343236390,99161225424914,3.5521088,-1.4258118,-3.369522
android.sensor.gyroscope,1524343236412,99161244650988,2.424469,-0.9334564,-2.7623138
android.sensor.gyroscope,1524343236430,99161263907580,0.6334076,-0.020812988,-0.8136749
android.sensor.gyroscope,1524343236450,99161283164172,-0.6897125,-0.54981995,1.3072205
android.sensor.gyroscope,1524343236468,99161302420763,-1.2773438,-0.8320465,3.2619934
android.sensor.gyroscope,1524343236487,99161321677355,-1.1014252,-0.61213684,3.7983246
android.sensor.gyroscope,1524343236506,99161340903429,-0.59562683,-0.59991455,3.3743896
android.sensor.gyroscope,1524343236526,99161360160021,-0.2388916,-0.4007721,2.0830078
android.sensor.gyroscope,1524343236545,99161379416613,-0.059295654,0.21250916,0.058624268
android.sensor.gyroscope,1524343236566,99161398673205,-0.23277283,0.60346985,-1.4440765
android.sensor.gyroscope,1524343236583,99161417899279,-0.60295105,0.86125183,-2.25531
android.sensor.gyroscope,1524343236601,99161437155871,-0.2388916,0.32002258,-2.8258514
android.sensor.gyroscope,1524343236622,99161456442980,1.13797,-0.9786682,-2.937027
android.sensor.gyroscope,1524343236640,99161475699572,2.6174774,-0.8149414,-2.228424
android.sensor.gyroscope,1524343236659,99161494925646,2.567398,-0.35557556,-0.88697815
android.sensor.gyroscope,1524343236679,99161514182238,0.6859436,-0.28103638,1.3670807
android.sensor.gyroscope,1524343236698,99161533438830,-0.8900604,0.13920593,2.974884
android.sensor.gyroscope,1524343236718,99161552695422,-1.5485687,0.24916077,3.2070007
android.sensor.gyroscope,1524343236738,99161571921496,-1.4544983,-0.18696594,2.974884
android.sensor.gyroscope,1524343236756,99161591178088,-0.7984314,-0.7342987,2.3982391
android.sensor.gyroscope,1524343236779,99161610434679,0.11172485,-0.7208557,1.2107086
android.sensor.gyroscope,1524343236794,99161629691271,0.60043335,0.013381958,-0.547348
android.sensor.gyroscope,1524343236814,99161648947863,0.20458984,0.5961304,-2.2064514
android.sensor.gyroscope,1524343236833,99161668173937,-0.34394836,1.0652771,-3.2143707
android.sensor.gyroscope,1524343236853,99161687430529,0.19114685,0.46540833,-3.574768
android.sensor.gyroscope,1524343236872,99161706687121,1.8539124,-0.8063965,-2.8893738
android.sensor.gyroscope,1524343236891,99161725943713,2.6101532,-1.0397339,-1.3524475
android.sensor.gyroscope,1524343236910,99161745200304,1.322464,-0.38856506,0.82218933
android.sensor.gyroscope,1524343236932,99161764456896,-0.44169617,0.38842773,2.6767883
android.sensor.gyroscope,1524343236950,99161783713488,-1.3066711,0.57536316,3.1471405
android.sensor.gyroscope,1524343236967,99161802970080,-1.3970795,0.50083923,2.9382324
android.sensor.gyroscope,1524343236988,99161822196154,-0.94869995,0.28459167,2.1135712
android.sensor.gyroscope,1524343237007,99161841452746,-0.19244385,0.28215027,0.4935608
android.sensor.gyroscope,1524343237025,99161860709338,0.13983154,0.52038574,-1.3023682
android.sensor.gyroscope,1524343237048,99161879965929,-0.4013672,0.9101105,-2.7158966
android.sensor.gyroscope,1524343237064,99161899192004,-1.0256805,1.3438263,-3.4281769
android.sensor.gyroscope,1524343237084,99161918448595,-0.48934937,0.8270416,-3.330429
android.sensor.gyroscope,1524343237104,99161937705187,1.0341339,-0.2199707,-2.3774872
android.sensor.gyroscope,1524343237122,99161956961779,2.1410065,-0.39222717,-1.1313171
android.sensor.gyroscope,1524343237141,99161976218371,1.6071167,-0.69644165,0.24310303
android.sensor.gyroscope,1524343237161,99161995444445,-0.1387024,-0.9261322,2.1428986
android.sensor.gyroscope,1524343237180,99162014701037,-1.2993469,-0.5241699,3.0640717
android.sensor.gyroscope,1524343237198,99162033988146,-1.6182098,-0.29083252,2.90036
android.sensor.gyroscope,1524343237219,99162053244738,-1.0256805,-0.32746887,1.9865112
android.sensor.gyroscope,1524343237238,99162072470812,0.13616943,-0.29692078,0.4300232
android.sensor.gyroscope,1524343237258,99162091727404,1.1245422,-0.1063385,-1.334137
android.sensor.gyroscope,1524343237279,99162110983996,0.98526,-0.119781494,-2.4666748
android.sensor.gyroscope,1524343237297,99162130240588,0.22291565,0.3383484,-3.0579834
android.sensor.gyroscope,1524343237316,99162149466662,0.21559143,0.28703308,-2.5155334
android.sensor.gyroscope,1524343237335,99162168723254,0.5943146,-0.27983093,-0.7281494
android.sensor.gyroscope,1524343237354,99162187979845,0.7079468,-0.073349,1.1447449
android.sensor.gyroscope,1524343237374,99162207236437,0.352417,0.026809692,2.5533905
android.sensor.gyroscope,1524343237394,99162226462511,-0.21200562,-0.12832642,2.6914368
android.sensor.gyroscope,1524343237414,99162245719103,-0.69459534,-0.09411621,2.1721954
android.sensor.gyroscope,1524343237431,99162264975695,-0.76545715,-0.15887451,1.4807129
android.sensor.gyroscope,1524343237449,99162284232287,-0.29997253,0.15875244,0.1832428
android.sensor.gyroscope,1524343237469,99162303458361,-0.11305237,0.6340027,-1.6297913
android.sensor.gyroscope,1524343237490,99162322745470,-0.66526794,0.842926,-3.038437
android.sensor.gyroscope,1524343237512,99162342002062,-0.95602417,1.0115204,-3.4415894
android.sensor.gyroscope,1524343237527,99162361258654,-0.031204224,0.23207092,-2.4129028
android.sensor.gyroscope,1524343237546,99162380515246,1.0976715,-0.8711395,-0.50457764
android.sensor.gyroscope,1524343237566,99162399741320,1.1526489,-1.1545868,1.1887207
android.sensor.gyroscope,1524343237585,99162418997912,0.09095764,-1.0947113,2.8710327
android.sensor.gyroscope,1524343237604,99162438254504,-0.72268677,-0.61335754,2.9150085
android.sensor.gyroscope,1524343237624,99162457511095,-0.9389343,-0.0892334,1.7861328
android.sensor.gyroscope,1524343237643,99162476737170,-0.7764435,0.4104309,0.7403412
android.sensor.gyroscope,1524343237664,99162495993761,-0.61517334,0.53504944,-0.090408325
android.sensor.gyroscope,1524343237680,99162515250353,-0.47955322,0.119659424,-0.8991852
android.sensor.gyroscope,1524343237700,99162534506945,-0.24989319,0.072006226,-1.3817749
android.sensor.gyroscope,1524343237720,99162553733019,-0.031204224,0.6999817,-1.4013214
android.sensor.gyroscope,1524343237739,99162572989611,0.07875061,1.1190338,-1.00914
android.sensor.gyroscope,1524343237759,99162592246203,0.07019043,0.93211365,-0.33842468
android.sensor.gyroscope,1524343237776,99162611533312,-0.22177124,0.15631104,0.4190216
android.sensor.gyroscope,1524343237796,99162630789904,-0.5760803,-1.0202026,0.97369385
